Lab10/AND Output.csv

#Digilent WaveForms Oscilloscope Acquisition
#Device Name: Discovery2
#Serial Number: SN:210321A18A12
#Date Time: 2017-11-10 13:24:48.761
#Trigger:Source: Channel 1Type: EdgeCondition: RisingLevel: 2.8 VHyst.: AutoHoldOff: 0 s
#Channel 1: Range: 1.2 V/div Offset: 0 V

Time (s),Channel 1 (V)
-9.3467365728900308e-05,-0.053850136975886413
-9.3327365728900272e-05,-0.057510112528639246
-9.3187365728900236e-05,-0.057510112528639246
-9.3047365728900309e-05,-0.057510112528639246
-9.2907365728900273e-05,-0.053850136975886413
-9.2767365728900237e-05,-0.057510112528639246
-9.2627365728900309e-05,-0.057510112528639246
-9.2487365728900273e-05,-0.057510112528639246
-9.2347365728900237e-05,-0.053850136975888079
-9.220736572890031e-05,-0.057510112528639246
-9.2067365728900274e-05,-0.057510112528639246
-9.1927365728900238e-05,-0.053850136975886413
-9.178736572890031e-05,-0.053850136975886413
-9.1647365728900275e-05,-0.053850136975886413
-9.1507365728900239e-05,-0.053850136975886413
-9.1367365728900311e-05,-0.053850136975886413
-9.1227365728900275e-05,-0.057510112528639246
-9.1087365728900239e-05,-0.053850136975884748
-9.0947365728900312e-05,-0.050190161423135246
-9.0807365728900276e-05,-0.050190161423133581
-9.066736572890024e-05,-0.053850136975888079
-9.0527365728900312e-05,-0.05751011252863758
-9.0387365728900276e-05,-0.053850136975886413
-9.024736572890024e-05,-0.053850136975886413
-9.0107365728900313e-05,-0.053850136975886413
-8.9967365728900277e-05,-0.050190161423133581
-8.9827365728900241e-05,-0.050190161423131915
-8.9687365728900314e-05,-0.046530185870382421
-8.9547365728900278e-05,-0.046530185870380755
-8.9407365728900242e-05,-0.050190161423133581
-8.9267365728900314e-05,-0.050190161423133581
-8.9127365728900278e-05,-0.050190161423133581
-8.8987365728900242e-05,-0.046530185870380755
-8.8847365728900315e-05,-0.046530185870380755
-8.8707365728900279e-05,-0.050190161423133581
-8.8567365728900243e-05,-0.050190161423131915
-8.8427365728900315e-05,-0.046530185870382421
-8.828736572890028e-05,-0.050190161423133581
-8.8147365728900244e-05,-0.050190161423133581
-8.8007365728900316e-05,-0.050190161423133581
-8.786736572890028e-05,-0.057510112528639246
-8.7727365728900244e-05,-0.039210234764876763
-8.7587365728900317e-05,-0.042870210317626264
-8.7447365728900281e-05,-0.050190161423133581
-8.7307365728900245e-05,-0.050190161423131915
-8.7167365728900317e-05,-0.046530185870382421
-8.7027365728900281e-05,-0.050190161423133581
-8.6887365728900246e-05,-0.046530185870382421
-8.6747365728900318e-05,-0.050190161423131915
-8.6607365728900282e-05,-0.053850136975886413
-8.6467365728900246e-05,-0.053850136975884748
-8.6327365728900319e-05,-0.050190161423135246
-8.6187365728900283e-05,-0.050190161423133581
-8.6047365728900247e-05,-0.046530185870382421
-8.5907365728900319e-05,-0.050190161423131915
-8.5767365728900283e-05,-0.046530185870380755
-8.5627365728900247e-05,-0.046530185870380755
-8.548736572890032e-05,-0.046530185870380755
-8.5347365728900284e-05,-0.046530185870380755
-8.5207365728900248e-05,-0.046530185870380755
-8.5067365728900321e-05,-0.046530185870380755
-8.4927365728900285e-05,-0.050190161423133581
-8.4787365728900249e-05,-0.053850136975886413
-8.4647365728900321e-05,-0.050190161423135246
-8.4507365728900285e-05,-0.053850136975886413
-8.4367365728900249e-05,-0.057510112528639246
-8.4227365728900322e-05,-0.050190161423136911
-8.4087365728900286e-05,-0.050190161423133581
-8.394736572890025e-05,-0.050190161423133581
-8.3807365728900322e-05,-0.046530185870382421
-8.3667365728900287e-05,-0.046530185870380755
-8.3527365728900251e-05,-0.046530185870380755
-8.3387365728900323e-05,-0.042870210317629595
-8.3247365728900287e-05,-0.04287021031762793
-8.3107365728900251e-05,-0.050190161423133581
-8.2967365728900324e-05,-0.053850136975884748
-8.2827365728900288e-05,-0.053850136975886413
-8.2687365728900252e-05,-0.057510112528639246
-8.2547365728900324e-05,-0.057510112528639246
-8.2407365728900288e-05,-0.053850136975886413
-8.2267365728900253e-05,-0.053850136975886413
-8.2127365728900325e-05,-0.05751011252863758
-8.1987365728900289e-05,-0.053850136975886413
-8.1847365728900253e-05,-0.057510112528639246
-8.1707365728900326e-05,-0.057510112528639246
-8.156736572890029e-05,-0.057510112528639246
-8.1427365728900254e-05,-0.057510112528639246
-8.1287365728900326e-05,-0.061170088081390406
-8.114736572890029e-05,-0.057510112528639246
-8.1007365728900254e-05,-0.057510112528639246
-8.0867365728900327e-05,-0.053850136975888079
-8.0727365728900291e-05,-0.053850136975886413
-8.0587365728900255e-05,-0.053850136975886413
-8.0447365728900328e-05,-0.050190161423135246
-8.0307365728900292e-05,-0.050190161423133581
-8.0167365728900256e-05,-0.053850136975886413
-8.0027365728900328e-05,-0.050190161423135246
-7.9887365728900292e-05,-0.050190161423133581
-7.9747365728900256e-05,-0.050190161423133581
-7.9607365728900329e-05,-0.050190161423133581
-7.9467365728900293e-05,-0.046530185870380755
-7.9327365728900257e-05,-0.050190161423133581
-7.9187365728900329e-05,-0.050190161423133581
-7.9047365728900293e-05,-0.050190161423133581
-7.8907365728900258e-05,-0.046530185870380755
-7.876736572890033e-05,-0.046530185870380755
-7.8627365728900294e-05,-0.050190161423133581
-7.8487365728900258e-05,-0.046530185870380755
-7.8347365728900331e-05,-0.050190161423131915
-7.8207365728900295e-05,-0.046530185870380755
-7.8067365728900259e-05,-0.050190161423133581
-7.7927365728900331e-05,-0.057510112528635915
-7.7787365728900295e-05,-0.050190161423133581
-7.7647365728900259e-05,-0.050190161423133581
-7.7507365728900332e-05,-0.050190161423133581
-7.7367365728900296e-05,-0.050190161423133581
-7.722736572890026e-05,-0.053850136975886413
-7.7087365728900333e-05,-0.053850136975886413
-7.6947365728900297e-05,-0.050190161423133581
-7.6807365728900261e-05,-0.050190161423133581
-7.6667365728900333e-05,-0.050190161423133581
-7.6527365728900297e-05,-0.050190161423133581
-7.6387365728900261e-05,-0.050190161423133581
-7.6247365728900225e-05,-0.053850136975884748
-7.6107365728900298e-05,-0.050190161423133581
-7.5967365728900262e-05,-0.050190161423133581
-7.5827365728900226e-05,-0.046530185870384086
-7.5687365728900299e-05,-0.053850136975886413
-7.5547365728900263e-05,-0.053850136975886413
-7.5407365728900227e-05,-0.053850136975884748
-7.5267365728900299e-05,-0.050190161423133581
-7.5127365728900263e-05,-0.050190161423133581
-7.4987365728900227e-05,-0.046530185870384086
-7.48473657289003e-05,-0.053850136975886413
-7.4707365728900264e-05,-0.050190161423133581
-7.4567365728900228e-05,-0.053850136975884748
-7.44273657289003e-05,-0.050190161423133581
-7.4287365728900265e-05,-0.053850136975886413
-7.4147365728900229e-05,-0.050190161423131915
-7.4007365728900301e-05,-0.046530185870380755
-7.3867365728900265e-05,-0.050190161423133581
-7.3727365728900229e-05,-0.053850136975886413
-7.3587365728900302e-05,-0.053850136975886413
-7.3447365728900266e-05,-0.053850136975886413
-7.330736572890023e-05,-0.057510112528639246
-7.3167365728900302e-05,-0.057510112528639246
-7.3027365728900266e-05,-0.053850136975886413
-7.2887365728900231e-05,-0.057510112528639246
-7.2747365728900303e-05,-0.057510112528639246
-7.2607365728900267e-05,-0.053850136975886413
-7.2467365728900231e-05,-0.050190161423131915
-7.2327365728900304e-05,-0.046530185870380755
-7.2187365728900268e-05,-0.053850136975886413
-7.2047365728900232e-05,-0.050190161423135246
-7.1907365728900304e-05,-0.053850136975886413
-7.1767365728900268e-05,-0.050190161423133581
-7.1627365728900232e-05,-0.050190161423135246
-7.1487365728900305e-05,-0.053850136975886413
-7.1347365728900269e-05,-0.050190161423133581
-7.1207365728900233e-05,-0.050190161423131915
-7.1067365728900306e-05,-0.046530185870380755
-7.092736572890027e-05,-0.050190161423133581
-7.0787365728900234e-05,-0.050190161423131915
-7.0647365728900306e-05,-0.046530185870380755
-7.050736572890027e-05,-0.046530185870380755
-7.0367365728900234e-05,-0.050190161423133581
-7.0227365728900307e-05,-0.050190161423133581
-7.0087365728900271e-05,-0.053850136975886413
-6.9947365728900235e-05,-0.053850136975884748
-6.9807365728900307e-05,-0.050190161423133581
-6.9667365728900271e-05,-0.050190161423133581
-6.9527365728900236e-05,-0.050190161423133581
-6.9387365728900308e-05,-0.050190161423133581
-6.9247365728900272e-05,-0.050190161423133581
-6.9107365728900236e-05,-0.050190161423131915
-6.8967365728900309e-05,-0.046530185870380755
-6.8827365728900273e-05,-0.053850136975886413
-6.8687365728900237e-05,-0.050190161423135246
-6.8547365728900309e-05,-0.053850136975886413
-6.8407365728900273e-05,-0.050190161423133581
-6.8267365728900237e-05,-0.053850136975884748
-6.812736572890031e-05,-0.050190161423133581
-6.7987365728900274e-05,-0.050190161423133581
-6.7847365728900238e-05,-0.050190161423135246
-6.7707365728900311e-05,-0.053850136975886413
-6.7567365728900275e-05,-0.053850136975886413
-6.7427365728900239e-05,-0.053850136975886413
-6.7287365728900311e-05,-0.053850136975886413
-6.7147365728900275e-05,-0.050190161423133581
-6.7007365728900239e-05,-0.046530185870380755
-6.6867365728900312e-05,-0.046530185870380755
-6.6727365728900276e-05,-0.046530185870380755
-6.658736572890024e-05,-0.050190161423131915
-6.6447365728900312e-05,-0.046530185870382421
-6.6307365728900277e-05,-0.050190161423133581
-6.6167365728900241e-05,-0.04287021031763126
-6.6027365728900313e-05,-0.05019016142313025
-6.5887365728900277e-05,-0.050190161423133581
-6.5747365728900241e-05,-0.050190161423135246
-6.5607365728900314e-05,-0.053850136975884748
-6.5467365728900278e-05,-0.053850136975886413
-6.5327365728900242e-05,-0.050190161423135246
-6.5187365728900314e-05,-0.053850136975884748
-6.5047365728900278e-05,-0.046530185870380755
-6.4907365728900243e-05,-0.050190161423131915
-6.4767365728900315e-05,-0.046530185870382421
-6.4627365728900279e-05,-0.050190161423133581
-6.4487365728900243e-05,-0.050190161423133581
-6.4347365728900316e-05,-0.050190161423133581
-6.420736572890028e-05,-0.046530185870380755
-6.4067365728900244e-05,-0.050190161423135246
-6.3927365728900316e-05,-0.053850136975884748
-6.378736572890028e-05,-0.050190161423133581
-6.3647365728900244e-05,-0.053850136975884748
-6.3507365728900317e-05,-0.050190161423135246
-6.3367365728900281e-05,-0.057510112528639246
-6.3227365728900245e-05,-0.050190161423135246
-6.3087365728900318e-05,-0.053850136975884748
-6.2947365728900282e-05,-0.050190161423133581
-6.2807365728900246e-05,-0.050190161423133581
-6.2667365728900318e-05,-0.050190161423133581
-6.2527365728900282e-05,-0.050190161423133581
-6.2387365728900246e-05,-0.050190161423133581
-6.2247365728900319e-05,-0.050190161423133581
-6.2107365728900283e-05,-0.053850136975886413
-6.1967365728900247e-05,-0.057510112528635915
-6.1827365728900319e-05,-0.050190161423136911
-6.1687365728900284e-05,-0.053850136975886413
-6.1547365728900248e-05,-0.050190161423133581
-6.140736572890032e-05,-0.053850136975884748
-6.1267365728900284e-05,-0.050190161423133581
-6.1127365728900248e-05,-0.04287021031762793
-6.0987365728900321e-05,-0.053850136975881424
-6.0847365728900285e-05,-0.050190161423133581
-6.0707365728900249e-05,-0.050190161423133581
-6.0567365728900321e-05,-0.053850136975884748
-6.0427365728900285e-05,-0.050190161423133581
-6.0287365728900249e-05,-0.050190161423133581
-6.0147365728900322e-05,-0.053850136975884748
-6.0007365728900286e-05,-0.061170088081392071
-5.986736572890025e-05,-0.061170088081392071
-5.9727365728900323e-05,-0.053850136975889744
-5.9587365728900287e-05,-0.053850136975886413
-5.9447365728900251e-05,-0.053850136975886413
-5.9307365728900323e-05,-0.053850136975886413
-5.9167365728900287e-05,-0.050190161423133581
-5.9027365728900251e-05,-0.050190161423133581
-5.8887365728900324e-05,-0.050190161423133581
-5.8747365728900288e-05,-0.050190161423133581
-5.8607365728900252e-05,-0.050190161423133581
-5.8467365728900325e-05,-0.053850136975884748
-5.8327365728900289e-05,-0.053850136975886413
-5.8187365728900253e-05,-0.057510112528639246
-5.8047365728900325e-05,-0.057510112528639246
-5.7907365728900289e-05,-0.050190161423133581
-5.7767365728900253e-05,-0.053850136975886413
-5.7627365728900326e-05,-0.050190161423135246
-5.748736572890029e-05,-0.053850136975886413
-5.7347365728900254e-05,-0.053850136975886413
-5.7207365728900326e-05,-0.050190161423135246
-5.706736572890029e-05,-0.050190161423133581
-5.6927365728900255e-05,-0.053850136975886413
-5.6787365728900327e-05,-0.050190161423135246
-5.6647365728900291e-05,-0.050190161423133581
-5.6507365728900255e-05,-0.053850136975886413
-5.6367365728900328e-05,-0.046530185870384086
-5.6227365728900292e-05,-0.046530185870380755
-5.6087365728900256e-05,-0.046530185870380755
-5.5947365728900328e-05,-0.046530185870380755
-5.5807365728900292e-05,-0.046530185870380755
-5.5667365728900256e-05,-0.04287021031762793
-5.5527365728900329e-05,-0.04653018587037909
-5.5387365728900293e-05,-0.04287021031762793
-5.5247365728900257e-05,-0.04287021031762793
-5.510736572890033e-05,-0.04287021031762793
-5.4967365728900294e-05,-0.04287021031762793
-5.4827365728900258e-05,-0.04287021031762793
-5.468736572890033e-05,-0.04287021031762793
-5.4547365728900294e-05,-0.046530185870380755
-5.4407365728900258e-05,-0.039210234764875097
-5.4267365728900331e-05,-0.053850136975879759
-5.4127365728900295e-05,-0.053850136975886413
-5.3987365728900259e-05,-0.053850136975886413
-5.3847365728900331e-05,-0.05751011252863758
-5.3707365728900296e-05,-0.050190161423133581
-5.356736572890026e-05,-0.050190161423133581
-5.3427365728900332e-05,-0.057510112528635915
-5.3287365728900296e-05,-0.053850136975886413
-5.314736572890026e-05,-0.050190161423133581
-5.3007365728900333e-05,-0.050190161423133581
-5.2867365728900297e-05,-0.050190161423133581
-5.2727365728900261e-05,-0.050190161423133581
-5.2587365728900225e-05,-0.05019016142313025
-5.2447365728900297e-05,-0.04287021031762793
-5.2307365728900262e-05,-0.039210234764875097
-5.2167365728900226e-05,-0.04287021031763126
-5.2027365728900298e-05,-0.050190161423133581
-5.1887365728900262e-05,-0.050190161423133581
-5.1747365728900226e-05,-0.04287021031763126
-5.1607365728900299e-05,-0.050190161423133581
-5.1467365728900263e-05,-0.04287021031762793
-5.1327365728900227e-05,-0.046530185870380755
-5.1187365728900299e-05,-0.046530185870380755
-5.1047365728900263e-05,-0.053850136975886413
-5.0907365728900227e-05,-0.050190161423133581
-5.07673657289003e-05,-0.050190161423133581
-5.0627365728900264e-05,-0.04287021031762793
-5.0487365728900228e-05,-0.04287021031762793
-5.0347365728900301e-05,-0.04287021031762793
-5.0207365728900265e-05,-0.053850136975886413
-5.0067365728900229e-05,-0.039210234764880093
-4.9927365728900301e-05,-0.050190161423133581
-4.9787365728900265e-05,-0.046530185870380755
-4.9647365728900229e-05,-0.050190161423135246
-4.9507365728900302e-05,-0.053850136975886413
-4.9367365728900266e-05,-0.057510112528639246
-4.922736572890023e-05,-0.053850136975886413
-4.9087365728900303e-05,-0.053850136975886413
-4.8947365728900267e-05,-0.053850136975886413
-4.8807365728900231e-05,-0.053850136975886413
-4.8667365728900303e-05,-0.053850136975886413
-4.8527365728900267e-05,-0.061170088081392071
-4.8387365728900231e-05,-0.057510112528640911
-4.8247365728900304e-05,-0.061170088081392071
-4.8107365728900268e-05,-0.053850136975886413
-4.7967365728900232e-05,-0.053850136975886413
-4.7827365728900304e-05,-0.053850136975886413
-4.7687365728900268e-05,-0.050190161423133581
-4.7547365728900233e-05,-0.05751011252863758
-4.7407365728900305e-05,-0.053850136975886413
-4.7267365728900269e-05,-0.053850136975886413
-4.7127365728900233e-05,-0.053850136975886413
-4.6987365728900306e-05,-0.053850136975886413
-4.684736572890027e-05,-0.050190161423133581
-4.6707365728900234e-05,-0.053850136975884748
-4.6567365728900306e-05,-0.050190161423133581
-4.642736572890027e-05,-0.053850136975886413
-4.6287365728900234e-05,-0.057510112528635915
-4.6147365728900307e-05,-0.050190161423133581
-4.6007365728900271e-05,-0.057510112528639246
-4.5867365728900235e-05,-0.053850136975886413
-4.5727365728900308e-05,-0.053850136975886413
-4.5587365728900272e-05,-0.050190161423133581
-4.5447365728900236e-05,-0.050190161423133581
-4.5307365728900308e-05,-0.050190161423133581
-4.5167365728900272e-05,-0.050190161423133581
-4.5027365728900236e-05,-0.053850136975886413
-4.4887365728900309e-05,-0.053850136975886413
-4.4747365728900273e-05,-0.053850136975886413
-4.4607365728900237e-05,-0.053850136975884748
-4.4467365728900309e-05,-0.050190161423133581
-4.4327365728900274e-05,-0.053850136975886413
-4.4187365728900238e-05,-0.050190161423135246
-4.404736572890031e-05,-0.053850136975886413
-4.3907365728900274e-05,-0.053850136975886413
-4.3767365728900238e-05,-0.053850136975888079
-4.3627365728900311e-05,-0.05751011252863758
-4.3487365728900275e-05,-0.057510112528639246
-4.3347365728900239e-05,-0.057510112528640911
-4.3207365728900311e-05,-0.061170088081390406
-4.3067365728900275e-05,-0.057510112528639246
-4.292736572890024e-05,-0.061170088081390406
-4.2787365728900312e-05,-0.057510112528640911
-4.2647365728900276e-05,-0.057510112528639246
-4.250736572890024e-05,-0.057510112528639246
-4.2367365728900313e-05,-0.057510112528639246
-4.2227365728900277e-05,-0.053850136975886413
-4.2087365728900241e-05,-0.05751011252863758
-4.1947365728900313e-05,-0.053850136975888079
-4.1807365728900277e-05,-0.053850136975886413
-4.1667365728900241e-05,-0.053850136975888079
-4.1527365728900314e-05,-0.05751011252863758
-4.1387365728900278e-05,-0.050190161423133581
-4.1247365728900242e-05,-0.053850136975884748
-4.1107365728900315e-05,-0.050190161423135246
-4.0967365728900279e-05,-0.050190161423133581
-4.0827365728900243e-05,-0.053850136975883083
-4.0687365728900315e-05,-0.046530185870384086
-4.0547365728900279e-05,-0.050190161423133581
-4.0407365728900243e-05,-0.046530185870380755
-4.0267365728900316e-05,-0.046530185870380755
-4.012736572890028e-05,-0.050190161423133581
-3.9987365728900244e-05,-0.04653018587037909
-3.9847365728900316e-05,-0.042870210317629595
-3.9707365728900281e-05,-0.050190161423133581
-3.9567365728900245e-05,-0.050190161423131915
-3.9427365728900317e-05,-0.046530185870382421
-3.9287365728900281e-05,-0.046530185870380755
-3.9147365728900245e-05,-0.046530185870380755
-3.9007365728900318e-05,-0.046530185870380755
-3.8867365728900282e-05,-0.050190161423133581
-3.8727365728900246e-05,-0.050190161423136911
-3.8587365728900318e-05,-0.057510112528635915
-3.8447365728900282e-05,-0.050190161423133581
-3.8307365728900246e-05,-0.057510112528639246
-3.8167365728900319e-05,-0.057510112528639246
-3.8027365728900283e-05,-0.057510112528639246
-3.7887365728900247e-05,-0.053850136975886413
-3.774736572890032e-05,-0.053850136975886413
-3.7607365728900284e-05,-0.057510112528639246
-3.7467365728900248e-05,-0.061170088081392071
-3.732736572890032e-05,-0.050190161423138577
-3.7187365728900284e-05,-0.050190161423133581
-3.7047365728900248e-05,-0.053850136975886413
-3.6907365728900321e-05,-0.053850136975886413
-3.6767365728900285e-05,-0.053850136975886413
-3.6627365728900249e-05,-0.061170088081392071
-3.6487365728900322e-05,-0.053850136975889744
-3.6347365728900286e-05,-0.050190161423133581
-3.620736572890025e-05,-0.053850136975886413
-3.6067365728900322e-05,-0.05751011252863758
-3.5927365728900286e-05,-0.057510112528639246
-3.578736572890025e-05,-0.061170088081392071
-3.5647365728900323e-05,-0.057510112528640911
-3.5507365728900287e-05,-0.057510112528639246
-3.5367365728900251e-05,-0.053850136975886413
-3.5227365728900323e-05,-0.053850136975886413
-3.5087365728900287e-05,-0.050190161423133581
-3.4947365728900252e-05,-0.053850136975886413
-3.4807365728900324e-05,-0.05751011252863758
-3.4667365728900288e-05,-0.053850136975886413
-3.4527365728900252e-05,-0.050190161423133581
-3.4387365728900325e-05,-0.057510112528635915
-3.4247365728900289e-05,-0.053850136975886413
-3.4107365728900253e-05,-0.046530185870380755
-3.3967365728900325e-05,-0.046530185870380755
-3.3827365728900289e-05,-0.053850136975886413
-3.3687365728900253e-05,-0.053850136975886413
-3.3547365728900326e-05,-0.053850136975886413
-3.340736572890029e-05,-0.050190161423133581
