Lab10/ultrasonic.csv

#Digilent WaveForms Oscilloscope Acquisition
#Device Name: Discovery2
#Serial Number: SN:210321A18A12
#Date Time: 2017-11-10 18:09:56.555
#Trigger:Source: Channel 1Type: EdgeCondition: RisingLevel: 0 VHyst.: AutoHoldOff: 0 s
#Channel 1: Range: 800 mV/div Offset: 0 V
#Channel 2: Range: 500 mV/div Offset: 0 V

Time (s),Channel 1 (V),Channel 2 (V)
-0.0012385139123102882,-2.571913317269833,-0.019254799863233748
-0.0012360139123102874,-2.571913317269833,-0.021283878991032807
-0.0012335139123102867,-2.5682533417170799,-0.017902080444700732
-0.0012310139123102876,-2.5682533417170799,-0.017225720735434689
-0.0012285139123102869,-2.5682533417170799,-0.016887540880801515
-0.0012260139123102878,-2.571913317269833,-0.016549361026168337
-0.0012235139123102871,-2.571913317269833,-0.014858461753002455
-0.001221013912310288,-2.5682533417170816,-0.018240260299332681
-0.0012185139123102873,-2.5682533417170799,-0.015196641607635631
-0.0012160139123102865,-2.5682533417170816,-0.017225720735436535
-0.0012135139123102875,-2.571913317269833,-0.021283878991032807
-0.0012110139123102867,-2.5719133172698312,-0.019592979717867234
-0.0012085139123102877,-2.5682533417170799,-0.020269339427133277
-0.0012060139123102869,-2.571913317269833,-0.017563900590067866
-0.0012035139123102879,-2.5682533417170799,-0.017225720735434689
-0.0012010139123102871,-2.571913317269833,-0.015534821462268807
-0.0011985139123102881,-2.5682533417170816,-0.017225720735433919
-0.0011960139123102873,-2.5682533417170799,-0.015196641607635631
-0.0011935139123102866,-2.5682533417170816,-0.016211181171536544
-0.0011910139123102875,-2.571913317269833,-0.019254799863233748
-0.0011885139123102868,-2.5682533417170816,-0.016549361026170335
-0.0011860139123102877,-2.571913317269833,-0.020945699136399629
-0.001183513912310287,-2.571913317269833,-0.018240260299334218
-0.0011810139123102879,-2.5682533417170816,-0.01722572073543515
-0.0011785139123102872,-2.571913317269833,-0.018240260299334218
-0.0011760139123102881,-2.5682533417170816,-0.014520281898370969
-0.0011735139123102874,-2.5682533417170799,-0.016887540880801515
-0.0011710139123102866,-2.5755732928225838,-0.016549361026168798
-0.0011685139123102876,-2.571913317269833,-0.017563900590067866
-0.0011660139123102868,-2.5682533417170799,-0.017902080444701041
-0.0011635139123102878,-2.5682533417170799,-0.01891662000860057
-0.001161013912310287,-2.5682533417170799,-0.022636598409565511
-0.001158513912310288,-2.5682533417170799,-0.01959297971786831
-0.0011560139123102872,-2.5682533417170799,-0.019254799863233748
-0.0011535139123102882,-2.5682533417170799,-0.017902080444701655
-0.0011510139123102874,-2.5682533417170799,-0.018240260299334218
-0.0011485139123102867,-2.571913317269833,-0.0155348214622685
-0.0011460139123102876,-2.571913317269833,-0.014858461753002455
-0.0011435139123102869,-2.5682533417170799,-0.015196641607635631
-0.0011410139123102878,-2.5682533417170799,-0.015196641607635631
-0.0011385139123102871,-2.571913317269833,-0.017902080444701041
-0.001136013912310288,-2.571913317269833,-0.020269339427132202
-0.0011335139123102873,-2.571913317269833,-0.018578440153967396
-0.0011310139123102865,-2.5719133172698312,-0.018240260299333448
-0.0011285139123102875,-2.5682533417170799,-0.016549361026168337
-0.0011260139123102867,-2.5682533417170799,-0.017902080444700732
-0.0011235139123102877,-2.5682533417170799,-0.017225720735434689
-0.0011210139123102869,-2.5682533417170799,-0.015873001316901985
-0.0011185139123102879,-2.571913317269833,-0.015873001316901985
-0.0011160139123102871,-2.5682533417170799,-0.017902080444701041
-0.0011135139123102881,-2.5719133172698312,-0.018240260299334066
-0.0011110139123102873,-2.5755732928225856,-0.020945699136399629
-0.0011085139123102866,-2.5719133172698312,-0.020607519281766455
-0.0011060139123102875,-2.5682533417170799,-0.020607519281766455
-0.0011035139123102868,-2.5682533417170816,-0.01959297971786508
-0.0011010139123102877,-2.571913317269833,-0.015534821462268807
-0.001098513912310287,-2.571913317269833,-0.017902080444701041
-0.0010960139123102879,-2.571913317269833,-0.013843922189104772
-0.0010935139123102872,-2.571913317269833,-0.016211181171535159
-0.0010910139123102881,-2.5682533417170816,-0.017225720735434227
-0.0010885139123102874,-2.5682533417170799,-0.016549361026168337
-0.0010860139123102866,-2.5719133172698299,-0.021283878991032498
-0.0010835139123102876,-2.5645933661643272,-0.020607519281766455
-0.0010810139123102868,-2.571913317269833,-0.021283878991032807
-0.0010785139123102878,-2.571913317269833,-0.019254799863233748
-0.001076013912310287,-2.5682533417170799,-0.016549361026168337
-0.001073513912310288,-2.5682533417170799,-0.017563900590067405
-0.0010710139123102872,-2.5682533417170799,-0.014520281898369278
-0.0010685139123102882,-2.5682533417170799,-0.013505742334470211
-0.0010660139123102874,-2.5682533417170799,-0.014182102043736102
-0.0010635139123102866,-2.5682533417170816,-0.016887540880801976
-0.0010610139123102876,-2.571913317269833,-0.017902080444701041
-0.0010585139123102869,-2.571913317269833,-0.01891662000860057
-0.0010560139123102878,-2.571913317269833,-0.019592979717866926
-0.0010535139123102871,-2.571913317269833,-0.020607519281766455
-0.001051013912310288,-2.571913317269833,-0.018578440153968319
-0.0010485139123102873,-2.5755732928225856,-0.017225720735434689
-0.0010460139123102865,-2.5755732928225825,-0.016887540880799978
-0.0010435139123102875,-2.5682533417170799,-0.01350574233446975
-0.0010410139123102867,-2.5682533417170781,-0.015196641607635477
-0.0010385139123102877,-2.5645933661643272,-0.014858461753002455
-0.0010360139123102869,-2.571913317269833,-0.018578440153967396
-0.0010335139123102879,-2.571913317269833,-0.017902080444701041
-0.0010310139123102871,-2.5682533417170799,-0.021622058845665981
-0.0010285139123102881,-2.5682533417170799,-0.02128387899103296
-0.0010260139123102873,-2.5682533417170799,-0.020607519281766455
-0.0010235139123102865,-2.5719133172698299,-0.019254799863231441
-0.0010210139123102875,-2.5645933661643272,-0.014182102043736102
-0.0010185139123102867,-2.5682533417170781,-0.0145202818983682
-0.0010160139123102877,-2.5645933661643272,-0.012153022915937044
-0.001013513912310287,-2.5682533417170799,-0.012829382625203396
-0.0010110139123102879,-2.5682533417170799,-0.020945699136399629
-0.0010085139123102872,-2.571913317269833,-0.019254799863233748
-0.0010060139123102881,-2.571913317269833,-0.022298418554930952
-0.0010035139123102874,-2.571913317269833,-0.019592979717866926
-0.0010010139123102866,-2.571913317269833,-0.019592979717866617
-0.00099851391231028756,-2.571913317269833,-0.01891662000860057
-0.0009960139123102868,-2.5682533417170799,-0.015196641607635631
-0.00099351391231028777,-2.5645933661643272,-0.013167562479836574
-0.000991013912310287,-2.5682533417170799,-0.013843922189102926
-0.00098851391231028797,-2.5682533417170799,-0.013505742334469904
-0.0009860139123102872,-2.5682533417170799,-0.014858461753002455
-0.00098351391231028817,-2.5719133172698312,-0.020945699136396861
-0.00098101391231028741,-2.571913317269833,-0.021283878991032807
-0.00097851391231028664,-2.5755732928225838,-0.023312958118830478
-0.00097601391231028761,-2.571913317269833,-0.020269339427133277
-0.00097351391231028685,-2.5682533417170799,-0.018240260299334218
-0.00097101391231028782,-2.571913317269833,-0.017902080444701041
-0.00096851391231028705,-2.571913317269833,-0.013843922189102926
-0.00096601391231028802,-2.5682533417170816,-0.014182102043735947
-0.00096351391231028725,-2.5682533417170799,-0.015196641607635631
-0.00096101391231028649,-2.5645933661643272,-0.015873001316902599
-0.00095851391231028746,-2.5645933661643272,-0.017225720735434689
-0.00095601391231028669,-2.5682533417170799,-0.019931159572499486
-0.00095351391231028766,-2.5682533417170799,-0.018578440153967396
-0.0009510139123102869,-2.5682533417170799,-0.021622058845665981
-0.00094851391231028787,-2.5682533417170799,-0.020269339427133277
-0.0009460139123102871,-2.5645933661643272,-0.017225720735434689
-0.00094351391231028807,-2.5682533417170781,-0.018578440153966782
-0.0009410139123102873,-2.5682533417170799,-0.010462123642771163
-0.00093851391231028654,-2.5682533417170799,-0.012829382625203858
-0.00093601391231028751,-2.5682533417170799,-0.013843922189102926
-0.00093351391231028674,-2.5719133172698312,-0.01384392218910554
-0.00093101391231028771,-2.5682533417170799,-0.019592979717866926
-0.00092851391231028695,-2.5682533417170799,-0.021622058845665981
-0.00092601391231028791,-2.5682533417170799,-0.020269339427133277
-0.00092351391231028715,-2.5682533417170799,-0.02365113797346504
-0.00092101391231028812,-2.5719133172698312,-0.017902080444703657
-0.00091851391231028735,-2.5682533417170799,-0.014520281898369278
-0.00091601391231028659,-2.5719133172698312,-0.013505742334468673
-0.00091351391231028756,-2.5682533417170799,-0.011138483352037515
-0.00091101391231028679,-2.5682533417170799,-0.015196641607635631
-0.00090851391231028776,-2.5682533417170799,-0.018240260299334218
-0.000906013912310287,-2.5682533417170799,-0.0199311595725001
-0.00090351391231028796,-2.5719133172698312,-0.022974778264197304
-0.0009010139123102872,-2.5682533417170799,-0.021283878991032807
-0.00089851391231028817,-2.5719133172698312,-0.021622058845665829
-0.0008960139123102874,-2.5682533417170799,-0.018240260299334218
-0.00089351391231028664,-2.5682533417170799,-0.013167562479836728
-0.00089101391231028761,-2.5682533417170799,-0.01350574233446975
-0.00088851391231028684,-2.5645933661643272,-0.01350574233446975
-0.00088601391231028781,-2.5682533417170799,-0.014858461753002455
-0.00088351391231028704,-2.571913317269833,-0.016887540880801515
-0.00088101391231028801,-2.5682533417170816,-0.02162205884566383
-0.00087851391231028725,-2.571913317269833,-0.022298418554932337
-0.00087601391231028822,-2.5682533417170816,-0.020607519281767225
-0.00087351391231028745,-2.5682533417170799,-0.016549361026168337
-0.00087101391231028669,-2.5719133172698312,-0.016549361026168951
-0.00086851391231028766,-2.5682533417170799,-0.017902080444701041
-0.00086601391231028689,-2.5682533417170799,-0.015196641607635631
-0.00086351391231028786,-2.5682533417170799,-0.013167562479836574
-0.00086101391231028709,-2.5645933661643272,-0.015196641607635631
-0.00085851391231028806,-2.5719133172698299,-0.018240260299332834
-0.0008560139123102873,-2.571913317269833,-0.021960238700299159
-0.00085351391231028653,-2.5719133172698312,-0.021283878991032654
-0.0008510139123102875,-2.5682533417170799,-0.020945699136399629
-0.00084851391231028674,-2.5719133172698312,-0.0222984185549308
-0.00084601391231028771,-2.5682533417170799,-0.01891662000860057
-0.00084351391231028694,-2.5645933661643272,-0.01350574233446975
-0.00084101391231028791,-2.5645933661643272,-0.011138483352037515
-0.00083851391231028714,-2.5645933661643272,-0.01350574233446975
-0.00083601391231028811,-2.5682533417170781,-0.015534821462267884
-0.00083351391231028735,-2.5682533417170799,-0.016887540880801515
-0.00083101391231028658,-2.5719133172698312,-0.01824026029933545
-0.00082851391231028755,-2.5682533417170799,-0.020945699136399629
-0.00082601391231028679,-2.5682533417170781,-0.023312958118830631
-0.00082351391231028775,-2.5645933661643272,-0.020607519281766455
-0.00082101391231028699,-2.5682533417170799,-0.016549361026168337
-0.00081851391231028796,-2.5682533417170799,-0.016887540880801362
-0.00081601391231028719,-2.571913317269833,-0.012829382625203396
-0.00081351391231028816,-2.571913317269833,-0.012153022915937351
-0.0008110139123102874,-2.5682533417170799,-0.014520281898369278
-0.00080851391231028663,-2.571913317269833,-0.018578440153968472
-0.0008060139123102876,-2.571913317269833,-0.020945699136399629
-0.00080351391231028683,-2.571913317269833,-0.020607519281766455
-0.0008010139123102878,-2.571913317269833,-0.02365113797346504
-0.00079851391231028704,-2.571913317269833,-0.022636598409565511
-0.00079601391231028801,-2.5682533417170816,-0.018240260299336217
-0.00079351391231028724,-2.5682533417170799,-0.013843922189102926
-0.00079101391231028821,-2.5682533417170799,-0.013167562479836881
-0.00078851391231028745,-2.571913317269833,-0.010462123642771163
-0.00078601391231028668,-2.5682533417170799,-0.015196641607635938
-0.00078351391231028765,-2.5682533417170799,-0.015873001316901985
-0.00078101391231028688,-2.5682533417170799,-0.021960238700299159
-0.00077851391231028785,-2.5682533417170799,-0.020945699136399629
-0.00077601391231028709,-2.5682533417170799,-0.021622058845665981
-0.00077351391231028806,-2.5682533417170799,-0.02128387899103296
-0.00077101391231028729,-2.5682533417170799,-0.017902080444701041
-0.00076851391231028653,-2.571913317269833,-0.014182102043735486
-0.0007660139123102875,-2.571913317269833,-0.012829382625203396
-0.00076351391231028673,-2.5682533417170799,-0.013843922189102619
-0.0007610139123102877,-2.5682533417170799,-0.013167562479836574
-0.00075851391231028693,-2.5682533417170799,-0.019254799863233748
-0.0007560139123102879,-2.571913317269833,-0.019592979717866926
-0.00075351391231028714,-2.5682533417170799,-0.022298418554932337
-0.00075101391231028811,-2.5719133172698312,-0.021960238700299312
-0.00074851391231028734,-2.5682533417170799,-0.022974778264198688
-0.00074601391231028658,-2.5682533417170799,-0.018916620008598724
-0.00074351391231028754,-2.5682533417170799,-0.014858461753002455
-0.00074101391231028678,-2.568253341717083,-0.012153022915936429
-0.00073851391231028775,-2.5755732928225856,-0.010800303497404339
-0.00073601391231028698,-2.571913317269833,-0.01350574233446975
-0.00073351391231028795,-2.5682533417170816,-0.019254799863231135
-0.00073101391231028719,-2.571913317269833,-0.020607519281766455
-0.00072851391231028816,-2.571913317269833,-0.021283878991032498
-0.00072601391231028739,-2.571913317269833,-0.0256802171012641
-0.00072351391231028662,-2.5682533417170799,-0.020945699136399168
-0.00072101391231028759,-2.5682533417170799,-0.0199311595725001
-0.00071851391231028683,-2.5682533417170799,-0.015196641607635631
-0.0007160139123102878,-2.5682533417170799,-0.010123943788137985
-0.00071351391231028703,-2.571913317269833,-0.010123943788137985
-0.000711013912310288,-2.571913317269833,-0.011476663206670075
-0.00070851391231028724,-2.5682533417170799,-0.015196641607635631
-0.00070601391231028821,-2.5719133172698312,-0.020607519281763995
-0.00070351391231028744,-2.5682533417170799,-0.022974778264198688
-0.00070101391231028667,-2.5719133172698312,-0.022974778264199303
-0.00069851391231028764,-2.5682533417170799,-0.024327497682731392
-0.00069601391231028688,-2.5682533417170799,-0.018240260299334218
-0.00069351391231028785,-2.5645933661643272,-0.014520281898369278
-0.00069101391231028708,-2.5645933661643272,-0.01249120277057022
-0.00068851391231028805,-2.5719133172698299,-0.012153022915937199
-0.00068601391231028729,-2.5682533417170799,-0.01350574233446975
-0.00068351391231028652,-2.5682533417170816,-0.018240260299334371
-0.00068101391231028749,-2.571913317269833,-0.018578440153967396
-0.00067851391231028672,-2.5682533417170816,-0.021960238700301313
-0.00067601391231028769,-2.571913317269833,-0.026694756665163629
-0.00067351391231028693,-2.5682533417170799,-0.024327497682731392
-0.0006710139123102879,-2.571913317269833,-0.017902080444701041
-0.00066851391231028713,-2.5682533417170799,-0.013167562479836574
-0.0006660139123102881,-2.5609333906115777,-0.011814843061304483
-0.00066351391231028733,-2.571913317269833,-0.011138483352037515
-0.00066101391231028657,-2.5682533417170781,-0.012491202770570989
-0.00065851391231028754,-2.5645933661643272,-0.014182102043736102
-0.00065601391231028677,-2.571913317269833,-0.020269339427135123
-0.00065351391231028774,-2.571913317269833,-0.024327497682731392
-0.00065101391231028698,-2.5682533417170799,-0.022974778264198688
-0.00064851391231028795,-2.5719133172698312,-0.019931159572501484
-0.00064601391231028718,-2.5682533417170799,-0.019592979717866926
-0.00064351391231028815,-2.5682533417170799,-0.018578440153967857
-0.00064101391231028738,-2.5682533417170799,-0.013167562479836574
-0.00063851391231028662,-2.5682533417170799,-0.010800303497406492
-0.00063601391231028759,-2.5682533417170799,-0.015534821462268807
-0.00063351391231028682,-2.5682533417170799,-0.018240260299334218
-0.00063101391231028779,-2.5682533417170799,-0.019254799863233748
-0.00062851391231028703,-2.5682533417170799,-0.022974778264198688
-0.000626013912310288,-2.5682533417170799,-0.022974778264198688
-0.00062351391231028723,-2.5682533417170799,-0.021622058845665981
-0.0006210139123102882,-2.5719133172698312,-0.01857844015396878
-0.00061851391231028743,-2.571913317269833,-0.015534821462268807
-0.00061601391231028667,-2.5682533417170799,-0.01282938262520278
-0.00061351391231028764,-2.5682533417170799,-0.011476663206670691
-0.00061101391231028687,-2.571913317269833,-0.01249120277057022
-0.00060851391231028784,-2.571913317269833,-0.016211181171535159
-0.00060601391231028708,-2.5682533417170799,-0.019592979717866926
-0.00060351391231028804,-2.5719133172698312,-0.023651137973463195
-0.00060101391231028728,-2.571913317269833,-0.023989317828098218
-0.00059851391231028651,-2.5719133172698312,-0.023651137973463503
-0.00059601391231028748,-2.5682533417170799,-0.020269339427133277
-0.00059351391231028672,-2.5719133172698312,-0.014520281898368509
-0.00059101391231028769,-2.5682533417170799,-0.012829382625203396
-0.00058851391231028692,-2.571913317269833,-0.0094475840788716334
-0.00058601391231028789,-2.5645933661643272,-0.01249120277057022
-0.00058351391231028713,-2.571913317269833,-0.015534821462268807
-0.00058101391231028809,-2.571913317269833,-0.019931159572498101
-0.00057851391231028733,-2.5682533417170799,-0.020607519281766455
-0.00057601391231028656,-2.5719133172698312,-0.022298418554932951
-0.00057351391231028753,-2.5682533417170799,-0.02365113797346504
-0.00057101391231028677,-2.5682533417170799,-0.018578440153966164
-0.00056851391231028774,-2.5682533417170799,-0.015873001316901985
-0.00056601391231028697,-2.5682533417170799,-0.01249120277057022
-0.00056351391231028794,-2.5682533417170799,-0.010462123642772086
-0.00056101391231028717,-2.5682533417170799,-0.01249120277057022
-0.00055851391231028814,-2.5719133172698312,-0.017563900590065559
-0.00055601391231028738,-2.571913317269833,-0.020945699136399629
-0.00055351391231028661,-2.5682533417170816,-0.023312958118831401
-0.00055101391231028758,-2.571913317269833,-0.022298418554932337
-0.00054851391231028682,-2.5682533417170799,-0.020945699136399629
-0.00054601391231028779,-2.5682533417170799,-0.0199311595725001
-0.00054351391231028702,-2.5645933661643272,-0.014182102043736102
-0.00054101391231028799,-2.5645933661643272,-0.012829382625204012
-0.00053851391231028722,-2.5645933661643272,-0.01249120277057022
-0.00053601391231028819,-2.5645933661643272,-0.01249120277057022
-0.00053351391231028743,-2.5682533417170799,-0.017902080444701041
-0.00053101391231028666,-2.5682533417170816,-0.026018396955896663
-0.00052851391231028763,-2.571913317269833,-0.02466567753736457
-0.00052601391231028687,-2.571913317269833,-0.020945699136399629
-0.00052351391231028784,-2.571913317269833,-0.021622058845665981
-0.00052101391231028707,-2.5755732928225856,-0.018578440153967396
-0.00051851391231028804,-2.5719133172698347,-0.013167562479839034
-0.00051601391231028727,-2.571913317269833,-0.011814843061303867
-0.00051351391231028651,-2.5682533417170799,-0.010123943788138447
-0.00051101391231028748,-2.5682533417170799,-0.011138483352037515
-0.00050851391231028671,-2.571913317269833,-0.016211181171537466
-0.00050601391231028768,-2.571913317269833,-0.021283878991032807
-0.00050351391231028692,-2.571913317269833,-0.0256802171012641
-0.00050101391231028788,-2.571913317269833,-0.025003857391997748
-0.00049851391231028712,-2.571913317269833,-0.021960238700299159
-0.00049601391231028809,-2.5682533417170816,-0.020269339427134048
-0.00049351391231028732,-2.5682533417170799,-0.013167562479836574
-0.00049101391231028656,-2.5682533417170799,-0.011138483352036899
-0.00048851391231028753,-2.5682533417170799,-0.0097857639335048093
