Lab8/pulse_photo_diode_V2.csv

#Digilent WaveForms Oscilloscope Acquisition
#Device Name: Discovery2
#Serial Number: SN:210321A18A13
#Date Time: 2017-10-25 16:05:12.210
#Trigger:Source: Channel 1Type: EdgeCondition: RisingLevel: 0 VHyst.: AutoHoldOff: 0 s
#Channel 1: Range: 20 mV/div Offset: 20 mV

Time (s),Channel 1 (V)
-5,-0.02842405224338149
-4.9987500000000002,-0.02842405224338149
-4.9974999999999996,-0.028091916533531613
-4.9962499999999999,-0.027427645113832763
-4.9950000000000001,-0.027095509403983187
-4.9937500000000004,-0.027759780823682037
-4.9924999999999997,-0.02842405224338149
-4.99125,-0.027427645113832763
-4.9900000000000002,-0.026431237984284033
-4.9887499999999996,-0.025766966564584427
-4.9874999999999998,-0.024770559435036154
-4.9862500000000001,-0.024770559435036154
-4.9850000000000003,-0.025102695144885577
-4.9837499999999997,-0.026099102274434613
-4.9824999999999999,-0.026431237984284033
-4.9812500000000002,-0.02510269514488573
-4.9800000000000004,-0.022445609466090328
-4.9787499999999998,-0.021781338046389969
-4.9775,-0.022113473756239545
-4.9762500000000003,-0.023109880885788272
-4.9749999999999996,-0.023774152305487274
-4.9737499999999999,-0.023442016595637848
-4.9725000000000001,-0.022113473756239545
-4.9712500000000004,-0.019456388077444143
-4.9699999999999998,-0.016467166688796751
-4.96875,-0.015470759559248022
-4.9675000000000002,-0.014474352429699293
-4.9662499999999996,-0.014142216719849264
-4.9649999999999999,-0.013145809590300988
-4.9637500000000001,-0.011817266750902684
-4.9625000000000004,-0.010488723911504983
-4.9612499999999997,-0.0088280453622564987
-4.96,-0.0071673668130086167
-4.9587500000000002,-0.0078316382327077699
-4.9574999999999996,-0.0068352311031581346
-4.9562499999999998,-0.0048424168440615849
-4.9550000000000001,-0.0028496025849641289
-4.9537500000000003,-0.0018531954554158515
-4.9524999999999997,-0.002185331165264974
-4.9512499999999999,-0.002185331165264974
-4.9500000000000002,-0.0011889240357162469
-4.9487500000000004,-0.0011889240357162469
-4.9474999999999998,-0.0011889240357162469
-4.94625,-0.00052465261601709542
-4.9450000000000003,-0.00085678832586667114
-4.9437499999999996,-0.0015210597455661246
-4.9424999999999999,-0.002185331165264974
-4.9412500000000001,-0.0018531954554153983
-4.9400000000000004,-0.00019251690616827496
-4.9387499999999998,0.00047175451353163519
-4.9375,0.0014681616430803623
-4.9362500000000002,0.0014681616430803623
-4.9349999999999996,0.00080389022338060679
-4.9337499999999999,-0.00052465261601709542
-4.9325000000000001,-0.0011889240357162469
-4.9312500000000004,-0.00085678832586682217
-4.9299999999999997,0.0014681616430803623
-4.92875,0.0018002973529299381
-4.9275000000000002,0.00047175451353163519
-4.9262499999999996,-0.001188924035716851
-4.9249999999999998,-0.0025174668751145532
-4.9237500000000001,-0.002185331165264974
-4.9225000000000003,-0.0018531954554155492
-4.9212499999999997,-0.00085678832586591599
-4.9199999999999999,0.00080389022338121091
-4.9187500000000002,0.00080389022338121091
-4.9175000000000004,-0.00052465261601649131
-4.9162499999999998,-0.0018531954554153983
-4.915,-0.002185331165264974
-4.9137500000000003,-0.0018531954554153983
-4.9124999999999996,-0.0021853311652652763
-4.9112499999999999,-0.0028496025849641289
-4.9100000000000001,-0.0028496025849641289
-4.9087500000000004,-0.004510281134211252
-4.9074999999999998,-0.0051745525539111607
-4.90625,-0.0045102811342120075
-4.9050000000000002,-0.0031817382948137046
-4.9037499999999996,-0.0021853311652651249
-4.9024999999999999,-0.0025174668751145532
-4.9012500000000001,-0.0028496025849641289
-4.9000000000000004,-0.0025174668751147041
-4.8987499999999997,-0.0031817382948137046
-4.8975,-0.0035138740046632803
-4.8962500000000002,-0.0035138740046632803
-4.8949999999999996,-0.004510281134212763
-4.8937499999999998,-0.0061709596834598895
-4.8925000000000001,-0.0088280453622564987
-4.8912500000000003,-0.0101565882016542
-4.8899999999999997,-0.0094923167819551974
-4.8887499999999999,-0.008495909652406923
-4.8875000000000002,-0.0074995025228581941
-4.8862500000000004,-0.0081637739425570437
-4.8849999999999998,-0.0091601810721060745
-4.88375,-0.010156588201654803
-4.8825000000000003,-0.011485131041053108
-4.8812499999999996,-0.010488723911503775
-4.8799999999999999,-0.0091601810721060745
-4.8787500000000001,-0.0094923167819556502
-4.8775000000000004,-0.010820859621353351
-4.8762499999999998,-0.012149402460752259
-4.875,-0.013145809590300988
-4.8737500000000002,-0.013145809590300988
-4.8724999999999996,-0.012813673880450809
-4.8712499999999999,-0.011485131041053108
-4.8700000000000001,-0.010488723911504379
-4.8687500000000004,-0.01115299533120323
-4.8674999999999997,-0.012481538170601835
-4.86625,-0.013477945300150564
-4.8650000000000002,-0.013145809590300988
-4.8637499999999996,-0.012813673880451262
-4.8624999999999998,-0.012481538170601835
-4.8612500000000001,-0.011485131041053108
-4.8600000000000003,-0.012481538170601382
-4.8587499999999997,-0.014474352429699595
-4.8574999999999999,-0.015138623849398444
-4.8562500000000002,-0.015138623849398444
-4.8550000000000004,-0.01480648813954902
-4.8537499999999998,-0.015138623849398444
-4.8525,-0.015802895269097596
-4.8512500000000003,-0.015802895269097596
-4.8499999999999996,-0.016467166688796903
-4.8487499999999999,-0.016799302398646326
-4.8475000000000001,-0.016799302398646326
-4.8462500000000004,-0.016135030978947477
-4.8449999999999998,-0.016467166688796751
-4.84375,-0.017463573818345478
-4.8425000000000002,-0.018792116657743784
-4.8412499999999996,-0.018459980947893754
-4.8399999999999999,-0.017463573818345478
-4.8387500000000001,-0.016799302398646326
-4.8375000000000004,-0.016135030978947477
-4.8362499999999997,-0.016467166688796751
-4.835,-0.017131438108495902
-4.8337500000000002,-0.018792116657743784
-4.8324999999999996,-0.019456388077442332
-4.8312499999999998,-0.018127845238044629
-4.8300000000000001,-0.017795709528195054
-4.8287500000000003,-0.017795709528195054
-4.8274999999999997,-0.018459980947894663
-4.8262499999999999,-0.019456388077442936
-4.8250000000000002,-0.021117066626690814
-4.8237500000000004,-0.02277774517593794
-4.8224999999999998,-0.023774152305487427
-4.82125,-0.02244560946608912
-4.8200000000000003,-0.02244560946608912
-4.8187499999999996,-0.023774152305488332
-4.8174999999999999,-0.025766966564584881
-4.8162500000000001,-0.026431237984284033
-4.8150000000000004,-0.026431237984284033
-4.8137499999999998,-0.026431237984284033
-4.8125,-0.026431237984284033
-4.8112500000000002,-0.025434830854735305
-4.8099999999999996,-0.026099102274435217
-4.8087499999999999,-0.027759780823682339
-4.8075000000000001,-0.02842405224338149
-4.8062500000000004,-0.028091916533532067
-4.8049999999999997,-0.027095509403983187
-4.80375,-0.026763373694133612
-4.8025000000000002,-0.026431237984284033
-4.8012499999999996,-0.025766966564585183
-4.7999999999999998,-0.026431237984284033
-4.7987500000000001,-0.02609910227443446
-4.7975000000000003,-0.025766966564585034
-4.7962499999999997,-0.025434830854735153
-4.7949999999999999,-0.02510269514488573
-4.7937500000000002,-0.02609910227443446
-4.7925000000000004,-0.027427645113832159
-4.7912499999999998,-0.026431237984284033
-4.79,-0.024438423725186578
-4.7887500000000003,-0.023442016595637848
-4.7874999999999996,-0.022777745175938696
-4.7862499999999999,-0.022777745175938696
-4.7850000000000001,-0.022777745175938696
-4.7837500000000004,-0.023442016595637546
-4.7824999999999998,-0.023442016595637848
-4.78125,-0.021781338046389969
-4.7800000000000002,-0.01912425236759336
-4.7787499999999996,-0.017795709528194752
-4.7774999999999999,-0.017131438108495902
-4.7762500000000001,-0.017131438108495902
-4.7750000000000004,-0.016799302398646479
-4.7737499999999997,-0.015470759559248022
-4.7725,-0.013145809590300988
-4.7712500000000002,-0.0098244524918052259
-4.7699999999999996,-0.0091601810721059235
-4.7687499999999998,-0.0088280453622564987
-4.7675000000000001,-0.0088280453622564987
-4.7662500000000003,-0.0091601810721059235
-4.7649999999999997,-0.0084959096524067721
-4.7637499999999999,-0.0081637739425573456
-4.7625000000000002,-0.0074995025228581941
-4.7612500000000004,-0.0068352311031593428
-4.7599999999999998,-0.006835231103159041
-4.75875,-0.0078316382327077699
-4.7575000000000003,-0.0071673668130086167
-4.7562499999999996,-0.0058388239736095584
-4.7549999999999999,-0.0041781454243624318
-4.7537500000000001,-0.0038460097145128561
-4.7525000000000004,-0.0031817382948140065
-4.7512499999999998,-0.0018531954554153983
-4.75,-0.0018531954554153983
-4.7487500000000002,-0.0025174668751145532
-4.7474999999999996,-0.0021853311652648231
-4.7462499999999999,-0.0018531954554153983
-4.7450000000000001,-0.0018531954554153983
-4.7437500000000004,-0.0025174668751142514
-4.7424999999999997,-0.0035138740046632803
-4.74125,-0.0035138740046632803
-4.7400000000000002,-0.0015210597455658226
-4.7387499999999996,-0.00019251690616721762
-4.7374999999999998,0.00047175451353163519
-4.7362500000000001,0.0011360259332307866
-4.7350000000000003,0.0011360259332307866
-4.7337499999999997,0.00080389022338075782
-4.7324999999999999,-0.00019251690616751971
-4.7312500000000002,0.00047175451353163519
-4.7300000000000004,0.0011360259332304846
-4.7287499999999998,0.00080389022338121091
-4.7275,-0.00019251690616751971
-4.7262500000000003,-0.0015210597455658226
-4.7249999999999996,-0.0018531954554157003
-4.7237499999999999,-0.0025174668751145532
-4.7225000000000001,-0.0015210597455658226
-4.7212500000000004,0.0004717545135307288
-4.7199999999999998,0.0018002973529299381
-4.71875,0.0018002973529299381
-4.7175000000000002,0.0011360259332307866
-4.7162499999999996,0.00047175451353163519
-4.7149999999999999,0.00047175451353163519
-4.7137500000000001,0.0014681616430803623
-4.7125000000000004,0.0014681616430803623
-4.7112499999999997,0.0014681616430803623
-4.71,0.0021324330627795138
-4.7087500000000002,0.0018002973529299381
-4.7074999999999996,0.0018002973529303913
-4.7062499999999998,0.0027967044824786652
-4.7050000000000001,0.0041252473218769715
-4.7037500000000003,0.0044573830317263963
-4.7024999999999997,0.0044573830317262454
-4.7012499999999999,0.0037931116120273958
-4.7000000000000002,0.0041252473218769715
-4.6987500000000004,0.0041252473218769715
-4.6974999999999998,0.0041252473218769715
-4.69625,0.0044573830317265473
-4.6950000000000003,0.0044573830317265473
-4.6937499999999996,0.003460975902177216
-4.6924999999999999,0.0021324330627795138
-4.6912500000000001,0.0014681616430803623
-4.6900000000000004,0.0034609759021769137
-4.6887499999999998,0.004789518741576123
-4.6875,0.0057859258711248536
-4.6862500000000002,0.0057859258711248536
-4.6849999999999996,0.0051216544514252459
-4.6837499999999999,0.0041252473218769715
-4.6825000000000001,0.0034609759021778201
-4.6812500000000004,0.0041252473218766697
-4.6799999999999997,0.0054537901612752779
-4.67875,0.0051216544514256987
-4.6775000000000002,0.004789518741576123
-4.6762499999999996,0.0041252473218768206
-4.6749999999999998,0.0037931116120273958
-4.6737500000000001,0.0041252473218769715
-4.6725000000000003,0.0051216544514252459
-4.6712499999999997,0.0071144687105242138
-4.6699999999999999,0.0094394186794701899
-4.6687500000000002,0.0091072829696206142
-4.6675000000000004,0.0081108758400723364
-4.6662499999999998,0.0071144687105231565
-4.665,0.0071144687105231565
-4.6637500000000003,0.0077787401302223079
-4.6624999999999996,0.0087751472597714913
-4.6612499999999999,0.0097715543893197657
-4.6600000000000001,0.0094394186794701899
-4.6587500000000004,0.0087751472597713404
-4.6574999999999998,0.0087751472597710385
-4.65625,0.0094394186794701899
-4.6550000000000002,0.010103690099169341
-4.6537499999999996,0.010103690099169341
-4.6524999999999999,0.010103690099169341
-4.6512500000000001,0.010103690099169341
-4.6500000000000004,0.0097715543893199166
-4.6487499999999997,0.0097715543893197657
-4.6475,0.010435825809018917
-4.6462500000000002,0.011100097228718072
-4.6449999999999996,0.011100097228717619
-4.6437499999999998,0.010103690099169341
-4.6425000000000001,0.0087751472597710385
-4.6412500000000003,0.0091072829696204633
-4.6399999999999997,0.010767961518868647
-4.6387499999999999,0.011100097228718072
-4.6375000000000002,0.01176436864841722
-4.6362500000000004,0.012428640068116076
-4.6349999999999998,0.012096504358266799
-4.63375,0.010767961518868496
-4.6325000000000003,0.010767961518868496
-4.6312499999999996,0.012760775777966856
-4.6299999999999999,0.014753590037063405
-4.6287500000000001,0.014421454327213833
-4.6275000000000004,0.013757182907514983
-4.6262499999999998,0.012760775777965951
-4.625,0.01176436864841722
-4.6237500000000002,0.011432232938567648
-4.6224999999999996,0.012096504358267554
-4.6212499999999999,0.013757182907514681
-4.6200000000000001,0.014753590037063405
-4.6187500000000004,0.014089318617364555
-4.6174999999999997,0.01309291148781553
-4.61625,0.01176436864841722
-4.6150000000000002,0.011100097228718072
-4.6137499999999996,0.011100097228718223
-4.6124999999999998,0.011432232938567648
-4.6112500000000001,0.012096504358266799
-4.6100000000000003,0.011764368648417371
-4.6087499999999997,0.010767961518868345
-4.6074999999999999,0.010435825809018917
-4.6062500000000002,0.01176436864841722
-4.6050000000000004,0.013092911487814926
-4.6037499999999998,0.013425047197665102
-4.6025,0.013425047197665102
-4.6012500000000003,0.014089318617364253
-4.5999999999999996,0.014089318617364103
-4.5987499999999999,0.013757182907514681
-4.5975000000000001,0.014421454327213833
-4.5962500000000004,0.014753590037063254
-4.5949999999999998,0.014753590037063405
-4.59375,0.013757182907514681
-4.5925000000000002,0.012760775777965951
-4.5912499999999996,0.013425047197665857
-4.5899999999999999,0.015085725746912984
-4.5887500000000001,0.016082132876461715
-4.5875000000000004,0.017078540006009984
-4.5862499999999997,0.017078540006010438
-4.585,0.016746404296160866
-4.5837500000000002,0.016082132876461715
-4.5824999999999996,0.015085725746913437
-4.5812499999999998,0.016082132876461715
-4.5800000000000001,0.017078540006010438
-4.5787500000000003,0.016414268586311589
-4.5774999999999997,0.01541786145676211
-4.5762499999999999,0.014421454327213833
-4.5750000000000002,0.01309291148781553
-4.5737500000000004,0.013425047197664951
-4.5724999999999998,0.014421454327213833
-4.57125,0.016746404296160866
-4.5700000000000003,0.017742811425709597
-4.5687499999999996,0.017078540006009682
-4.5674999999999999,0.015417861456762563
-4.5662500000000001,0.014421454327213833
-4.5650000000000004,0.014089318617364404
-4.5637499999999998,0.014089318617364253
-4.5625,0.014089318617364253
-4.5612500000000002,0.014089318617364253
-4.5599999999999996,0.014421454327213229
-4.5587499999999999,0.01309291148781553
-4.5575000000000001,0.012428640068116378
-4.5562500000000004,0.013425047197664649
-4.5549999999999997,0.014421454327213833
-4.55375,0.014753590037063405
-4.5525000000000002,0.014421454327213833
-4.5512499999999996,0.014753590037063254
-4.5499999999999998,0.014421454327213833
-4.5487500000000001,0.013425047197665102
-4.5475000000000003,0.013425047197665102
-4.5462499999999997,0.014089318617364253
-4.5449999999999999,0.014089318617364253
-4.5437500000000002,0.013425047197665102
-4.5425000000000004,0.012428640068116831
-4.5412499999999998,0.012428640068116378
-4.54,0.013757182907514681
-4.5387500000000003,0.014421454327213833
-4.5374999999999996,0.014421454327213682
-4.5362499999999999,0.014089318617364253
-4.5350000000000001,0.01309291148781553
-4.5337500000000004,0.012096504358267252
-4.5324999999999998,0.012096504358266799
-4.53125,0.013425047197665102
-4.5300000000000002,0.015085725746912984
-4.5287499999999996,0.014753590037063103
-4.5274999999999999,0.014089318617364253
-4.5262500000000001,0.013425047197665102
-4.5250000000000004,0.012428640068116831
-4.5237499999999997,0.012096504358266799
-4.5225,0.012760775777965951
-4.5212500000000002,0.015085725746912984
-4.5199999999999996,0.016082132876461413
-4.5187499999999998,0.015417861456762563
-4.5175000000000001,0.014421454327213833
-4.5162500000000003,0.013425047197665555
-4.5149999999999997,0.012760775777966102
-4.5137499999999999,0.01309291148781553
-4.5125000000000002,0.01309291148781553
-4.5112500000000004,0.014089318617363801
-4.5099999999999998,0.013425047197665102
-4.50875,0.012428640068116378
-4.5075000000000003,0.011432232938567648
-4.5062499999999996,0.011764368648417522
-4.5049999999999999,0.012428640068116378
-4.5037500000000001,0.012428640068116378
-4.5025000000000004,0.011764368648417522
-4.5012499999999998,0.011100097228718072
-4.5,0.010435825809018917
-4.4987500000000002,0.0094394186794701899
-4.4974999999999996,0.0087751472597708876
-4.4962499999999999,0.0084430115499214628
-4.4950000000000001,0.0071144687105231565
-4.4937500000000004,0.0047895187415771803
-4.4924999999999997,0.0021324330627795138
-4.49125,0.00080389022338121091
-4.4900000000000002,0.00080389022338121091
-4.4887499999999996,-0.00019251690616812385
-4.4874999999999998,-0.0015210597455658226
-4.4862500000000001,-0.0031817382948137046
-4.4850000000000003,-0.0048424168440608295
-4.4837499999999997,-0.0071673668130093722
-4.4824999999999999,-0.0088280453622564987
-4.4812500000000002,-0.0091601810721060745
-4.4800000000000004,-0.0098244524918049241
-4.4787499999999998,-0.012149402460752259
-4.4775,-0.015138623849398444
-4.4762500000000003,-0.018127845238044629
-4.4749999999999996,-0.021117066626692174
-4.4737499999999999,-0.024106288015336999
-4.4725000000000001,-0.026431237984284033
-4.4712500000000004,-0.028091916533531158
-4.4699999999999998,-0.029752595082779797
-4.46875,-0.033073952181275554
-4.4675000000000002,-0.036727444989620897
-4.4662499999999996,-0.04004880208811757
-4.4649999999999999,-0.042041616347214109
-4.4637500000000001,-0.043370159186612418
-4.4625000000000004,-0.045362973445708964
-4.4612499999999997,-0.047023651994957755
-4.46,-0.049348601963904788
-4.4587500000000002,-0.053002094772250125
-4.4574999999999996,-0.055327044741197609
-4.4562499999999998,-0.056323451870745889
-4.4550000000000001,-0.056655587580595461
-4.4537500000000003,-0.05765199471014374
-4.4524999999999997,-0.059312673259392226
-4.4512499999999999,-0.059644808969241653
-4.4500000000000002,-0.061305487518489528
-4.4487500000000004,-0.063298301777586094
-4.4474999999999998,-0.064958980326834864
-4.44625,-0.066287523166233181
-4.4450000000000003,-0.068944608845029787
-4.4437499999999996,-0.072265965943527216
-4.4424999999999999,-0.07591945875187088
-4.4412500000000001,-0.077248001591269183
-4.4400000000000004,-0.077248001591269183
-4.4387499999999998,-0.077912273010968341
-4.4375,-0.078244408720817921
-4.4362500000000002,-0.078908680140517065
-4.4349999999999996,-0.080569358689765849
-4.4337499999999999,-0.082562172948862408
-4.4325000000000001,-0.084554987207959856
-4.4312500000000004,-0.084222851498110443
-4.4299999999999997,-0.084554987207959856
-4.42875,-0.086215665757207738
-4.4275000000000002,-0.088208480016305199
-4.4262499999999996,-0.091197701404952286
-4.4249999999999998,-0.093190515664048845
-4.4237500000000001,-0.094519058503447148
-4.4225000000000003,-0.095183329923145987
-4.4212499999999997,-0.094519058503447148
-4.4199999999999999,-0.094519058503447148
-4.4187500000000002,-0.095847601342845451
-4.4175000000000004,-0.09784041560194201
-4.4162499999999998,-0.099168958441341215
-4.415,-0.09983322986104036
-4.4137500000000003,-0.10016536557088994
-4.4124999999999996,-0.10082963699058925
-4.4112499999999999,-0.10116177270043866
-4.4100000000000001,-0.10249031553983698
-4.4087500000000004,-0.10481526550878295
-4.4074999999999998,-0.10647594405803189
-4.40625,-0.10714021547773103
-4.4050000000000002,-0.10714021547773103
-4.4037499999999996,-0.10747235118758092
-4.4024999999999999,-0.10813662260727977
-4.4012500000000001,-0.10913302973682849
-4.4000000000000004,-0.10946516544667792
-4.3987499999999997,-0.10813662260727977
-4.3975,-0.10813662260727977
-4.3962500000000002,-0.10813662260727977
-4.3949999999999996,-0.1084687583171301
-4.3937499999999998,-0.11012943686637722
-4.3925000000000001,-0.11212225112547468
