Lab4/data4.csv

#Digilent WaveForms Oscilloscope Acquisition
#Device Name: Discovery2
#Serial Number: SN:210321A18A12
#Date Time: 2017-09-29 14:09:39.268
#Trigger:Source: Channel 1Type: EdgeCondition: RisingLevel: 500 mVHyst.: AutoHoldOff: 0 s
#Channel 1: Range: 500 mV/div Offset: 0 V
#Channel 2: Range: 500 mV/div Offset: 0 V

Time (s),Channel 1 (V),Channel 2 (V)
-0.0025803373135135136,0.022273539249443433,-0.016211181171535159
-0.0025797073135135139,0.021940271746537454,-0.016549361026168184
-0.0025790773135135137,0.022273539249443433,-0.015196641607635631
-0.0025784473135135135,0.022606806752349412,-0.015534821462268962
-0.0025778173135135138,0.022273539249443433,-0.015873001316901985
-0.0025771873135135136,0.022606806752349565,-0.015196641607635631
-0.0025765573135135139,0.022606806752349565,-0.015196641607635631
-0.0025759273135135138,0.022606806752349565,-0.015534821462268807
-0.0025752973135135136,0.021940271746537302,-0.015196641607635631
-0.0025746673135135139,0.02227353924944328,-0.01485846175300261
-0.0025740373135135137,0.022273539249443433,-0.014858461753002455
-0.0025734073135135135,0.02227353924944328,-0.01485846175300261
-0.0025727773135135138,0.021940271746537302,-0.015196641607635631
-0.0025721473135135136,0.02160700424363117,-0.015196641607635631
-0.0025715173135135135,0.022606806752349412,-0.014858461753002762
-0.0025708873135135138,0.022273539249443433,-0.015534821462268807
-0.0025702573135135136,0.022606806752349565,-0.015196641607635631
-0.0025696273135135139,0.022273539249443586,-0.01485846175300261
-0.0025689973135135137,0.021940271746537302,-0.014858461753002455
-0.0025683673135135135,0.022273539249443888,-0.014520281898369123
-0.0025677373135135138,0.023273341758161828,-0.014182102043736102
-0.0025671073135135137,0.022940074255255696,-0.014858461753002455
-0.0025664773135135135,0.022940074255255242,-0.01384392218910308
-0.0025658473135135138,0.021940271746537302,-0.014182102043736102
-0.0025652173135135136,0.022606806752349565,-0.01350574233446975
-0.0025645873135135139,0.022606806752349565,-0.013167562479836728
-0.0025639573135135137,0.022606806752349565,-0.01350574233446975
-0.0025633273135135136,0.022940074255255849,-0.01350574233446975
-0.0025626973135135138,0.023273341758161828,-0.01350574233446975
-0.0025620673135135137,0.022940074255255696,-0.012829382625203396
-0.0025614373135135135,0.022606806752349565,-0.01316756247983642
-0.0025608073135135138,0.022606806752349565,-0.012829382625203396
-0.0025601773135135136,0.022606806752349565,-0.013167562479836574
-0.0025595473135135139,0.021940271746537603,-0.013505742334469596
-0.0025589173135135137,0.021940271746537302,-0.01350574233446975
-0.0025582873135135136,0.02160700424363117,-0.01350574233446975
-0.0025576573135135138,0.021940271746537302,-0.013843922189102926
-0.0025570273135135137,0.022273539249443433,-0.01350574233446975
-0.0025563973135135135,0.021607004243631017,-0.013167562479836728
-0.0025557673135135138,0.021273736740725038,-0.01350574233446975
-0.0025551373135135136,0.02160700424363117,-0.013843922189102926
-0.0025545073135135139,0.021273736740725191,-0.013505742334469904
-0.0025538773135135137,0.02160700424363117,-0.01350574233446975
-0.0025532473135135136,0.021940271746537302,-0.013843922189102926
-0.0025526173135135138,0.022273539249443433,-0.012829382625203396
-0.0025519873135135137,0.021940271746537302,-0.01249120277057022
-0.0025513573135135135,0.021940271746537302,-0.012153022915937199
-0.0025507273135135138,0.021940271746537302,-0.01249120277057022
-0.0025500973135135136,0.022273539249443433,-0.012829382625203396
-0.0025494673135135139,0.022273539249443433,-0.01316756247983642
-0.0025488373135135137,0.022273539249443433,-0.01249120277057022
-0.0025482073135135136,0.021940271746537302,-0.01249120277057022
-0.0025475773135135138,0.022606806752349263,-0.01249120277057022
-0.0025469473135135137,0.023273341758161828,-0.011138483352037515
-0.0025463173135135135,0.022606806752349717,-0.012153022915936737
-0.0025456873135135138,0.022940074255255696,-0.011476663206670691
-0.0025450573135135136,0.022940074255255696,-0.011476663206670691
-0.0025444273135135139,0.022606806752349717,-0.011476663206670691
-0.0025437973135135137,0.022273539249443433,-0.012153022915937044
-0.0025431673135135136,0.022940074255255696,-0.011476663206670691
-0.0025425373135135139,0.022940074255255696,-0.011814843061303712
-0.0025419073135135137,0.021940271746537302,-0.01249120277057022
-0.0025412773135135135,0.022273539249443131,-0.011814843061304021
-0.0025406473135135138,0.02160700424363117,-0.012153022915937044
-0.0025400173135135136,0.022606806752349565,-0.012153022915937044
-0.0025393873135135139,0.022606806752349565,-0.011476663206670998
-0.0025387573135135138,0.022940074255255696,-0.011814843061303867
-0.0025381273135135136,0.022606806752349565,-0.011138483352037515
-0.0025374973135135139,0.022273539249443586,-0.010800303497404493
-0.0025368673135135137,0.021940271746537302,-0.010800303497404339
-0.0025362373135135135,0.022940074255255394,-0.010462123642771317
-0.0025356073135135138,0.022273539249443433,-0.010800303497404339
-0.0025349773135135137,0.021940271746537302,-0.011138483352037515
-0.0025343473135135135,0.022273539249443131,-0.010800303497404493
-0.0025337173135135138,0.02160700424363117,-0.011138483352037515
-0.0025330873135135136,0.022273539249443433,-0.010123943788137985
-0.0025324573135135139,0.022606806752349412,-0.0097857639335049637
-0.0025318273135135137,0.022606806752349565,-0.0097857639335048093
-0.0025311973135135135,0.022940074255255394,-0.0097857639335049637
-0.0025305673135135138,0.022273539249443433,-0.010123943788137985
-0.0025299373135135137,0.022940074255255696,-0.010123943788137985
-0.0025293073135135135,0.022940074255255394,-0.0097857639335051164
-0.0025286773135135138,0.022273539249443433,-0.010462123642771163
-0.0025280473135135136,0.022273539249443433,-0.010123943788137985
-0.0025274173135135139,0.022273539249443433,-0.010123943788137985
-0.0025267873135135137,0.022606806752349565,-0.010123943788137985
-0.0025261573135135136,0.021940271746537302,-0.010123943788137985
-0.0025255273135135138,0.022606806752349565,-0.0094475840788716334
-0.0025248973135135137,0.022606806752349565,-0.0097857639335048093
-0.0025242673135135135,0.022940074255255544,-0.0097857639335049637
-0.0025236373135135138,0.022606806752349565,-0.010123943788137985
-0.0025230073135135136,0.023273341758161828,-0.0097857639335048093
-0.0025223773135135139,0.023606609261067807,-0.0094475840788717878
-0.0025217473135135137,0.022940074255255696,-0.010123943788137985
-0.0025211173135135136,0.022606806752349565,-0.0097857639335048093
-0.0025204873135135138,0.022606806752349565,-0.0094475840788716334
-0.0025198573135135137,0.022606806752349565,-0.0094475840788716334
-0.0025192273135135135,0.021940271746537454,-0.0097857639335046549
-0.0025185973135135138,0.022273539249443433,-0.0094475840788716334
-0.0025179673135135136,0.022606806752349565,-0.0094475840788716334
-0.0025173373135135139,0.022606806752349565,-0.0094475840788716334
-0.0025167073135135137,0.022940074255255696,-0.0091094042242384557
-0.0025160773135135136,0.023273341758161828,-0.0091094042242384557
-0.0025154473135135138,0.023273341758161828,-0.0087712243696054341
-0.0025148173135135137,0.022940074255255696,-0.0087712243696052797
-0.0025141873135135135,0.022273539249443586,-0.0091094042242384557
-0.0025135573135135138,0.022606806752349565,-0.0091094042242384557
-0.0025129273135135136,0.023273341758161828,-0.0087712243696052797
-0.0025122973135135139,0.022606806752349867,-0.0087712243696052797
-0.0025116673135135137,0.021940271746537302,-0.0084330445149721038
-0.0025110373135135136,0.021940271746537302,-0.0084330445149721038
-0.0025104073135135139,0.021940271746537302,-0.0084330445149721038
-0.0025097773135135137,0.022606806752349565,-0.0084330445149721038
-0.0025091473135135135,0.022273539249443586,-0.0091094042242383013
-0.0025085173135135138,0.022606806752349565,-0.0087712243696052797
-0.0025078873135135136,0.022606806752349565,-0.0087712243696052797
-0.0025072573135135139,0.022273539249443586,-0.0084330445149722582
-0.0025066273135135137,0.022273539249443433,-0.0084330445149721038
-0.0025059973135135136,0.022940074255255696,-0.0080948646603389279
-0.0025053673135135139,0.022606806752349717,-0.0087712243696049727
-0.0025047373135135137,0.022606806752349565,-0.0084330445149721038
-0.0025041073135135135,0.022606806752349717,-0.0084330445149721038
-0.0025034773135135138,0.022940074255255696,-0.0084330445149721038
-0.0025028473135135136,0.022606806752349565,-0.0084330445149721038
-0.0025022173135135135,0.022940074255255394,-0.0084330445149721038
-0.0025015873135135138,0.022273539249443433,-0.0084330445149721038
-0.0025009573135135136,0.022606806752349565,-0.0084330445149721038
-0.0025003273135135139,0.022940074255255544,-0.007756684805706059
-0.0024996973135135137,0.022940074255255696,-0.007756684805705751
-0.0024990673135135135,0.022606806752349565,-0.0084330445149721038
-0.0024984373135135138,0.022606806752349565,-0.0084330445149721038
-0.0024978073135135137,0.022273539249443433,-0.0084330445149721038
-0.0024971773135135135,0.022606806752349412,-0.0077566848057059046
-0.0024965473135135138,0.022273539249443433,-0.0080948646603389279
-0.0024959173135135136,0.022606806752349565,-0.007756684805705751
-0.0024952873135135139,0.021940271746537603,-0.0084330445149717968
-0.0024946573135135137,0.022273539249443433,-0.0080948646603389279
-0.0024940273135135136,0.022606806752349565,-0.007756684805705751
-0.0024933973135135138,0.022606806752349565,-0.007756684805705751
-0.0024927673135135137,0.022940074255255696,-0.0074185049510725742
-0.0024921373135135135,0.023273341758161675,-0.0070803250964397062
-0.0024915073135135138,0.022940074255255696,-0.007756684805705751
-0.0024908773135135136,0.022606806752349565,-0.007756684805705751
-0.0024902473135135139,0.022940074255255544,-0.0074185049510727278
-0.0024896173135135137,0.022606806752349565,-0.0074185049510725742
-0.0024889873135135136,0.022606806752349565,-0.0074185049510725742
-0.0024883573135135138,0.022273539249443433,-0.007756684805705751
-0.0024877273135135137,0.022606806752349565,-0.0070803250964393983
-0.0024870973135135135,0.022606806752349412,-0.0070803250964393983
-0.0024864673135135138,0.022273539249443433,-0.0070803250964393983
-0.0024858373135135136,0.022940074255255696,-0.0070803250964393983
-0.0024852073135135139,0.022273539249443735,-0.0077566848057054431
-0.0024845773135135137,0.022940074255255696,-0.0070803250964393983
-0.0024839473135135136,0.022606806752349565,-0.0067421452418062223
-0.0024833173135135138,0.022940074255255696,-0.0067421452418062223
-0.0024826873135135137,0.022940074255255696,-0.0067421452418062223
-0.0024820573135135135,0.022940074255255696,-0.0070803250964393983
-0.0024814273135135138,0.022940074255255696,-0.0070803250964393983
-0.0024807973135135136,0.022273539249443433,-0.0074185049510725742
-0.0024801673135135139,0.022940074255255394,-0.0070803250964395518
-0.0024795373135135137,0.021940271746537302,-0.0074185049510725742
-0.0024789073135135136,0.022273539249443433,-0.0070803250964393983
-0.0024782773135135138,0.022940074255255394,-0.0064039653871733535
-0.0024776473135135137,0.02160700424363117,-0.0074185049510725742
-0.0024770173135135135,0.022273539249443735,-0.0067421452418062223
-0.0024763873135135138,0.022940074255255696,-0.0067421452418062223
-0.0024757573135135136,0.02360660926106796,-0.0060657855325398687
-0.0024751273135135139,0.022940074255255998,-0.0070803250964389369
-0.0024744973135135137,0.022606806752349565,-0.007756684805705751
-0.0024738673135135136,0.021940271746537302,-0.007756684805705751
-0.0024732373135135139,0.022606806752349263,-0.0070803250964397062
-0.0024726073135135137,0.022606806752349565,-0.0074185049510725742
-0.0024719773135135135,0.022606806752349565,-0.0070803250964393983
-0.0024713473135135138,0.022606806752349565,-0.0070803250964393983
-0.0024707173135135136,0.022273539249443433,-0.0067421452418062223
-0.0024700873135135139,0.022273539249443433,-0.0060657855325401766
-0.0024694573135135137,0.021940271746537302,-0.0064039653871730455
-0.0024688273135135136,0.022273539249443433,-0.0064039653871730455
-0.0024681973135135139,0.022940074255255394,-0.0053894258232739783
-0.0024675673135135137,0.022606806752349565,-0.0060657855325398687
-0.0024669373135135135,0.022940074255255696,-0.0057276056779070007
-0.0024663073135135138,0.022940074255255696,-0.0064039653871730455
-0.0024656773135135136,0.022940074255255696,-0.0060657855325398687
-0.0024650473135135135,0.023273341758161526,-0.0053894258232739783
-0.0024644173135135138,0.022606806752349565,-0.0064039653871730455
-0.0024637873135135136,0.022606806752349565,-0.0057276056779066928
-0.0024631573135135139,0.021940271746537603,-0.0060657855325397152
-0.0024625273135135137,0.022273539249443433,-0.0053894258232735168
-0.0024618973135135135,0.021607004243631472,-0.0064039653871730455
-0.0024612673135135138,0.022273539249443433,-0.0064039653871730455
-0.0024606373135135137,0.022273539249443433,-0.0067421452418062223
-0.0024600073135135135,0.022606806752349412,-0.0064039653871727376
-0.0024593773135135138,0.022273539249443433,-0.0057276056779066928
-0.0024587473135135136,0.022606806752349565,-0.0060657855325398687
-0.0024581173135135139,0.022273539249443586,-0.0070803250964389369
-0.0024574873135135137,0.021940271746537302,-0.0070803250964393983
-0.0024568573135135136,0.021940271746537302,-0.0074185049510725742
-0.0024562273135135138,0.022273539249443433,-0.0064039653871730455
-0.0024555973135135137,0.021940271746537302,-0.0064039653871730455
-0.0024549673135135135,0.022606806752349412,-0.0050512459686406479
-0.0024543373135135138,0.022273539249443433,-0.0057276056779066928
-0.0024537073135135136,0.022273539249443433,-0.0053894258232735168
-0.0024530773135135139,0.021940271746537454,-0.0057276056779065393
-0.0024524473135135137,0.022940074255255696,-0.0053894258232735168
-0.0024518173135135136,0.022606806752349565,-0.00505124596864034
-0.0024511873135135138,0.022273539249443433,-0.0057276056779066928
-0.0024505573135135137,0.021940271746537302,-0.0060657855325398687
-0.0024499273135135135,0.021940271746537454,-0.0060657855325397152
-0.0024492973135135138,0.022273539249443433,-0.0057276056779066928
-0.0024486673135135136,0.022273539249443433,-0.0053894258232735168
-0.0024480373135135139,0.022940074255255394,-0.0053894258232735168
-0.0024474073135135137,0.022940074255255696,-0.0047130661140071632
-0.0024467773135135136,0.021940271746537302,-0.00505124596864034
-0.0024461473135135138,0.02227353924944328,-0.00505124596864034
-0.0024455173135135137,0.021940271746537302,-0.0060657855325398687
-0.0024448873135135135,0.021940271746537302,-0.0057276056779066928
-0.0024442573135135138,0.021940271746537302,-0.0057276056779066928
-0.0024436273135135136,0.022606806752349565,-0.0053894258232735168
-0.0024429973135135139,0.022606806752349565,-0.0053894258232735168
-0.0024423673135135137,0.022940074255255696,-0.0053894258232735168
-0.0024417373135135136,0.022606806752349565,-0.0053894258232735168
-0.0024411073135135138,0.021940271746537603,-0.0057276056779065393
-0.0024404773135135137,0.021940271746537302,-0.0053894258232735168
-0.0024398473135135135,0.022273539249443433,-0.0047130661140074711
-0.0024392173135135138,0.022273539249443433,-0.0053894258232735168
-0.0024385873135135136,0.022273539249443433,-0.0057276056779066928
-0.0024379573135135139,0.021940271746537454,-0.0060657855325397152
-0.0024373273135135137,0.021940271746537302,-0.0057276056779066928
-0.0024366973135135136,0.022940074255255696,-0.0053894258232735168
-0.0024360673135135139,0.022940074255255696,-0.0050512459686404935
-0.0024354373135135137,0.022606806752349565,-0.00505124596864034
-0.0024348073135135135,0.022940074255255696,-0.0050512459686400321
-0.0024341773135135138,0.022940074255255696,-0.0043748862593739873
-0.0024335473135135136,0.022606806752349565,-0.0047130661140071632
-0.0024329173135135135,0.022606806752349412,-0.0050512459686404935
-0.0024322873135135138,0.022273539249443433,-0.0053894258232735168
-0.0024316573135135136,0.022940074255255696,-0.0043748862593739873
-0.0024310273135135139,0.021940271746537756,-0.0053894258232730554
-0.0024303973135135137,0.021940271746537302,-0.00505124596864034
-0.0024297673135135135,0.021940271746537454,-0.0050512459686401865
-0.0024291373135135138,0.022273539249443433,-0.0047130661140071632
-0.0024285073135135136,0.022273539249443433,-0.00505124596864034
-0.0024278773135135135,0.022606806752349412,-0.0050512459686401865
-0.0024272473135135138,0.022273539249443433,-0.0047130661140071632
-0.0024266173135135136,0.023273341758161828,-0.0043748862593739873
-0.0024259873135135139,0.023273341758161828,-0.0043748862593739873
-0.0024253573135135137,0.022273539249443433,-0.0047130661140071632
-0.0024247273135135135,0.021940271746537603,-0.00505124596864034
-0.0024240973135135138,0.022606806752349565,-0.00505124596864034
-0.0024234673135135137,0.022273539249443433,-0.0047130661140071632
-0.0024228373135135135,0.021273736740725191,-0.0053894258232735168
-0.0024222073135135138,0.02160700424363117,-0.0053894258232735168
-0.0024215773135135136,0.022606806752349565,-0.0047130661140071632
-0.0024209473135135139,0.022940074255255544,-0.0050512459686401865
-0.0024203173135135137,0.022273539249443433,-0.0057276056779066928
-0.0024196873135135136,0.021940271746537302,-0.0053894258232735168
-0.0024190573135135138,0.022273539249443433,-0.0047130661140071632
-0.0024184273135135137,0.02160700424363117,-0.0060657855325398687
-0.0024177973135135135,0.022606806752349412,-0.0053894258232730554
-0.0024171673135135138,0.022273539249443433,-0.0043748862593739873
-0.0024165373135135136,0.022273539249443433,-0.0040367064047408113
-0.0024159073135135139,0.022940074255255394,-0.0036985265501077885
-0.0024152773135135137,0.023273341758161828,-0.0036985265501076345
-0.0024146473135135136,0.022273539249443433,-0.00505124596864034
-0.0024140173135135138,0.022273539249443433,-0.0053894258232735168
-0.0024133873135135137,0.021940271746537302,-0.0047130661140071632
-0.0024127573135135135,0.022273539249443433,-0.0047130661140073167
-0.0024121273135135138,0.022273539249443433,-0.00505124596864034
-0.0024114973135135136,0.022940074255255696,-0.0047130661140071632
-0.0024108673135135139,0.022606806752349717,-0.0050512459686401865
-0.0024102373135135137,0.022273539249443433,-0.00505124596864034
-0.0024096073135135136,0.022273539249443433,-0.00505124596864034
-0.0024089773135135138,0.021940271746537454,-0.00505124596864034
-0.0024083473135135137,0.02160700424363117,-0.0047130661140071632
-0.0024077173135135135,0.022273539249443586,-0.0043748862593739873
-0.0024070873135135138,0.022606806752349565,-0.0043748862593739873
-0.0024064573135135136,0.022273539249443433,-0.0047130661140071632
-0.0024058273135135139,0.021940271746537454,-0.0050512459686401865
-0.0024051973135135137,0.021940271746537302,-0.0047130661140071632
-0.0024045673135135136,0.022606806752349565,-0.0047130661140071632
-0.0024039373135135138,0.021607004243631624,-0.0050512459686401865
-0.0024033073135135137,0.02160700424363117,-0.0047130661140071632
-0.0024026773135135135,0.021607004243631624,-0.0040367064047409649
-0.0024020473135135138,0.022606806752349565,-0.0043748862593739873
-0.0024014173135135136,0.023273341758161828,-0.0047130661140071632
-0.0024007873135135139,0.023606609261067807,-0.003698526550108096
-0.0024001573135135137,0.023273341758161828,-0.0036985265501076345
-0.0023995273135135136,0.022940074255255696,-0.0040367064047408113
-0.0023988973135135139,0.022606806752349717,-0.0036985265501077885
-0.0023982673135135137,0.022273539249443433,-0.0040367064047408113
-0.0023976373135135135,0.022606806752350019,-0.0040367064047406578
-0.0023970073135135138,0.02360660926106796,-0.0036985265501076345
-0.0023963773135135136,0.023273341758161828,-0.0040367064047408113
-0.0023957473135135135,0.023273341758161675,-0.003698526550107942
-0.0023951173135135138,0.022940074255255696,-0.0043748862593739873
