Lab5/ekg.csv

#Digilent WaveForms Oscilloscope Acquisition
#Device Name: Discovery2
#Serial Number: SN:210321A18883
#Date Time: 2017-10-05 00:25:05.644
#Trigger:Source: Channel 1Type: EdgeCondition: RisingLevel: 0 VHyst.: AutoHoldOff: 0 s
#Channel 2: Range: 100 mV/div Offset: 100 mV

Time (s),Channel 2 (V)
-5,-0.051966628861513001
-4.9987500000000002,-0.059120377592620905
-4.9974999999999996,-0.064911507517805347
-4.9962499999999999,-0.068999363935579427
-4.9950000000000001,-0.071043292144467404
-4.9937500000000004,-0.072405910950392088
-4.9924999999999997,-0.073087220353355367
-4.99125,-0.073087220353355367
-4.9900000000000002,-0.073087220353355367
-4.9887499999999996,-0.073087220353355214
-4.9874999999999998,-0.07274656565187404
-4.9862500000000001,-0.072405910950392713
-4.9850000000000003,-0.072065256248911538
-4.9837499999999997,-0.071724601547429129
-4.9824999999999999,-0.069680673338542082
-4.9812500000000002,-0.066614781025210124
-4.9800000000000004,-0.065252162219285439
-4.9787499999999998,-0.066955435726691465
-4.9775,-0.071383946845948731
-4.9762500000000003,-0.077515731472612648
-4.9749999999999996,-0.086032099009649879
-4.9737499999999999,-0.094889121248160402
-4.9725000000000001,-0.10238352468074963
-4.9712500000000004,-0.10885596400889191
-4.9699999999999998,-0.11362512982963346
-4.96875,-0.11600971274000277
-4.9675000000000002,-0.11600971274000277
-4.9662499999999996,-0.11362512982963145
-4.9649999999999999,-0.1091966187103762
-4.9637500000000001,-0.10170221527778696
-4.9625000000000004,-0.092504538337795275
-4.9612499999999997,-0.081944242591869915
-4.96,-0.073087220353355367
-4.9587500000000002,-0.067296090428172778
-4.9574999999999996,-0.063889543413359354
-4.9562499999999998,-0.063548888711878165
-4.9550000000000001,-0.063548888711878165
-4.9537500000000003,-0.062867579308915816
-4.9524999999999997,-0.060823651100026466
-4.9512499999999999,-0.058439068189658244
-4.9500000000000002,-0.054351211771882305
-4.9487500000000004,-0.047878772443740003
-4.9474999999999998,-0.04106567841411049
-4.94625,-0.03425258438448392
-4.9450000000000003,-0.026758180951894694
-4.9437499999999996,-0.019604432220783855
-4.9424999999999999,-0.013131992892641553
-4.9412500000000001,-0.008362827071902959
-4.9400000000000004,-0.0049562800570912228
-4.9387499999999998,-0.0035936612511643512
-4.9375,-0.0029123518482016969
-4.9362500000000002,-0.0032530065496830241
-4.9349999999999996,-0.0052969347585728596
-4.9337499999999999,-0.0093847911763469405
-4.9325000000000001,-0.014835266400048203
-4.9312500000000004,-0.02130770572819049
-4.9299999999999997,-0.028120799757820003
-4.92875,-0.034933893787446574
-4.9275000000000002,-0.042087642518554479
-4.9262499999999996,-0.049582045951146958
-4.9249999999999998,-0.056735794682251602
-4.9237500000000001,-0.062186269905952857
-4.9225000000000003,-0.066614781025208111
-4.9212499999999997,-0.070361982741505819
-4.9199999999999999,-0.07274656565187404
-4.9187500000000002,-0.076153112666687325
-4.9175000000000004,-0.080922278487423754
-4.9162499999999998,-0.085691444308164527
-4.915,-0.090119955427421794
-4.9137500000000003,-0.093867157143716407
-4.9124999999999996,-0.097273704158530774
-4.9112499999999999,-0.099658287068898996
-4.9100000000000001,-0.10033959647186165
-4.9087500000000004,-0.099658287068899301
-4.9074999999999998,-0.097955013561492346
-4.90625,-0.097614358860011019
-4.9050000000000002,-0.098636322964455014
-4.9037499999999996,-0.10033959647186243
-4.9024999999999999,-0.1020428699792683
-4.9012500000000001,-0.10374614348667494
-4.9000000000000004,-0.10510876229259962
-4.8987499999999997,-0.10613072639704424
-4.8975,-0.10647138109852557
-4.8962500000000002,-0.10340548878519361
-4.8949999999999996,-0.097273704158524738
-4.8937499999999998,-0.086372753711127181
-4.8925000000000001,-0.07274656565187404
-4.8912500000000003,-0.057417104085221236
-4.8899999999999997,-0.042087642518548594
-4.8887499999999999,-0.029142763862263998
-4.8875000000000002,-0.019945086922268124
-4.8862500000000004,-0.014835266400050527
-4.8849999999999998,-0.013813302295604207
-4.88375,-0.016538539907454838
-4.8825000000000003,-0.023010979235600082
-4.8812499999999996,-0.032208656175600141
-4.8799999999999999,-0.041406333115591817
-4.8787500000000001,-0.048900736548181049
-4.8775000000000004,-0.053669902368917471
-4.8762499999999998,-0.056054485279288947
-4.875,-0.056054485279288947
-4.8737500000000002,-0.052307283562994335
-4.8724999999999996,-0.045153534831882877
-4.8712499999999999,-0.037318476697815878
-4.8700000000000001,-0.029483418563745326
-4.8687500000000004,-0.020967051026715977
-4.8674999999999997,-0.012450683489678899
-4.86625,-0.0063188988630149823
-4.8650000000000002,-0.0029123518482016969
-4.8637499999999996,-0.0012090783407945965
-4.8624999999999998,-0.00018711423635106583
-4.8612500000000001,0.00049419516661158847
-4.8600000000000003,0.00049419516661158847
-4.8587499999999997,-0.00052776893783425195
-4.8574999999999999,-0.0046156253556083465
-4.8562500000000002,-0.012110028788197572
-4.8550000000000004,-0.022670324534113953
-4.8537499999999998,-0.03425258438448392
-4.8525,-0.047538117742255734
-4.8512500000000003,-0.062526924607434198
-4.8499999999999996,-0.077856386174100331
-4.8487499999999999,-0.091823228934828444
-4.8475000000000001,-0.1020428699792683
-4.8462500000000004,-0.10783399990444824
-4.8449999999999998,-0.10953727341185752
-4.84375,-0.10783399990445088
-4.8425000000000002,-0.10408679818815626
-4.8412499999999996,-0.098976977665933552
-4.8399999999999999,-0.092845193039272425
-4.8387500000000001,-0.085691444308164527
-4.8375000000000004,-0.075812457965210495
-4.8362499999999997,-0.064570852816322161
-4.835,-0.052647938264475662
-4.8337500000000002,-0.043450261324479794
-4.8324999999999996,-0.037999786100777602
-4.8312499999999998,-0.035955857891890569
-4.8300000000000001,-0.036637167294853223
-4.8287500000000003,-0.038681095503740263
-4.8274999999999997,-0.041406333115592747
-4.8262499999999999,-0.043450261324479794
-4.8250000000000002,-0.045153534831886437
-4.8237500000000004,-0.046175498936329953
-4.8224999999999998,-0.046175498936330418
-4.82125,-0.045153534831886437
-4.8200000000000003,-0.042428297220035806
-4.8187499999999996,-0.038340440802257854
-4.8174999999999999,-0.033911929683002592
-4.8162500000000001,-0.028802109160782671
-4.8150000000000004,-0.024373598041527403
-4.8137499999999998,-0.020967051026712105
-4.8125,-0.017901158713380147
-4.8112500000000002,-0.016879194608936166
-4.8099999999999996,-0.017560504011899594
-4.8087499999999999,-0.019263777519305469
-4.8075000000000001,-0.020285741623749451
-4.8062500000000004,-0.019263777519305934
-4.8049999999999997,-0.015516575803010857
-4.80375,-0.010066100579309595
-4.8025000000000002,-0.0029123518482016969
-4.8012499999999996,0.0042413968829089896
-4.7999999999999998,0.010373181509570117
-4.7987500000000001,0.014461037927346057
-4.7975000000000003,0.016845620837714265
-4.7962499999999997,0.016504966136232625
-4.7949999999999999,0.013439073822902076
-4.7937500000000002,0.0096918721066074492
-4.7925000000000004,0.0052633609873521964
-4.7912499999999998,-0.00018711423635106583
-4.79,-0.005637589460052328
-4.7887500000000003,-0.010406755280790922
-4.7874999999999996,-0.013813302295604827
-4.7862499999999999,-0.01517592110152953
-4.7850000000000001,-0.014153956997085534
-4.7837500000000004,-0.011088064683754985
-4.7824999999999998,-0.0073408629674589637
-4.78125,-0.0042749706541270194
-4.7800000000000002,-0.0032530065496830241
-4.7787499999999996,-0.0052969347585731692
-4.7774999999999999,-0.010066100579309595
-4.7762500000000001,-0.016879194608936166
-4.7750000000000004,-0.024714252743003155
-4.7737499999999997,-0.032889965578558611
-4.7725,-0.040725023712629163
-4.7712500000000002,-0.048219427145218388
-4.7699999999999996,-0.056054485279292819
-4.7687499999999998,-0.064570852816322161
-4.7675000000000001,-0.073768529756318035
-4.7662500000000003,-0.085010134905196766
-4.7649999999999997,-0.096592394755571381
-4.7637499999999999,-0.10613072639704424
-4.7625000000000002,-0.11192185632222681
-4.7612500000000004,-0.112262511023708
-4.7599999999999998,-0.10783399990445088
-4.75875,-0.099317632367417669
-4.7575000000000003,-0.087394717815571163
-4.7562499999999996,-0.073087220353349164
-4.7549999999999999,-0.059461032294102233
-4.7537500000000001,-0.048900736548181049
-4.7525000000000004,-0.042768951921519922
-4.7512499999999998,-0.040043714309666509
-4.75,-0.03902175020522252
-4.7487500000000002,-0.038681095503741193
-4.7474999999999996,-0.038340440802259866
-4.7462499999999999,-0.038340440802259866
-4.7450000000000001,-0.039703059608185175
-4.7437500000000004,-0.040384369011147524
-4.7424999999999997,-0.03902175020522252
-4.74125,-0.033571274981521265
-4.7400000000000002,-0.023351633937081409
-4.7387499999999996,-0.0093847911763398142
-4.7374999999999998,0.0062853250917941639
-4.7362500000000001,0.021955441359935282
-4.7350000000000003,0.036603593523625744
-4.7337499999999997,0.049207817478444653
-4.7324999999999999,0.056020911508068122
-4.7312500000000002,0.056020911508068122
-4.7300000000000004,0.050570436284369365
-4.7287499999999998,0.040691449941408359
-4.7275,0.028427880688080526
-4.7262500000000003,0.01650496613623402
-4.7249999999999996,0.0052633609873458448
-4.7237499999999999,-0.0042749706541270194
-4.7225000000000001,-0.011428719385234917
-4.7212500000000004,-0.016538539907452514
-4.7199999999999998,-0.018923122817824142
-4.71875,-0.017901158713380147
-4.7175000000000002,-0.01347264759412288
-4.7162499999999996,-0.0056375894600478359
-4.7149999999999999,0.004241396882906201
-4.7137500000000001,0.014801692628827384
-4.7125000000000004,0.025702643076224951
-4.7112499999999997,0.035922284120669751
-4.71,0.044779306359184284
-4.7087500000000002,0.051933055090292196
-4.7074999999999996,0.057042875612513512
-4.7062499999999998,0.060108767925844075
-4.7050000000000001,0.062152696134732038
-4.7037500000000003,0.062493350836213227
-4.7024999999999997,0.062493350836213227
-4.7012499999999999,0.062152696134732038
-4.7000000000000002,0.060108767925844075
-4.6987500000000004,0.055339602105107633
-4.6974999999999998,0.046141925165109593
-4.69625,0.033537701210300447
-4.6950000000000003,0.01650496613623402
-4.6937499999999996,-0.0042749706541375535
-4.6924999999999999,-0.027439490354857349
-4.6912500000000001,-0.051285319458550346
-4.6900000000000004,-0.074449839159270156
-4.6887499999999998,-0.095229775949641729
-4.6875,-0.11260316572518948
-4.6862500000000002,-0.1258886990829613
-4.6849999999999996,-0.13644899482888603
-4.6837499999999999,-0.14428405296295302
-4.6825000000000001,-0.15007518288813562
-4.6812500000000004,-0.15484434870887204
-4.6799999999999997,-0.15961351452961281
-4.67875,-0.16574529915627673
-4.6775000000000002,-0.17289904788738464
-4.6762499999999996,-0.18107476072294004
-4.6749999999999998,-0.18890981885700706
-4.6737500000000001,-0.19436029408070832
-4.6725000000000003,-0.19640422228959539
-4.6712499999999997,-0.1950416034836685
-4.6699999999999999,-0.18959112825996971
-4.6687500000000002,-0.18107476072293649
-4.6675000000000004,-0.17187708378294483
-4.6662499999999998,-0.16199809743998211
-4.665,-0.15177845639554227
-4.6637500000000003,-0.14053685124665841
-4.6624999999999996,-0.12827328199326538
-4.6612499999999999,0.015142347330308711
-4.6600000000000001,0.017867584942159342
-4.6587500000000004,0.020592822554008735
-4.6574999999999998,0.021955441359935282
-4.65625,0.022296096061416609
-4.6550000000000002,0.020933477255491301
-4.6537499999999996,0.016504966136230148
-4.6524999999999999,0.0079885985992008135
-4.6512500000000001,-0.0049562800570896737
-4.6500000000000004,-0.020285741623742477
-4.6487499999999997,-0.036296512593371896
-4.6475,-0.053329247667438316
-4.6462500000000002,-0.071724601547430059
-4.6449999999999996,-0.092845193039283264
-4.6437499999999998,-0.11669102214296542
-4.6425000000000001,-0.14292143415702771
-4.6412500000000003,-0.16915184617107809
-4.6399999999999997,-0.19470094878219985
-4.6387499999999999,-0.21718415907995733
-4.6375000000000002,-0.23523885825846774
-4.6362500000000004,-0.24852439161623349
-4.6349999999999998,-0.25704075915327274
-4.63375,-0.26112861557104872
-4.6325000000000003,-0.26146927027253003
-4.6312499999999996,-0.25874403266067691
-4.6299999999999999,-0.25329355743697812
-4.6287500000000001,-0.24545849930290758
-4.6275000000000004,-0.23523885825847238
-4.6262499999999998,-0.22365659840810256
-4.625,-0.21173368385625607
-4.6237500000000002,-0.19947011460292824
-4.6224999999999996,-0.18516261714070409
-4.6212499999999999,-0.16676726326072072
-4.6200000000000001,-0.14530601706739701
-4.6187500000000004,-0.12043822385927135
-4.6174999999999997,-0.093867157143716407
-4.61625,-0.067636745129654119
-4.6150000000000002,-0.044812880130405103
-4.6137499999999996,-0.0274394903548527
-4.6124999999999998,-0.017219849310417493
-4.6112500000000001,-0.013813302295604207
-4.6100000000000003,-0.015857230504491254
-4.6087499999999997,-0.020626396325232946
-4.6074999999999999,-0.025395562145969386
-4.6062500000000002,-0.02846145445930133
-4.6050000000000004,-0.02914276386226369
-4.6037499999999998,-0.027098835653376022
-4.6025,-0.023692288638562736
-4.6012500000000003,-0.019263777519305469
-4.5999999999999996,-0.014494611698565312
-4.5987499999999999,-0.01108806468375359
-4.5975000000000001,-0.008362827071902959
-4.5962500000000004,-0.0059782441615347393
-4.5949999999999998,-0.0066595535644963094
-4.59375,-0.011428719385234917
-4.5925000000000002,-0.020285741623749451
-4.5912499999999996,-0.031868001474119882
-4.5899999999999999,-0.043450261324479794
-4.5887500000000001,-0.052307283562994335
-4.5875000000000004,-0.057076449383730757
-4.5862499999999997,-0.056735794682251602
-4.585,-0.052647938264475662
-4.5837500000000002,-0.046175498936330418
-4.5824999999999996,-0.037659131399292251
-4.5812499999999998,-0.026758180951894694
-4.5800000000000001,-0.01517592110152953
-4.5787500000000003,-0.0039343159526507906
-4.5774999999999997,0.0062853250917978814
-4.5762499999999999,0.014461037927346057
-4.5750000000000002,0.020592822554009974
-4.5737500000000004,0.024680678971784054
-4.5724999999999998,0.026383952479192563
-4.57125,0.025702643076229909
-4.5700000000000003,0.023999369568823259
-4.5687499999999996,0.020933477255488976
-4.5674999999999999,0.015823656733271366
-4.5662500000000001,0.010373181509570117
-4.5650000000000004,0.0062853250917960226
-4.5637499999999998,0.0052633609873501824
-4.5625,0.0083292533006821406
-4.5612500000000002,0.015142347330308711
-4.5599999999999996,0.024680678971791024
-4.5587499999999999,0.035922284120669751
-4.5575000000000001,0.047163889269553588
-4.5562500000000004,0.056361566209545279
-4.5549999999999997,0.061471386731769384
-4.55375,0.062152696134732038
-4.5525000000000002,0.058746149119918767
-4.5512499999999996,0.052614364493251291
-4.5499999999999998,0.044779306359184284
-4.5487500000000001,0.036603593523632405
-4.5475000000000003,0.027405916583640715
-4.5462499999999997,0.017526930240673214
-4.5449999999999999,0.0069666344947568321
-4.5437500000000002,-0.0035936612511643512
-4.5425000000000004,-0.012110028788193698
-4.5412499999999998,-0.018241813414861488
-4.54,-0.021307705728193432
-4.5387500000000003,-0.021307705728193432
-4.5374999999999996,-0.017560504011894948
-4.5362499999999999,-0.0090441364748656133
-4.5350000000000001,0.0028787780769808785
-4.5337500000000004,0.015823656733265481
-4.5324999999999998,0.026383952479192563
-4.53125,0.035922284120669751
-4.5300000000000002,0.043076032851777663
-4.5287499999999996,0.04954847217992444
-4.5274999999999999,0.052955019194736164
-4.5262500000000001,0.053295673896217505
-4.5250000000000004,0.051592400388811632
-4.5237499999999997,0.047163889269553588
-4.5225,0.038988176434001709
-4.5212500000000002,0.028768535389561839
-4.5199999999999996,0.01854889434511859
-4.5187499999999998,0.011054490912532772
-4.5175000000000001,0.0090105627036447949
-4.5162500000000003,0.013439073822900062
-4.5149999999999997,0.023318060165866631
-4.5137499999999999,0.036603593523632405
-4.5125000000000002,0.050570436284366888
-4.5112500000000004,0.062493350836207953
-4.5099999999999998,0.0710097183732466
-4.50875,0.077141502999910488
-4.5075000000000003,0.081910668820649096
-4.5062499999999996,0.0842952517310184
-4.5049999999999999,0.0842952517310184
-4.5037500000000001,0.082591978223611751
-4.5025000000000004,0.07952608591028118
-4.5012499999999998,0.074756920089541212
-4.5,0.068625135462877296
-4.4987500000000002,0.060108767925844075
-4.4974999999999996,0.048867162776954354
-4.4962499999999999,0.035922284120669751
-4.4950000000000001,0.023999369568823259
-4.4937500000000004,0.014801692628831567
-4.4924999999999997,0.0090105627036447949
-4.49125,0.0076479438977194864
-4.4900000000000002,0.01003252680808879
-4.4887499999999996,0.012757764419940802
-4.4874999999999998,0.015823656733271366
-4.4862500000000001,0.020252167852528632
-4.4850000000000003,0.026383952479189773
-4.4837499999999997,0.033878355911785507
-4.4824999999999999,0.042054068747333667
-4.4812500000000002,0.050911090985848201
-4.4800000000000004,0.058064839716952858
-4.4787499999999998,0.063174660239176034
-4.4775,0.066581207253989305
-4.4762500000000003,0.0710097183732466
-4.4749999999999996,0.075778884193987192
-4.4737499999999999,0.080207395313242447
-4.4725000000000001,0.083954597029537059
-4.4712500000000004,0.08599852523842412
-4.4699999999999998,0.087701798745831672
-4.46875,0.089405072253238321
-4.4675000000000002,0.091449000462126284
-4.4662499999999996,0.093492928671014733
-4.4649999999999999,0.094514892775458242
-4.4637500000000001,0.094514892775458242
-4.4625000000000004,0.094174238073977082
-4.4612499999999997,0.095196202178420897
-4.46,0.097921439790271542
-4.4587500000000002,0.10132798680508481
-4.4574999999999996,0.10473453381989919
-4.4562499999999998,0.10711911673026742
-4.4550000000000001,0.10950369964063672
-4.4537500000000003,0.1122289372524861
-4.4524999999999997,0.116316793670265
-4.4512499999999999,0.1200639953865579
-4.4500000000000002,0.12210792359544587
-4.4487500000000004,0.11938268598359646
-4.4474999999999998,0.11154762784952468
-4.44625,0.09928405859619685
-4.4450000000000003,0.0842952517310184
-4.4437499999999996,0.067943826059906898
-4.4424999999999999,0.050911090985848201
-4.4412500000000001,0.033878355911781788
-4.4400000000000004,0.018208239643647796
-4.4387499999999998,0.0049227062858688553
-4.4375,-0.0049562800570896737
-4.4362500000000002,-0.010406755280790922
-4.4349999999999996,-0.012450683489678123
-4.4337499999999999,-0.010747409982272249
-4.4325000000000001,-0.0070002082659776366
-4.4312500000000004,-0.0018903877437600391
-4.4299999999999997,0.0035600874799435467
-4.42875,0.0090105627036447949
-4.4275000000000002,0.013439073822902076
-4.4262499999999996,0.015483002031789884
-4.4249999999999998,0.015142347330308711
-4.4237500000000001,0.013439073822902076
-4.4225000000000003,0.011395145614015029
-4.4212499999999997,0.0093512174051259677
-4.4199999999999999,0.0090105627036447949
-4.4187500000000002,0.010373181509570117
-4.4175000000000004,0.013439073822900681
-4.4162499999999998,0.017186275539196688
-4.415,0.020592822554009974
-4.4137500000000003,0.021274131956972628
-4.4124999999999996,0.018208239643637728
-4.4112499999999999,0.011735800315495426
-4.4100000000000001,0.0025381233754995514
-4.4087500000000004,-0.0080221723704168302
-4.4074999999999998,-0.018241813414861488
-4.40625,-0.027439490354857349
-4.4050000000000002,-0.035955857891890569
-4.4037499999999996,-0.044812880130409592
-4.4024999999999999,-0.054691866473363632
-4.4012500000000001,-0.065933471622247469
-4.4000000000000004,-0.079219004980013247
-4.3987499999999997,-0.094207811845197734
-4.3975,-0.10987792811333885
-4.3962500000000002,-0.12418542557555465
-4.3949999999999996,-0.13474572132147877
-4.3937499999999998,-0.14121816064962106
-4.3925000000000001,-0.14326208885850905
-4.3912500000000003,-0.14326208885850905
-4.3899999999999997,-0.14189947005258344
-4.3887499999999999,-0.14121816064962106
-4.3875000000000002,-0.14258077945554637
