Lab5/ekg01.csv

#Digilent WaveForms Oscilloscope Acquisition
#Device Name: Discovery2
#Serial Number: SN:210321A18883
#Date Time: 2017-10-05 00:27:15.153
#Trigger:Source: Channel 1Type: EdgeCondition: RisingLevel: 0 VHyst.: AutoHoldOff: 0 s
#Channel 2: Range: 100 mV/div Offset: 100 mV

Time (s),Channel 2 (V)
-5,-0.067636745129654119
-4.9987500000000002,-0.064911507517803488
-4.9974999999999996,-0.061845615204470135
-4.9962499999999999,-0.058779722891139571
-4.9950000000000001,-0.055373175876326286
-4.9937500000000004,-0.051285319458552206
-4.9924999999999997,-0.046516153637811745
-4.99125,-0.041406333115591817
-4.9900000000000002,-0.037999786100778532
-4.9887499999999996,-0.03697782199633548
-4.9874999999999998,-0.03902175020522252
-4.9862500000000001,-0.044472225428923776
-4.9850000000000003,-0.052307283562990775
-4.9837499999999997,-0.061164305801512595
-4.9824999999999999,-0.069340018637060755
-4.9812500000000002,-0.074790493860762017
-4.9800000000000004,-0.078537695577054922
-4.9787499999999998,-0.079559659681500611
-4.9775,-0.078878350278537956
-4.9762500000000003,-0.077175076771131307
-4.9749999999999996,-0.074790493860760934
-4.9737499999999999,-0.072405910950392713
-4.9725000000000001,-0.069340018637060755
-4.9712500000000004,-0.066614781025211359
-4.9699999999999998,-0.064570852816322161
-4.96875,-0.062867579308915511
-4.9675000000000002,-0.061164305801508875
-4.9662499999999996,-0.059120377592620128
-4.9649999999999999,-0.057417104085214263
-4.9637500000000001,-0.057076449383732929
-4.9625000000000004,-0.059120377592619976
-4.9612499999999997,-0.062526924607434198
-4.96,-0.065592816920766142
-4.9587500000000002,-0.067977399831135446
-4.9574999999999996,-0.068999363935579733
-4.9562499999999998,-0.069680673338542082
-4.9550000000000001,-0.071043292144467404
-4.9537500000000003,-0.073427875054835612
-4.9524999999999997,-0.076153112666688103
-4.9512499999999999,-0.077856386174093975
-4.9500000000000002,-0.078537695577056629
-4.9487500000000004,-0.078878350278537804
-4.9474999999999998,-0.078537695577056629
-4.94625,-0.077856386174093975
-4.9450000000000003,-0.076153112666687325
-4.9437499999999996,-0.07342787505483514
-4.9424999999999999,-0.070021328040023423
-4.9412500000000001,-0.066614781025210124
-4.9400000000000004,-0.063889543413360741
-4.9387499999999998,-0.06184561520447153
-4.9375,-0.060142341697064887
-4.9362500000000002,-0.058439068189658244
-4.9349999999999996,-0.056054485279288017
-4.9337499999999999,-0.054010557070400977
-4.9325000000000001,-0.052307283562994335
-4.9312500000000004,-0.051285319458550811
-4.9299999999999997,-0.050263355354106358
-4.92875,-0.050263355354106358
-4.9275000000000002,-0.049922700652625031
-4.9262499999999996,-0.050263355354106511
-4.9249999999999998,-0.050604010055587692
-4.9237500000000001,-0.051625974160031673
-4.9225000000000003,-0.051966628861512848
-4.9212499999999997,-0.053669902368921191
-4.9199999999999999,-0.057076449383732929
-4.9187500000000002,-0.06184561520447153
-4.9175000000000004,-0.066274126323726798
-4.9162499999999998,-0.069340018637060755
-4.915,-0.070702637442986077
-4.9137500000000003,-0.068999363935579427
-4.9124999999999996,-0.06559281692076413
-4.9112499999999999,-0.061164305801508875
-4.9100000000000001,-0.056735794682251602
-4.9087500000000004,-0.053669902368921038
-4.9074999999999998,-0.051625974160031673
-4.90625,-0.050263355354106358
-4.9050000000000002,-0.049582045951143704
-4.9037499999999996,-0.049922700652625183
-4.9024999999999999,-0.050263355354106358
-4.9012500000000001,-0.049241391249662377
-4.9000000000000004,-0.046175498936331813
-4.8987499999999997,-0.041746987817073151
-4.8975,-0.037659131399297205
-4.8962500000000002,-0.035274548488927901
-4.8949999999999996,-0.034933893787447039
-4.8937499999999998,-0.035955857891890569
-4.8925000000000001,-0.037999786100778532
-4.8912500000000003,-0.041065678414109096
-4.8899999999999997,-0.044472225428925635
-4.8887499999999999,-0.048560081846699722
-4.8875000000000002,-0.054010557070400977
-4.8862500000000004,-0.061164305801505621
-4.8849999999999998,-0.068318054532616773
-4.88375,-0.074790493860762017
-4.8825000000000003,-0.080922278487425919
-4.8812499999999996,-0.085691444308165915
-4.8799999999999999,-0.088757336621496485
-4.8787500000000001,-0.089097991322977813
-4.8775000000000004,-0.086713408412609591
-4.8762499999999998,-0.080922278487425919
-4.875,-0.073087220353355367
-4.8737500000000002,-0.064911507517803488
-4.8724999999999996,-0.057757758786692953
-4.8712499999999999,-0.051966628861513001
-4.8700000000000001,-0.048560081846699722
-4.8687500000000004,-0.046516153637812675
-4.8674999999999997,-0.046516153637811745
-4.86625,-0.047878772443737061
-4.8650000000000002,-0.050263355354106358
-4.8637499999999996,-0.0523072835629948
-4.8624999999999998,-0.053329247667438316
-4.8612500000000001,-0.053329247667438316
-4.8600000000000003,-0.051966628861513618
-4.8587499999999997,-0.05026335535410574
-4.8574999999999999,-0.048900736548181049
-4.8562500000000002,-0.048219427145218388
-4.8550000000000004,-0.047538117742256046
-4.8537499999999998,-0.04685680833929308
-4.8525,-0.045834844234849091
-4.8512500000000003,-0.045834844234849091
-4.8499999999999996,-0.047538117742257593
-4.8487499999999999,-0.051625974160031673
-4.8475000000000001,-0.05571383057780762
-4.8462500000000004,-0.057076449383732311
-4.8449999999999998,-0.056395139980770274
-4.84375,-0.054691866473363632
-4.8425000000000002,-0.052647938264475662
-4.8412499999999996,-0.050604010055586915
-4.8399999999999999,-0.048900736548181049
-4.8387500000000001,-0.046516153637811745
-4.8375000000000004,-0.043109606623000007
-4.8362499999999997,-0.039362404906703848
-4.835,-0.037659131399297205
-4.8337500000000002,-0.037999786100778532
-4.8324999999999996,-0.039362404906704625
-4.8312499999999998,-0.04106567841411049
-4.8300000000000001,-0.043450261324479794
-4.8287500000000003,-0.045834844234848009
-4.8274999999999997,-0.047538117742255886
-4.8262499999999999,-0.047878772443737061
-4.8250000000000002,-0.047538117742255734
-4.8237500000000004,-0.047197463040774559
-4.8224999999999998,-0.047878772443737061
-4.82125,-0.049582045951143704
-4.8200000000000003,-0.051966628861513001
-4.8187499999999996,-0.054691866473364874
-4.8174999999999999,-0.057417104085214263
-4.8162500000000001,-0.05980168699558356
-4.8150000000000004,-0.060823651100027083
-4.8137499999999998,-0.060482996398546214
-4.8125,-0.059120377592620905
-4.8112500000000002,-0.056735794682251602
-4.8099999999999996,-0.052647938264473025
-4.8087499999999999,-0.04685680833929308
-4.8075000000000001,-0.039703059608185175
-4.8062500000000004,-0.03323062028004288
-4.8049999999999997,-0.028802109160782671
-4.80375,-0.025395562145969386
-4.8025000000000002,-0.024373598041525391
-4.8012499999999996,-0.02369228863856258
-4.7999999999999998,-0.023351633937081409
-4.7987500000000001,-0.023010979235600082
-4.7975000000000003,-0.022670324534118911
-4.7962499999999997,-0.022670324534118911
-4.7949999999999999,-0.023010979235600082
-4.7937500000000002,-0.022670324534118755
-4.7925000000000004,-0.021648360429675238
-4.7912499999999998,-0.020285741623749451
-4.79,-0.019604432220786797
-4.7887500000000003,-0.019263777519305469
-4.7874999999999996,-0.019263777519305313
-4.7862499999999999,-0.018923122817824142
-4.7850000000000001,-0.018241813414861488
-4.7837500000000004,-0.016538539907455612
-4.7824999999999998,-0.01517592110152953
-4.78125,-0.014153956997085534
-4.7800000000000002,-0.012791338191160226
-4.7787499999999996,-0.013131992892642483
-4.7774999999999999,-0.01517592110152953
-4.7762500000000001,-0.019604432220786797
-4.7750000000000004,-0.024373598041523222
-4.7737499999999997,-0.028802109160782671
-4.7725,-0.031527346772633288
-4.7712500000000002,-0.033230620280039938
-4.7699999999999996,-0.034252584384484072
-4.7687499999999998,-0.034593239085965247
-4.7675000000000001,-0.034933893787446574
-4.7662500000000003,-0.03561520319040893
-4.7649999999999997,-0.036977821996335793
-4.7637499999999999,-0.039703059608185175
-4.7625000000000002,-0.042768951921517133
-4.7612500000000004,-0.045834844234847696
-4.7599999999999998,-0.047538117742255734
-4.75875,-0.04685680833929308
-4.7575000000000003,-0.044472225428923776
-4.7562499999999996,-0.041065678414109096
-4.7549999999999999,-0.037999786100778532
-4.7537500000000001,-0.035615203190409242
-4.7525000000000004,-0.03391192968300337
-4.7512499999999998,-0.032208656175595957
-4.75,-0.030846037369670634
-4.7487500000000002,-0.029483418563745326
-4.7474999999999996,-0.029142763862264307
-4.7462499999999999,-0.029824073265226653
-4.7450000000000001,-0.031527346772633288
-4.7437500000000004,-0.032208656175595644
-4.7424999999999997,-0.032889965578558611
-4.74125,-0.033230620280039938
-4.7400000000000002,-0.033571274981521265
-4.7387499999999996,-0.034933893787447351
-4.7374999999999998,-0.036637167294853223
-4.7362500000000001,-0.039703059608185175
-4.7350000000000003,-0.042087642518553396
-4.7337499999999997,-0.043450261324480259
-4.7324999999999999,-0.044472225428923776
-4.7312500000000002,-0.045153534831886437
-4.7300000000000004,-0.045153534831886437
-4.7287499999999998,-0.045494189533367764
-4.7275,-0.047538117742255734
-4.7262500000000003,-0.052307283562994335
-4.7249999999999996,-0.057757758786698067
-4.7237499999999999,-0.063208234010396852
-4.7225000000000001,-0.066955435726691465
-4.7212500000000004,-0.070021328040022035
-4.7199999999999998,-0.073087220353355367
-4.71875,-0.076493767368168653
-4.7175000000000002,-0.079559659681500611
-4.7162499999999996,-0.080922278487425614
-4.7149999999999999,-0.080240969084463265
-4.7137500000000001,-0.079900314382981938
-4.7125000000000004,-0.081944242591868985
-4.7112499999999997,-0.087394717815571163
-4.71,-0.092504538337791098
-4.7087500000000002,-0.095229775949641729
-4.7074999999999996,-0.095570430651122432
-4.7062499999999998,-0.094207811845197734
-4.7050000000000001,-0.093185847740753752
-4.7037500000000003,-0.093867157143716101
-4.7024999999999997,-0.094889121248160554
-4.7012499999999999,-0.095229775949641729
-4.7000000000000002,-0.095229775949641729
-4.6987500000000004,-0.094889121248160554
-4.6974999999999998,-0.093185847740753752
-4.69625,-0.090119955427421794
-4.6950000000000003,-0.086713408412608509
-4.6937499999999996,-0.082625551994830251
-4.6924999999999999,-0.077515731472612648
-4.6912500000000001,-0.07274656565187404
-4.6900000000000004,-0.068999363935581134
-4.6887499999999998,-0.066955435726691465
-4.6875,-0.06627412632372881
-4.6862500000000002,-0.067977399831135446
-4.6849999999999996,-0.072065256248914175
-4.6837499999999999,-0.078197040875575302
-4.6825000000000001,-0.084669480203720546
-4.6812500000000004,-0.090460610128900484
-4.6799999999999997,-0.095229775949641729
-4.67875,-0.099658287068898996
-4.6775000000000002,-0.10374614348667494
-4.6762499999999996,-0.10919661871037883
-4.6749999999999998,-0.11498774863555877
-4.6737500000000001,-0.11873495035185339
-4.6725000000000003,-0.11873495035185339
-4.6712499999999997,-0.11430643923259177
-4.6699999999999999,-0.10476810759111892
-4.6687500000000002,-0.091823228934828444
-4.6675000000000004,-0.076834422069656794
-4.6662499999999998,-0.063208234010396852
-4.665,-0.050263355354106358
-4.6637500000000003,-0.036977821996334551
-4.6624999999999996,-0.023351633937074748
-4.6612499999999999,-0.0087034817733842862
-4.6600000000000001,0.0056040156888315096
-4.6587500000000004,0.018208239643634938
-4.6574999999999998,0.027746571285117871
-4.65625,0.032856391807337793
-4.6550000000000002,0.033878355911781788
-4.6537499999999996,0.031834427702891785
-4.6524999999999999,0.02740591658363653
-4.6512500000000001,0.021955441359935282
-4.6500000000000004,0.015483002031792981
-4.6487499999999997,0.0093512174051261221
-4.6475,0.0039007421814248738
-4.6462500000000002,0.00083484986809291561
-4.6449999999999996,0.0011755045695757919
-4.6437499999999998,0.0045820515843875281
-4.6425000000000001,0.0096918721066074492
-4.6412500000000003,0.016164311434749751
-4.6399999999999997,0.022977405464381432
-4.6387499999999999,0.027746571285117871
-4.6375000000000002,0.029449844792524521
-4.6362500000000004,0.027746571285118645
-4.6349999999999998,0.022977405464379264
-4.63375,0.017186275539196688
-4.6325000000000003,0.013439073822902076
-4.6312499999999996,0.012417109718458856
-4.6299999999999999,0.01412038322586473
-4.6287500000000001,0.01820823964364067
-4.6275000000000004,0.022636750762895924
-4.6262499999999998,0.025361988374748567
-4.625,0.025021333673267226
-4.6237500000000002,0.021955441359935282
-4.6224999999999996,0.017186275539193746
-4.6212499999999999,0.010713836211051445
-4.6200000000000001,-0.0012090783407950612
-4.6187500000000004,-0.018241813414853741
-4.6174999999999997,-0.03902175020522252
-4.61625,-0.062867579308915511
-4.6150000000000002,-0.08943864602445914
-4.6137499999999996,-0.11635036744149618
-4.6124999999999998,-0.14292143415702771
-4.6112500000000001,-0.16744857266368335
-4.6100000000000003,-0.18890981885699729
-4.6087499999999997,-0.20696451803552504
-4.6074999999999999,-0.22365659840810256
-4.6062500000000002,-0.23898605997476235
-4.6050000000000004,-0.25056831982512223
-4.6037499999999998,-0.25874403266067941
-4.6025,-0.26623843609326864
-4.6012500000000003,-0.27032629251104456
-4.5999999999999996,-0.26794170960067176
-4.5987499999999999,-0.26010665146660472
-4.5975000000000001,-0.25056831982512751
-4.5962500000000004,-0.2403486787806923
-4.5949999999999998,-0.22876641893032248
-4.59375,-0.215821540274032
-4.5925000000000002,-0.20185469751329754
-4.5912499999999996,-0.18754720005107525
-4.5899999999999999,-0.17323970258886595
-4.5887500000000001,-0.15893220512665016
-4.5875000000000004,-0.14598732647036555
-4.5862499999999997,-0.13304244781406918
-4.585,-0.12214149736666667
-4.5837500000000002,-0.11192185632222681
-4.5824999999999996,-0.10204286997926365
-4.5812499999999998,-0.091823228934828444
-4.5800000000000001,-0.08126293318890726
-4.5787500000000003,-0.070702637442990879
-4.5774999999999997,-0.061164305801505316
-4.5762499999999999,-0.053329247667438316
-4.5750000000000002,-0.04685680833929308
-4.5737500000000004,-0.041065678414113127
-4.5724999999999998,-0.034593239085965247
-4.57125,-0.02846145445930133
-4.5700000000000003,-0.022670324534118755
-4.5687499999999996,-0.018582468116342194
-4.5674999999999999,-0.017219849310417493
-4.5662500000000001,-0.016538539907454838
-4.5650000000000004,-0.016197885205973667
-4.5637499999999998,-0.016197885205973511
-4.5625,-0.015516575803010857
-4.5612500000000002,-0.011769374086716244
-4.5599999999999996,-0.0049562800570864202
-4.5587499999999999,0.0021974686740182242
-4.5575000000000001,0.0096918721066074492
-4.5562500000000004,0.017867584942155623
-4.5549999999999997,0.02740591658363653
-4.55375,0.0376255576280764
-4.5525000000000002,0.04580127046362828
-4.5512499999999996,0.050911090985848201
-4.5499999999999998,0.050911090985848201
-4.5487500000000001,0.046823234568072275
-4.5475000000000003,0.040010140538448799
-4.5462499999999997,0.03285639180733485
-4.5449999999999999,0.026383952479192563
-4.5437500000000002,0.020252167852528632
-4.5425000000000004,0.014801692628829863
-4.5412499999999998,0.011735800315495426
-4.54,0.01003252680808879
-4.5387500000000003,0.0083292533006821406
-4.5374999999999996,0.0056040156888302701
-4.5362499999999999,0.0028787780769808785
-4.5350000000000001,0.00083484986809291561
-4.5337500000000004,0.0011755045695740879
-4.5324999999999998,0.004241396882906201
-4.53125,0.0086699080021634678
-4.5300000000000002,0.012757764419939407
-4.5287499999999996,0.015823656733272604
-4.5274999999999999,0.018548894345121997
-4.5262500000000001,0.020592822554009974
-4.5250000000000004,0.020592822554009974
-4.5237499999999997,0.018548894345121997
-4.5225,0.016845620837715347
-4.5212500000000002,0.017186275539196688
-4.5199999999999996,0.018889549046604254
-4.5187499999999998,0.020933477255491301
-4.5175000000000001,0.022296096061416609
-4.5162500000000003,0.023658714867341297
-4.5149999999999997,0.024680678971786687
-4.5137499999999999,0.026383952479192563
-4.5125000000000002,0.029449844792524521
-4.5112500000000004,0.032175082404373896
-4.5099999999999998,0.034559665314744442
-4.50875,0.035922284120669751
-4.5075000000000003,0.036262938822151092
-4.5062499999999996,0.034559665314742583
-4.5049999999999999,0.030471808896968489
-4.5037500000000001,0.025021333673267226
-4.5025000000000004,0.018548894345124939
-4.5012499999999998,0.013098419121420735
-4.5,0.0096918721066074492
-4.4987500000000002,0.0083292533006821406
-4.4974999999999996,0.0083292533006819863
-4.4962499999999999,0.0079885985992008135
-4.4950000000000001,0.0079885985992008135
-4.4937500000000004,0.0076479438977196416
-4.4924999999999997,0.0076479438977194864
-4.49125,0.0076479438977194864
-4.4900000000000002,0.0086699080021634678
-4.4887499999999996,0.010713836211052683
-4.4874999999999998,0.013439073822902076
-4.4862500000000001,0.01650496613623402
-4.4850000000000003,0.019911513151045758
-4.4837499999999997,0.021955441359935903
-4.4824999999999999,0.023318060165860591
-4.4812500000000002,0.025021333673267226
-4.4800000000000004,0.028768535389560135
-4.4787499999999998,0.011735800315495426
-4.4775,0.015142347330308711
-4.4762500000000003,0.01820823964364067
-4.4749999999999996,0.021614786658455658
-4.4737499999999999,0.025361988374748567
-4.4725000000000001,0.028427880688080526
-4.4712500000000004,0.029790499494005213
-4.4699999999999998,0.029449844792524521
-4.46875,0.028087225986599185
-4.4675000000000002,0.027065261882155217
-4.4662499999999996,0.026043297777710292
-4.4649999999999999,0.023999369568823259
-4.4637500000000001,0.021614786658453955
-4.4625000000000004,0.019230203748085734
-4.4612499999999997,0.017186275539196688
-4.46,0.017186275539196688
-4.4587500000000002,0.017867584942159342
-4.4574999999999996,0.020592822554011833
-4.4562499999999998,0.024680678971785913
-4.4550000000000001,0.02910919009104318
-4.4537500000000003,0.032856391807336086
-4.4524999999999997,0.035922284120670681
-4.4512499999999999,0.037966212329557714
-4.4500000000000002,0.040010140538445704
-4.4487500000000004,0.042735378150295079
-4.4474999999999998,0.046141925165109593
-4.44625,0.050570436284366888
-4.4450000000000003,0.054658292702142813
-4.4437499999999996,0.057042875612512117
-4.4424999999999999,0.057042875612512117
-4.4412500000000001,0.055680256806586809
-4.4400000000000004,0.053976983299180936
-4.4387499999999998,0.051592400388810855
-4.4375,0.049207817478441551
-4.4362500000000002,0.045119961060665625
-4.4349999999999996,0.040350795239925311
-4.4337499999999999,0.036603593523632405
-4.4325000000000001,0.034900320016225755
-4.4312500000000004,0.035240974717706944
-4.4299999999999997,0.0376255576280764
-4.42875,0.040691449941408359
-4.4275000000000002,0.043757342254740317
-4.4262499999999996,0.046823234568073822
-4.4249999999999998,0.050229781582885547
-4.4237500000000001,0.053976983299180159
-4.4225000000000003,0.057724185015473065
-4.4212499999999997,0.062834005537696858
-4.4199999999999999,0.0676031713584333
-4.4187500000000002,0.072031682477690567
-4.4175000000000004,0.076119538895464661
-4.4162499999999998,0.079866740611761133
-4.415,0.082251323522130437
-4.4137500000000003,0.082591978223611751
-4.4124999999999996,0.081570014119166701
-4.4112499999999999,0.079185431208798479
-4.4100000000000001,0.076119538895466521
-4.4087500000000004,0.074416265388060648
-4.4074999999999998,0.075097574791022526
-4.40625,0.077822812402873143
-4.4050000000000002,0.081910668820649096
-4.4037499999999996,0.085317215835464408
-4.4024999999999999,0.089745726954719662
-4.4012500000000001,0.095196202178420897
-4.4000000000000004,0.10132798680508202
-4.3987499999999997,0.10780042613323007
-4.3975,0.11461352016285664
-4.3962500000000002,0.12108595949100187
-4.3949999999999996,0.12585512531174217
-4.3937499999999998,0.12960232702803509
-4.3925000000000001,0.13266821934136705
-4.3912500000000003,0.1347121475502541
-4.3899999999999997,0.13505280225173619
-4.3887499999999999,0.13471214755025501
-4.3875000000000002,0.13369018344581102
