Lab2/Lab_2_Voltage - Original.csv

#Digilent WaveForms Oscilloscope Acquisition,,
#Device Name: Discovery2,,
#Serial Number: SN:210321A188CC,,
#Date Time: 2017-09-15 13:38:37.634,,
#Trigger:Source: Channel 1Type: EdgeCondition: RisingLevel: 0 VHyst.: AutoHoldOff: 0 s,,
#Channel 1: Range: 1.5 V/div Offset: 1 V,,
#Channel 2: Range: 1.5 V/div Offset: 1 V,,
,,
Time (s),Channel 1 (V),Channel 2 (V)
-600,0.542740175,0.544064865
-599.85,2.627627484,2.629672302
-599.7,2.631330658,2.629672302
-599.55,2.627627484,2.629672302
-599.4,2.627627484,2.629672302
-599.25,2.627627484,2.629672302
-599.1,2.631330658,2.629672302
-598.95,2.627627484,2.629672302
-598.8,2.631330658,2.629672302
-598.65,2.631330658,2.629672302
-598.5,2.631330658,2.629672302
-598.35,2.627627484,2.629672302
-598.2,2.631330658,2.629672302
-598.05,2.631330658,2.629672302
-597.9,2.627627484,2.625961257
-597.75,2.627627484,2.625961257
-597.6,2.627627484,2.625961257
-597.45,2.623924309,2.625961257
-597.3,2.623924309,2.622250211
-597.15,2.620221134,2.622250211
-597,2.623924309,2.622250211
-596.85,2.620221134,2.622250211
-596.7,2.612814785,2.622250211
-596.55,2.60911161,2.622250211
-596.4,2.605408436,2.622250211
-596.25,2.605408436,2.622250211
-596.1,2.598002087,2.618539166
-595.95,2.553563991,2.618539166
-595.8,2.468390975,2.592561849
-595.65,2.383217959,2.488652582
-595.5,2.301748117,2.366188088
-595.35,2.2313878,2.25485673
-595.2,2.168433831,2.158369554
-595.05,2.109183037,2.073015513
-594.9,2.053635418,2.002505653
-594.75,1.994384624,1.935706838
-594.6,1.93513383,1.876330114
-594.45,1.879586211,1.81695339
-594.3,1.827741766,1.757576666
-594.15,1.775897322,1.701910987
-594,1.724052877,1.649956353
-593.85,1.679614782,1.60542381
-593.7,1.638879861,1.564602312
-593.55,1.601848115,1.523780814
-593.4,1.564816369,1.482959316
-593.25,1.535190972,1.442137818
-593.1,1.5018624,1.405027366
-592.95,1.472237003,1.371627958
-592.8,1.442611606,1.341939596
-592.65,1.412986209,1.312251234
-592.5,1.383360812,1.282562872
-592.35,1.35743859,1.256585555
-592.2,1.331516368,1.234319284
-592.05,1.30929732,1.212053012
-591.9,1.287078272,1.193497786
-591.75,1.268562399,1.178653605
-591.6,1.250046526,1.160098378
-591.45,1.231530653,1.145254197
-591.3,1.216717955,1.130410016
-591.15,1.201905256,1.119276881
-591,1.187092558,1.1044327
-590.85,1.175983034,1.093299564
-590.7,1.16487351,1.082166428
-590.55,1.153763986,1.071033292
-590.4,1.142654462,1.063611202
-590.25,1.131544939,1.052478066
-590.1,1.120435415,1.045055975
-589.95,1.109325891,1.03392284
-589.8,1.101919542,1.026500749
-589.65,1.090810018,1.022789704
-589.5,1.083403669,1.015367613
-589.35,1.075997319,1.007945523
-589.2,1.06859097,1.000523432
-589.05,1.061184621,0.996812387
-588.9,1.053778272,0.989390296
-588.75,1.046371922,0.985679251
-588.6,1.038965573,0.978257161
-588.45,1.031559224,0.974546115
-588.3,1.024152875,0.97083507
-588.15,1.0204497,0.967124025
-588,1.013043351,0.959701934
-587.85,1.009340176,0.955990889
-587.7,1.001933827,0.955990889
-587.55,0.998230652,0.952279844
-587.4,0.994527478,0.948568799
-587.25,0.990824303,0.944857753
-587.1,0.987121128,0.941146708
-586.95,0.983417954,0.937435663
-586.8,0.979714779,0.937435663
-586.65,0.976011605,0.933724618
-586.5,0.97230843,0.930013572
-586.35,0.968605255,0.926302527
-586.2,0.964902081,0.926302527
-586.05,0.961198906,0.922591482
-585.9,0.957495732,0.922591482
-585.75,0.953792557,0.918880437
-585.6,0.953792557,0.918880437
-585.45,0.950089382,0.915169391
-585.3,0.946386208,0.915169391
-585.15,0.946386208,0.911458346
-585,0.942683033,0.907747301
-584.85,0.938979858,0.907747301
-584.7,0.938979858,0.904036255
-584.55,0.935276684,0.904036255
-584.4,0.935276684,0.90032521
-584.25,0.931573509,0.90032521
-584.1,0.931573509,0.896614165
-583.95,0.927870335,0.896614165
-583.8,0.927870335,0.896614165
-583.65,0.92416716,0.89290312
-583.5,0.92416716,0.89290312
-583.35,0.920463985,0.89290312
-583.2,0.920463985,0.889192074
-583.05,0.916760811,0.889192074
-582.9,0.916760811,0.889192074
-582.75,0.916760811,0.885481029
-582.6,0.913057636,0.885481029
-582.45,0.913057636,0.885481029
-582.3,0.909354462,0.885481029
-582.15,0.909354462,0.885481029
-582,0.909354462,0.885481029
-581.85,0.909354462,0.881769984
-581.7,0.905651287,0.881769984
-581.55,0.905651287,0.881769984
-581.4,0.905651287,0.881769984
-581.25,0.901948112,0.881769984
-581.1,0.901948112,0.881769984
-580.95,0.901948112,0.878058939
-580.8,0.901948112,0.878058939
-580.65,0.898244938,0.878058939
-580.5,0.898244938,0.878058939
-580.35,0.898244938,0.878058939
-580.2,0.898244938,0.878058939
-580.05,0.894541763,0.874347893
-579.9,0.894541763,0.874347893
-579.75,0.894541763,0.874347893
-579.6,0.894541763,0.874347893
-579.45,0.894541763,0.874347893
-579.3,0.894541763,0.874347893
-579.15,0.894541763,0.874347893
-579,0.890838588,0.874347893
-578.85,0.890838588,0.874347893
-578.7,0.890838588,0.874347893
-578.55,0.890838588,0.870636848
-578.4,0.890838588,0.870636848
-578.25,0.890838588,0.870636848
-578.1,0.890838588,0.870636848
-577.95,0.890838588,0.870636848
-577.8,0.890838588,0.870636848
-577.65,0.890838588,0.870636848
-577.5,0.890838588,0.870636848
-577.35,0.887135414,0.870636848
-577.2,0.887135414,0.870636848
-577.05,0.887135414,0.870636848
-576.9,0.887135414,0.870636848
-576.75,0.887135414,0.866925803
-576.6,0.887135414,0.866925803
-576.45,0.887135414,0.866925803
-576.3,0.887135414,0.866925803
-576.15,0.883432239,0.866925803
-576,0.883432239,0.866925803
-575.85,0.883432239,0.866925803
-575.7,0.883432239,0.866925803
-575.55,0.883432239,0.866925803
-575.4,0.883432239,0.866925803
-575.25,0.883432239,0.866925803
-575.1,0.883432239,0.866925803
-574.95,0.883432239,0.866925803
-574.8,0.883432239,0.866925803
-574.65,0.883432239,0.866925803
-574.5,0.883432239,0.866925803
-574.35,0.883432239,0.866925803
-574.2,0.883432239,0.866925803
-574.05,0.879729065,0.866925803
-573.9,0.883432239,0.866925803
-573.75,0.883432239,0.866925803
-573.6,0.883432239,0.866925803
-573.45,0.879729065,0.866925803
-573.3,0.879729065,0.866925803
-573.15,0.879729065,0.863214758
-573,0.879729065,0.863214758
-572.85,0.879729065,0.863214758
-572.7,0.879729065,0.863214758
-572.55,0.879729065,0.863214758
-572.4,0.879729065,0.863214758
-572.25,0.879729065,0.863214758
-572.1,0.879729065,0.863214758
-571.95,0.879729065,0.863214758
-571.8,0.879729065,0.863214758
-571.65,0.879729065,0.863214758
-571.5,0.879729065,0.863214758
-571.35,0.879729065,0.863214758
-571.2,0.879729065,0.863214758
-571.05,0.879729065,0.863214758
-570.9,0.879729065,0.863214758
-570.75,0.879729065,0.863214758
-570.6,0.879729065,0.863214758
-570.45,0.879729065,0.863214758
-570.3,0.879729065,0.863214758
-570.15,0.879729065,0.863214758
-570,0.879729065,0.863214758
-569.85,0.879729065,0.863214758
-569.7,0.879729065,0.863214758
-569.55,0.879729065,0.863214758
-569.4,0.879729065,0.863214758
-569.25,0.879729065,0.863214758
-569.1,0.879729065,0.863214758
-568.95,0.879729065,0.863214758
-568.8,0.879729065,0.863214758
-568.65,0.879729065,0.863214758
-568.5,0.879729065,0.863214758
-568.35,0.879729065,0.863214758
-568.2,0.879729065,0.863214758
-568.05,0.879729065,0.863214758
-567.9,0.879729065,0.863214758
-567.75,0.879729065,0.863214758
-567.6,0.879729065,0.863214758
-567.45,0.879729065,0.863214758
-567.3,0.879729065,0.863214758
-567.15,0.879729065,0.863214758
-567,0.879729065,0.863214758
-566.85,0.879729065,0.863214758
-566.7,0.879729065,0.863214758
-566.55,0.879729065,0.863214758
-566.4,0.879729065,0.863214758
-566.25,0.879729065,0.863214758
-566.1,0.879729065,0.863214758
-565.95,0.879729065,0.863214758
-565.8,0.879729065,0.863214758
-565.65,0.879729065,0.863214758
-565.5,0.879729065,0.863214758
-565.35,0.879729065,0.863214758
-565.2,0.879729065,0.863214758
-565.05,0.879729065,0.863214758
-564.9,0.879729065,0.863214758
-564.75,0.879729065,0.863214758
-564.6,0.879729065,0.863214758
-564.45,0.879729065,0.863214758
-564.3,0.879729065,0.863214758
-564.15,0.883432239,0.863214758
-564,0.879729065,0.863214758
-563.85,0.879729065,0.863214758
-563.7,0.879729065,0.863214758
-563.55,0.883432239,0.863214758
-563.4,0.883432239,0.863214758
-563.25,0.883432239,0.863214758
-563.1,0.883432239,0.863214758
-562.95,0.883432239,0.863214758
-562.8,0.883432239,0.863214758
-562.65,0.883432239,0.863214758
-562.5,0.883432239,0.863214758
-562.35,0.883432239,0.863214758
-562.2,0.883432239,0.863214758
-562.05,0.883432239,0.863214758
-561.9,0.883432239,0.863214758
-561.75,0.883432239,0.863214758
-561.6,0.883432239,0.863214758
-561.45,0.879729065,0.863214758
-561.3,0.883432239,0.863214758
-561.15,0.883432239,0.863214758
-561,0.883432239,0.863214758
-560.85,0.883432239,0.863214758
-560.7,0.883432239,0.866925803
-560.55,0.883432239,0.878058939
-560.4,0.879729065,0.896614165
-560.25,0.879729065,0.918880437
-560.1,0.879729065,0.941146708
-559.95,0.879729065,0.959701934
-559.8,0.879729065,0.967124025
-559.65,0.879729065,0.97083507
-559.5,0.879729065,0.97083507
-559.35,0.879729065,0.974546115
-559.2,0.879729065,0.974546115
-559.05,0.879729065,0.974546115
-558.9,0.879729065,0.974546115
-558.75,0.879729065,0.974546115
-558.6,0.879729065,0.978257161
-558.45,0.879729065,0.981968206
-558.3,0.879729065,0.985679251
-558.15,0.879729065,0.989390296
-558,0.879729065,0.993101342
-557.85,0.879729065,0.996812387
-557.7,0.879729065,1.000523432
-557.55,0.879729065,1.007945523
-557.4,0.879729065,1.011656568
-557.25,0.879729065,1.015367613
-557.1,0.879729065,1.019078659
-556.95,0.879729065,1.022789704
-556.8,0.879729065,1.022789704
-556.65,0.879729065,1.026500749
-556.5,0.879729065,1.030211794
-556.35,0.879729065,1.03392284
-556.2,0.879729065,1.037633885
-556.05,0.879729065,1.037633885
-555.9,0.879729065,1.04134493
-555.75,0.879729065,1.045055975
-555.6,0.879729065,1.048767021
-555.45,0.883432239,1.048767021
-555.3,0.879729065,1.052478066
-555.15,0.879729065,1.052478066
-555,0.883432239,1.056189111
-554.85,0.883432239,1.056189111
-554.7,0.883432239,1.059900156
-554.55,0.883432239,1.059900156
-554.4,0.883432239,1.063611202
-554.25,0.883432239,1.063611202
-554.1,0.883432239,1.063611202
-553.95,0.883432239,1.067322247
-553.8,0.883432239,1.067322247
-553.65,0.883432239,1.071033292
-553.5,0.883432239,1.071033292
-553.35,0.883432239,1.071033292
-553.2,0.883432239,1.074744337
-553.05,0.883432239,1.074744337
-552.9,0.883432239,1.074744337
-552.75,0.883432239,1.078455383
-552.6,0.883432239,1.078455383
-552.45,0.883432239,1.078455383
-552.3,0.883432239,1.078455383
-552.15,0.883432239,1.078455383
-552,0.883432239,1.078455383
-551.85,0.883432239,1.082166428
-551.7,0.883432239,1.082166428
-551.55,0.887135414,1.082166428
-551.4,0.883432239,1.082166428
-551.25,0.883432239,1.085877473
-551.1,0.887135414,1.085877473
-550.95,0.887135414,1.085877473
-550.8,0.887135414,1.085877473
-550.65,0.887135414,1.085877473
-550.5,0.887135414,1.089588519
-550.35,0.887135414,1.089588519
-550.2,0.887135414,1.089588519
-550.05,0.887135414,1.089588519
-549.9,0.883432239,1.089588519
-549.75,0.883432239,1.093299564
-549.6,0.887135414,1.093299564
-549.45,0.887135414,1.093299564
-549.3,0.887135414,1.093299564
-549.15,0.887135414,1.093299564
-549,0.883432239,1.093299564
-548.85,0.883432239,1.093299564
-548.7,0.887135414,1.093299564
-548.55,0.887135414,1.097010609
-548.4,0.887135414,1.097010609
-548.25,0.887135414,1.097010609
-548.1,0.887135414,1.097010609
-547.95,0.887135414,1.097010609
-547.8,0.887135414,1.100721654
-547.65,0.887135414,1.100721654
-547.5,0.887135414,1.100721654
-547.35,0.887135414,1.100721654
-547.2,0.887135414,1.100721654
-547.05,0.887135414,1.100721654
-546.9,0.887135414,1.100721654
-546.75,0.887135414,1.100721654
-546.6,0.887135414,1.100721654
-546.45,0.887135414,1.100721654
-546.3,0.887135414,1.1044327
-546.15,0.887135414,1.1044327
-546,0.887135414,1.1044327
-545.85,0.887135414,1.1044327
-545.7,0.887135414,1.1044327
-545.55,0.887135414,1.1044327
-545.4,0.887135414,1.1044327
-545.25,0.887135414,1.1044327
-545.1,0.887135414,1.1044327
-544.95,0.887135414,1.1044327
-544.8,0.887135414,1.108143745
-544.65,0.887135414,1.108143745
-544.5,0.887135414,1.108143745
-544.35,0.887135414,1.108143745
-544.2,0.887135414,1.108143745
-544.05,0.887135414,1.108143745
-543.9,0.887135414,1.108143745
-543.75,0.887135414,1.108143745
-543.6,0.887135414,1.108143745
-543.45,0.887135414,1.108143745
-543.3,0.887135414,1.108143745
-543.15,0.887135414,1.108143745
-543,0.887135414,1.108143745
-542.85,0.887135414,1.108143745
-542.7,0.887135414,1.108143745
-542.55,0.887135414,1.108143745
-542.4,0.887135414,1.11185479
-542.25,0.887135414,1.11185479
-542.1,0.887135414,1.11185479
-541.95,0.887135414,1.11185479
-541.8,0.890838588,1.11185479
-541.65,0.887135414,1.11185479
-541.5,0.890838588,1.11185479
-541.35,0.890838588,1.11185479
-541.2,0.890838588,1.11185479
-541.05,0.890838588,1.11185479
-540.9,0.890838588,1.11185479
-540.75,0.890838588,1.11185479
-540.6,0.890838588,1.11185479
-540.45,0.890838588,1.11185479
-540.3,0.890838588,1.11185479
-540.15,0.890838588,1.11185479
-540,0.890838588,1.11185479
-539.85,0.890838588,1.11185479
-539.7,0.890838588,1.11185479
-539.55,0.890838588,1.11185479
-539.4,0.890838588,1.11185479
-539.25,0.894541763,1.11185479
-539.1,0.894541763,1.11185479
-538.95,0.894541763,1.11185479
-538.8,0.894541763,1.11185479
-538.65,0.894541763,1.11185479
-538.5,0.894541763,1.11185479
-538.35,0.894541763,1.11185479
-538.2,0.894541763,1.11185479
-538.05,0.894541763,1.115565835
-537.9,0.894541763,1.115565835
-537.75,0.894541763,1.115565835
-537.6,0.894541763,1.115565835
-537.45,0.894541763,1.115565835
-537.3,0.894541763,1.115565835
-537.15,0.894541763,1.115565835
-537,0.894541763,1.115565835
-536.85,0.894541763,1.115565835
-536.7,0.894541763,1.115565835
-536.55,0.894541763,1.115565835
-536.4,0.894541763,1.115565835
-536.25,0.894541763,1.115565835
-536.1,0.894541763,1.115565835
-535.95,0.894541763,1.115565835
-535.8,0.894541763,1.115565835
-535.65,0.894541763,1.115565835
-535.5,0.894541763,1.115565835
-535.35,0.898244938,1.115565835
-535.2,0.898244938,1.115565835
-535.05,0.898244938,1.115565835
-534.9,0.898244938,1.115565835
-534.75,0.898244938,1.115565835
-534.6,0.898244938,1.115565835
-534.45,0.898244938,1.115565835
-534.3,0.898244938,1.115565835
-534.15,0.898244938,1.115565835
-534,0.898244938,1.115565835
-533.85,0.898244938,1.115565835
-533.7,0.898244938,1.115565835
-533.55,0.898244938,1.115565835
-533.4,0.898244938,1.115565835
-533.25,0.898244938,1.115565835
-533.1,0.898244938,1.115565835
-532.95,0.898244938,1.115565835
-532.8,0.898244938,1.115565835
-532.65,0.898244938,1.119276881
-532.5,0.898244938,1.119276881
-532.35,0.898244938,1.115565835
-532.2,0.898244938,1.115565835
-532.05,0.898244938,1.119276881
-531.9,0.898244938,1.119276881
-531.75,0.898244938,1.119276881
-531.6,0.898244938,1.119276881
-531.45,0.898244938,1.119276881
-531.3,0.898244938,1.119276881
-531.15,0.898244938,1.119276881
-531,0.898244938,1.119276881
-530.85,0.898244938,1.119276881
-530.7,0.898244938,1.119276881
-530.55,0.898244938,1.119276881
-530.4,0.898244938,1.119276881
-530.25,0.898244938,1.119276881
-530.1,0.898244938,1.119276881
-529.95,0.901948112,1.119276881
-529.8,0.901948112,1.119276881
-529.65,0.898244938,1.119276881
-529.5,0.898244938,1.119276881
-529.35,0.901948112,1.119276881
-529.2,0.901948112,1.119276881
-529.05,0.901948112,1.119276881
-528.9,0.901948112,1.119276881
-528.75,0.901948112,1.119276881
-528.6,0.901948112,1.119276881
-528.45,0.901948112,1.119276881
-528.3,0.901948112,1.119276881
-528.15,0.901948112,1.119276881
-528,0.901948112,1.119276881
-527.85,0.901948112,1.119276881
-527.7,0.901948112,1.119276881
-527.55,0.901948112,1.119276881
-527.4,0.901948112,1.119276881
-527.25,0.901948112,1.119276881
-527.1,0.901948112,1.119276881
-526.95,0.901948112,1.122987926
-526.8,0.901948112,1.122987926
-526.65,0.901948112,1.122987926
-526.5,0.901948112,1.122987926
-526.35,0.901948112,1.122987926
-526.2,0.901948112,1.122987926
-526.05,0.901948112,1.122987926
-525.9,0.901948112,1.122987926
-525.75,0.901948112,1.122987926
-525.6,0.901948112,1.122987926
-525.45,0.901948112,1.122987926
-525.3,0.901948112,1.122987926
-525.15,0.901948112,1.122987926
-525,0.905651287,1.122987926
-524.85,0.905651287,1.122987926
-524.7,0.905651287,1.122987926
-524.55,0.905651287,1.122987926
-524.4,0.905651287,1.122987926
-524.25,0.905651287,1.122987926
-524.1,0.905651287,1.122987926
-523.95,0.905651287,1.122987926
-523.8,0.905651287,1.122987926
-523.65,0.905651287,1.122987926
-523.5,0.905651287,1.122987926
-523.35,0.905651287,1.122987926
-523.2,0.905651287,1.122987926
-523.05,0.905651287,1.122987926
-522.9,0.905651287,1.122987926
-522.75,0.905651287,1.122987926
-522.6,0.905651287,1.122987926
-522.45,0.905651287,1.122987926
-522.3,0.905651287,1.126698971
-522.15,0.905651287,1.126698971
-522,0.905651287,1.126698971
-521.85,0.905651287,1.122987926
-521.7,0.905651287,1.122987926
-521.55,0.905651287,1.126698971
-521.4,0.905651287,1.126698971
-521.25,0.905651287,1.126698971
-521.1,0.905651287,1.126698971
-520.95,0.905651287,1.126698971
-520.8,0.905651287,1.126698971
-520.65,0.905651287,1.126698971
-520.5,0.905651287,1.126698971
-520.35,0.905651287,1.126698971
-520.2,0.905651287,1.126698971
-520.05,0.905651287,1.126698971
-519.9,0.905651287,1.126698971
-519.75,0.905651287,1.126698971
-519.6,0.905651287,1.126698971
-519.45,0.905651287,1.126698971
-519.3,0.905651287,1.126698971
-519.15,0.905651287,1.126698971
-519,0.905651287,1.126698971
-518.85,0.905651287,1.126698971
-518.7,0.905651287,1.126698971
-518.55,0.905651287,1.126698971
-518.4,0.905651287,1.126698971
-518.25,0.905651287,1.126698971
-518.1,0.909354462,1.126698971
-517.95,0.905651287,1.126698971
-517.8,0.905651287,1.126698971
-517.65,0.909354462,1.126698971
-517.5,0.909354462,1.126698971
-517.35,0.909354462,1.126698971
-517.2,0.909354462,1.126698971
-517.05,0.909354462,1.126698971
-516.9,0.909354462,1.126698971
-516.75,0.909354462,1.126698971
-516.6,0.909354462,1.126698971
-516.45,0.909354462,1.126698971
-516.3,0.909354462,1.126698971
-516.15,0.909354462,1.126698971
-516,0.909354462,1.126698971
-515.85,0.909354462,1.126698971
-515.7,0.909354462,1.126698971
-515.55,0.909354462,1.126698971
-515.4,0.909354462,1.126698971
-515.25,0.909354462,1.126698971
-515.1,0.909354462,1.126698971
-514.95,0.909354462,1.126698971
-514.8,0.909354462,1.126698971
-514.65,0.909354462,1.126698971
-514.5,0.909354462,1.126698971
-514.35,0.909354462,1.126698971
-514.2,0.909354462,1.126698971
-514.05,0.909354462,1.126698971
-513.9,0.909354462,1.126698971
-513.75,0.909354462,1.130410016
-513.6,0.909354462,1.130410016
-513.45,0.909354462,1.130410016
-513.3,0.909354462,1.130410016
-513.15,0.909354462,1.130410016
-513,0.909354462,1.130410016
-512.85,0.909354462,1.130410016
-512.7,0.909354462,1.130410016
-512.55,0.909354462,1.130410016
-512.4,0.909354462,1.130410016
-512.25,0.909354462,1.130410016
-512.1,0.909354462,1.130410016
-511.95,0.909354462,1.130410016
-511.8,0.909354462,1.130410016
-511.65,0.909354462,1.130410016
-511.5,0.913057636,1.130410016
-511.35,0.913057636,1.130410016
-511.2,0.909354462,1.130410016
-511.05,0.913057636,1.130410016
-510.9,0.913057636,1.130410016
-510.75,0.913057636,1.130410016
-510.6,0.913057636,1.130410016
-510.45,0.913057636,1.130410016
-510.3,0.913057636,1.130410016
-510.15,0.913057636,1.130410016
-510,0.913057636,1.130410016
-509.85,0.913057636,1.130410016
-509.7,0.913057636,1.130410016
-509.55,0.913057636,1.130410016
-509.4,0.913057636,1.130410016
-509.25,0.913057636,1.130410016
-509.1,0.913057636,1.130410016
-508.95,0.913057636,1.134121062
-508.8,0.913057636,1.134121062
-508.65,0.913057636,1.134121062
-508.5,0.913057636,1.134121062
-508.35,0.913057636,1.134121062
-508.2,0.913057636,1.134121062
-508.05,0.913057636,1.134121062
-507.9,0.913057636,1.134121062
-507.75,0.913057636,1.134121062
-507.6,0.916760811,1.134121062
-507.45,0.913057636,1.134121062
-507.3,0.916760811,1.134121062
-507.15,0.916760811,1.134121062
-507,0.916760811,1.134121062
-506.85,0.916760811,1.134121062
-506.7,0.916760811,1.134121062
-506.55,0.916760811,1.134121062
-506.4,0.916760811,1.134121062
-506.25,0.916760811,1.134121062
-506.1,0.916760811,1.134121062
-505.95,0.916760811,1.134121062
