Lab6/10k.csv

#Digilent WaveForms Oscilloscope Acquisition
#Device Name: Discovery2
#Serial Number: SN:210321A18731
#Date Time: 2017-10-13 12:45:50.845
#Trigger:Source: Channel 1Type: EdgeCondition: RisingLevel: 0 VHyst.: AutoHoldOff: 0 s
#Channel 1: Range: 500 mV/div Offset: 0 V

Time (s),Channel 1 (V)
-29.999999999999996,2.4986333354756716
-29.992499999999996,2.5076309565959383
-29.984999999999999,2.5129628802227599
-29.977499999999999,2.5156288420361714
-29.969999999999999,2.5172950681695538
-29.962499999999999,2.5182948038495834
-29.954999999999998,2.5192945395296129
-29.947499999999998,2.5196277847562891
-29.939999999999998,2.5199610299829658
-29.932499999999997,2.520294275209642
-29.924999999999997,2.520294275209642
-29.917499999999997,2.5209607656629953
-29.909999999999997,2.5209607656629953
-29.902499999999996,2.5209607656629953
-29.895,2.5209607656629953
-29.887499999999999,2.5212940108896715
-29.879999999999999,2.5212940108896715
-29.872499999999999,2.5212940108896715
-29.864999999999998,2.5212940108896715
-29.857499999999998,2.5212940108896715
-29.849999999999998,2.5212940108896715
-29.842499999999998,2.5212940108896715
-29.834999999999997,2.5212940108896715
-29.827499999999997,2.5212940108896715
-29.819999999999997,2.5216272561163482
-29.812499999999996,2.5216272561163482
-29.804999999999996,2.5216272561163482
-29.797499999999999,2.5212940108896715
-29.789999999999999,2.5212940108896715
-29.782499999999999,2.5216272561163482
-29.774999999999999,2.5216272561163482
-29.767499999999998,2.5219605013430244
-29.759999999999998,2.5216272561163482
-29.752499999999998,2.5216272561163482
-29.744999999999997,2.5216272561163482
-29.737499999999997,2.5216272561163482
-29.729999999999997,2.5216272561163482
-29.722499999999997,2.5216272561163482
-29.714999999999996,2.5216272561163482
-29.7075,2.5216272561163482
-29.699999999999999,2.5219605013430244
-29.692499999999999,2.5212940108896715
-29.684999999999999,2.5206275204363187
-29.677499999999998,2.520294275209642
-29.669999999999998,2.520294275209642
-29.662499999999998,2.5199610299829658
-29.654999999999998,2.5199610299829658
-29.647499999999997,2.5199610299829658
-29.639999999999997,2.5206275204363187
-29.632499999999997,2.5212940108896715
-29.624999999999996,2.5216272561163482
-29.617499999999996,2.5219605013430244
-29.609999999999999,2.5219605013430244
-29.602499999999999,2.5216272561163482
-29.594999999999999,2.5216272561163482
-29.587499999999999,2.5212940108896715
-29.579999999999998,2.5209607656629953
-29.572499999999998,2.5206275204363187
-29.564999999999998,2.5206275204363187
-29.557499999999997,2.5206275204363187
-29.549999999999997,2.5206275204363187
-29.542499999999997,2.5206275204363187
-29.534999999999997,2.5212940108896715
-29.527499999999996,2.5226269917963773
-29.52,2.4486465514742006
-29.512499999999999,2.1747189751461407
-29.504999999999999,1.7908204740148448
-29.497499999999999,1.3582681697887842
-29.489999999999998,0.90272194492204683
-29.482499999999998,0.41318470693430942
-29.474999999999998,-0.13833614321525184
-29.467499999999998,-0.64386915208345996
-29.459999999999997,-1.113411676470609
-29.452499999999997,-1.5632927324838464
-29.444999999999997,-1.9691854185757893
-29.437499999999996,-2.211121453142908
-29.429999999999996,-2.3347554322399078
-29.422499999999999,-2.3984052705350853
-29.414999999999999,-2.4317297932027326
-29.407499999999999,-2.4493917902165854
-29.399999999999999,-2.458722656563527
-29.392499999999998,-2.4637213349636737
-29.384999999999998,-2.4667205420037619
-29.377499999999998,-2.4683867681371443
-29.369999999999997,-2.4690532585904972
-29.362499999999997,-2.4700529942705267
-29.354999999999997,-2.4703862394972034
-29.347499999999997,-2.4707194847238796
-29.339999999999996,-2.4707194847238796
-29.3325,-2.4710527299505562
-29.324999999999999,-2.4713859751772325
-29.317499999999999,-2.4713859751772325
-29.309999999999999,-2.4713859751772325
-29.302499999999998,-2.4717192204039091
-29.294999999999998,-2.4717192204039091
-29.287499999999998,-2.4717192204039091
-29.279999999999998,-2.4720524656305858
-29.272499999999997,-2.4720524656305858
-29.264999999999997,-2.4720524656305858
-29.257499999999997,-2.4720524656305858
-29.249999999999996,-2.4720524656305858
-29.242499999999996,-2.4720524656305858
-29.234999999999999,-2.4720524656305858
-29.227499999999999,-2.4720524656305858
-29.219999999999999,-2.4720524656305858
-29.212499999999999,-2.4720524656305858
-29.204999999999998,-2.4720524656305858
-29.197499999999998,-2.4720524656305858
-29.189999999999998,-2.472385710857262
-29.182499999999997,-2.472385710857262
-29.174999999999997,-2.472385710857262
-29.167499999999997,-2.472385710857262
-29.159999999999997,-2.472385710857262
-29.152499999999996,-2.472385710857262
-29.145,-2.472385710857262
-29.137499999999999,-2.472385710857262
-29.129999999999999,-2.472385710857262
-29.122499999999999,-2.472385710857262
-29.114999999999998,-2.472385710857262
-29.107499999999998,-2.472385710857262
-29.099999999999998,-2.472385710857262
-29.092499999999998,-2.4727189560839387
-29.084999999999997,-2.4727189560839387
-29.077499999999997,-2.4727189560839387
-29.069999999999997,-2.4727189560839387
-29.062499999999996,-2.4727189560839387
-29.054999999999996,-2.4727189560839387
-29.047499999999999,-2.4727189560839387
-29.039999999999999,-2.4727189560839387
-29.032499999999999,-2.4727189560839387
-29.024999999999999,-2.4727189560839387
-29.017499999999998,-2.4727189560839387
-29.009999999999998,-2.472385710857262
-29.002499999999998,-2.4727189560839387
-28.994999999999997,-2.4727189560839387
-28.987499999999997,-2.4727189560839387
-28.979999999999997,-2.4727189560839387
-28.972499999999997,-2.4727189560839387
-28.964999999999996,-2.4727189560839387
-28.9575,-2.4727189560839387
-28.949999999999999,-2.4727189560839387
-28.942499999999999,-2.4727189560839387
-28.934999999999999,-2.4727189560839387
-28.927499999999998,-2.4727189560839387
-28.919999999999998,-2.4727189560839387
-28.912499999999998,-2.4727189560839387
-28.904999999999998,-2.4727189560839387
-28.897499999999997,-2.4727189560839387
-28.889999999999997,-2.4727189560839387
-28.882499999999997,-2.4727189560839387
-28.874999999999996,-2.4727189560839387
-28.8675,-2.4727189560839387
-28.859999999999999,-2.4727189560839387
-28.852499999999999,-2.4727189560839387
-28.844999999999999,-2.4727189560839387
-28.837499999999999,-2.4727189560839387
-28.829999999999998,-2.4727189560839387
-28.822499999999998,-2.4727189560839387
-28.814999999999998,-2.4727189560839387
-28.807499999999997,-2.4727189560839387
-28.799999999999997,-2.4727189560839387
-28.792499999999997,-2.4727189560839387
-28.784999999999997,-2.4727189560839387
-28.777499999999996,-2.4727189560839387
-28.77,-2.4727189560839387
-28.762499999999999,-2.4727189560839387
-28.754999999999999,-2.4727189560839387
-28.747499999999999,-2.4727189560839387
-28.739999999999998,-2.4727189560839387
-28.732499999999998,-2.4727189560839387
-28.724999999999998,-2.4727189560839387
-28.717499999999998,-2.4727189560839387
-28.709999999999997,-2.4727189560839387
-28.702499999999997,-2.4727189560839387
-28.694999999999997,-2.4727189560839387
-28.687499999999996,-2.4727189560839387
-28.68,-2.4727189560839387
-28.672499999999999,-2.4727189560839387
-28.664999999999999,-2.4727189560839387
-28.657499999999999,-2.4727189560839387
-28.649999999999999,-2.4727189560839387
-28.642499999999998,-2.4727189560839387
-28.634999999999998,-2.4727189560839387
-28.627499999999998,-2.4727189560839387
-28.619999999999997,-2.4727189560839387
-28.612499999999997,-2.4727189560839387
-28.604999999999997,-2.4730522013106149
-28.597499999999997,-2.4730522013106149
-28.589999999999996,-2.4730522013106149
-28.5825,-2.4730522013106149
-28.574999999999999,-2.4730522013106149
-28.567499999999999,-2.4730522013106149
-28.559999999999999,-2.4730522013106149
-28.552499999999998,-2.4730522013106149
-28.544999999999998,-2.4727189560839387
-28.537499999999998,-2.4730522013106149
-28.529999999999998,-2.4730522013106149
-28.522499999999997,-2.4727189560839387
-28.514999999999997,-2.4727189560839387
-28.507499999999997,-2.4727189560839387
-28.499999999999996,-2.4730522013106149
-28.4925,-2.4727189560839387
-28.484999999999999,-2.4730522013106149
-28.477499999999999,-2.4730522013106149
-28.469999999999999,-2.4730522013106149
-28.462499999999999,-2.4730522013106149
-28.454999999999998,-2.4730522013106149
-28.447499999999998,-2.4730522013106149
-28.439999999999998,-2.4730522013106149
-28.432499999999997,-2.4730522013106149
-28.424999999999997,-2.4730522013106149
-28.417499999999997,-2.4730522013106149
-28.409999999999997,-2.4730522013106149
-28.402499999999996,-2.4730522013106149
-28.395,-2.4730522013106149
-28.387499999999999,-2.4730522013106149
-28.379999999999999,-2.4730522013106149
-28.372499999999999,-2.4730522013106149
-28.364999999999998,-2.4730522013106149
-28.357499999999998,-2.4730522013106149
-28.349999999999998,-2.4730522013106149
-28.342499999999998,-2.4730522013106149
-28.334999999999997,-2.4730522013106149
-28.327499999999997,-2.4730522013106149
-28.319999999999997,-2.4727189560839387
-28.312499999999996,-2.4730522013106149
-28.305,-2.4730522013106149
-28.297499999999999,-2.4730522013106149
-28.289999999999999,-2.4730522013106149
-28.282499999999999,-2.4730522013106149
-28.274999999999999,-2.4730522013106149
-28.267499999999998,-2.4730522013106149
-28.259999999999998,-2.4730522013106149
-28.252499999999998,-2.4730522013106149
-28.244999999999997,-2.4730522013106149
-28.237499999999997,-2.4730522013106149
-28.229999999999997,-2.4730522013106149
-28.222499999999997,-2.4730522013106149
-28.214999999999996,-2.4730522013106149
-28.2075,-2.4730522013106149
-28.199999999999999,-2.4730522013106149
-28.192499999999999,-2.4730522013106149
-28.184999999999999,-2.4730522013106149
-28.177499999999998,-2.4730522013106149
-28.169999999999998,-2.4730522013106149
-28.162499999999998,-2.4727189560839387
-28.154999999999998,-2.4730522013106149
-28.147499999999997,-2.4730522013106149
-28.139999999999997,-2.4730522013106149
-28.132499999999997,-2.4730522013106149
-28.124999999999996,-2.4730522013106149
-28.1175,-2.4730522013106149
-28.109999999999999,-2.4730522013106149
-28.102499999999999,-2.4730522013106149
-28.094999999999999,-2.4730522013106149
-28.087499999999999,-2.4730522013106149
-28.079999999999998,-2.4730522013106149
-28.072499999999998,-2.4730522013106149
-28.064999999999998,-2.4730522013106149
-28.057499999999997,-2.4730522013106149
-28.049999999999997,-2.4730522013106149
-28.042499999999997,-2.4730522013106149
-28.034999999999997,-2.4730522013106149
-28.027499999999996,-2.4730522013106149
-28.02,-2.4730522013106149
-28.012499999999999,-2.4730522013106149
-28.004999999999999,-2.4730522013106149
-27.997499999999999,-2.4730522013106149
-27.989999999999998,-2.4730522013106149
-27.982499999999998,-2.4730522013106149
-27.974999999999998,-2.4730522013106149
-27.967499999999998,-2.4733854465372915
-27.959999999999997,-2.4730522013106149
-27.952499999999997,-2.4730522013106149
-27.944999999999997,-2.4730522013106149
-27.937499999999996,-2.4730522013106149
-27.93,-2.4730522013106149
-27.922499999999999,-2.4730522013106149
-27.914999999999999,-2.4730522013106149
-27.907499999999999,-2.4730522013106149
-27.899999999999999,-2.4730522013106149
-27.892499999999998,-2.4733854465372915
-27.884999999999998,-2.4730522013106149
-27.877499999999998,-2.4730522013106149
-27.869999999999997,-2.4730522013106149
-27.862499999999997,-2.4730522013106149
-27.854999999999997,-2.4730522013106149
-27.847499999999997,-2.4730522013106149
-27.839999999999996,-2.4730522013106149
-27.8325,-2.4730522013106149
-27.824999999999999,-2.4730522013106149
-27.817499999999999,-2.4730522013106149
-27.809999999999999,-2.4733854465372915
-27.802499999999998,-2.4730522013106149
-27.794999999999998,-2.4730522013106149
-27.787499999999998,-2.4733854465372915
-27.779999999999998,-2.4730522013106149
-27.772499999999997,-2.4730522013106149
-27.764999999999997,-2.4730522013106149
-27.757499999999997,-2.4730522013106149
-27.749999999999996,-2.4730522013106149
-27.7425,-2.4730522013106149
-27.734999999999999,-2.4730522013106149
-27.727499999999999,-2.4730522013106149
-27.719999999999999,-2.4730522013106149
-27.712499999999999,-2.4730522013106149
-27.704999999999998,-2.4730522013106149
-27.697499999999998,-2.4730522013106149
-27.689999999999998,-2.4730522013106149
-27.682499999999997,-2.4730522013106149
-27.674999999999997,-2.4730522013106149
-27.667499999999997,-2.4730522013106149
-27.659999999999997,-2.4730522013106149
-27.652499999999996,-2.4730522013106149
-27.645,-2.4730522013106149
-27.637499999999999,-2.4730522013106149
-27.629999999999999,-2.4730522013106149
-27.622499999999999,-2.4730522013106149
-27.614999999999998,-2.4730522013106149
-27.607499999999998,-2.4730522013106149
-27.599999999999998,-2.4730522013106149
-27.592499999999998,-2.4730522013106149
-27.584999999999997,-2.4730522013106149
-27.577499999999997,-2.4730522013106149
-27.569999999999997,-2.4730522013106149
-27.562499999999996,-2.4730522013106149
-27.555,-2.4730522013106149
-27.547499999999999,-2.4730522013106149
-27.539999999999999,-2.4730522013106149
-27.532499999999999,-2.4730522013106149
-27.524999999999999,-2.4730522013106149
-27.517499999999998,-2.4730522013106149
-27.509999999999998,-2.4730522013106149
-27.502499999999998,-2.4730522013106149
-27.494999999999997,-2.4730522013106149
-27.487499999999997,-2.4730522013106149
-27.479999999999997,-2.4730522013106149
-27.472499999999997,-2.4730522013106149
-27.464999999999996,-2.4730522013106149
-27.4575,-2.4730522013106149
-27.449999999999999,-2.4730522013106149
-27.442499999999999,-2.4730522013106149
-27.434999999999999,-2.4730522013106149
-27.427499999999998,-2.4730522013106149
-27.419999999999998,-2.4730522013106149
-27.412499999999998,-2.4730522013106149
-27.404999999999998,-2.4730522013106149
-27.397499999999997,-2.4730522013106149
-27.389999999999997,-2.4730522013106149
-27.382499999999997,-2.4730522013106149
-27.374999999999996,-2.4730522013106149
-27.3675,-2.4730522013106149
-27.359999999999999,-2.4730522013106149
-27.352499999999999,-2.4730522013106149
-27.344999999999999,-2.4730522013106149
-27.337499999999999,-2.4730522013106149
-27.329999999999998,-2.4730522013106149
-27.322499999999998,-2.4730522013106149
-27.314999999999998,-2.4730522013106149
-27.307499999999997,-2.4730522013106149
-27.299999999999997,-2.4730522013106149
-27.292499999999997,-2.4730522013106149
-27.284999999999997,-2.4730522013106149
-27.277499999999996,-2.4730522013106149
-27.27,-2.4730522013106149
-27.262499999999999,-2.4730522013106149
-27.254999999999999,-2.4730522013106149
-27.247499999999999,-2.4730522013106149
-27.239999999999998,-2.4730522013106149
-27.232499999999998,-2.4730522013106149
-27.224999999999998,-2.4730522013106149
-27.217499999999998,-2.4730522013106149
-27.209999999999997,-2.4730522013106149
-27.202499999999997,-2.4730522013106149
-27.194999999999997,-2.4730522013106149
-27.187499999999996,-2.4730522013106149
-27.18,-2.4730522013106149
-27.172499999999999,-2.4730522013106149
-27.164999999999999,-2.4730522013106149
-27.157499999999999,-2.4730522013106149
-27.149999999999999,-2.4730522013106149
-27.142499999999998,-2.4730522013106149
-27.134999999999998,-2.4730522013106149
-27.127499999999998,-2.4730522013106149
-27.119999999999997,-2.4730522013106149
-27.112499999999997,-2.4730522013106149
-27.104999999999997,-2.4730522013106149
-27.097499999999997,-2.4730522013106149
-27.089999999999996,-2.4730522013106149
-27.0825,-2.4730522013106149
-27.074999999999999,-2.4730522013106149
-27.067499999999999,-2.4733854465372915
-27.059999999999999,-2.4733854465372915
-27.052499999999998,-2.4730522013106149
-27.044999999999998,-2.4730522013106149
-27.037499999999998,-2.4730522013106149
-27.029999999999998,-2.4730522013106149
-27.022499999999997,-2.4730522013106149
-27.014999999999997,-2.4730522013106149
-27.007499999999997,-2.4730522013106149
-26.999999999999996,-2.4733854465372915
-26.9925,-2.4730522013106149
-26.984999999999999,-2.4733854465372915
-26.977499999999999,-2.4730522013106149
-26.969999999999999,-2.4733854465372915
-26.962499999999999,-2.4730522013106149
-26.954999999999998,-2.4730522013106149
-26.947499999999998,-2.4733854465372915
-26.939999999999998,-2.4733854465372915
-26.932499999999997,-2.4730522013106149
-26.924999999999997,-2.4730522013106149
-26.917499999999997,-2.4733854465372915
-26.909999999999997,-2.4730522013106149
-26.9025,-2.4730522013106149
-26.895,-2.4730522013106149
-26.887499999999999,-2.4733854465372915
-26.879999999999999,-2.4733854465372915
-26.872499999999999,-2.4730522013106149
-26.864999999999998,-2.4730522013106149
-26.857499999999998,-2.4730522013106149
-26.849999999999998,-2.4730522013106149
-26.842499999999998,-2.4730522013106149
-26.834999999999997,-2.4730522013106149
-26.827499999999997,-2.4730522013106149
-26.819999999999997,-2.4730522013106149
-26.812499999999996,-2.4730522013106149
-26.805,-2.4730522013106149
-26.797499999999999,-2.4727189560839387
-26.789999999999999,-2.4730522013106149
-26.782499999999999,-2.4730522013106149
-26.774999999999999,-2.4730522013106149
-26.767499999999998,-2.4730522013106149
-26.759999999999998,-2.4730522013106149
-26.752499999999998,-2.4730522013106149
-26.744999999999997,-2.4733854465372915
-26.737499999999997,-2.4730522013106149
-26.729999999999997,-2.4730522013106149
-26.722499999999997,-2.4730522013106149
-26.715,-2.4730522013106149
-26.7075,-2.4730522013106149
-26.699999999999999,-2.4730522013106149
-26.692499999999999,-2.4730522013106149
-26.684999999999999,-2.4730522013106149
-26.677499999999998,-2.4730522013106149
-26.669999999999998,-2.4730522013106149
-26.662499999999998,-2.4730522013106149
-26.654999999999998,-2.4730522013106149
-26.647499999999997,-2.4727189560839387
-26.639999999999997,-2.4730522013106149
-26.632499999999997,-2.4730522013106149
-26.624999999999996,-2.4730522013106149
-26.6175,-2.4730522013106149
-26.609999999999999,-2.4730522013106149
-26.602499999999999,-2.4730522013106149
-26.594999999999999,-2.4730522013106149
-26.587499999999999,-2.4730522013106149
-26.579999999999998,-2.4730522013106149
-26.572499999999998,-2.4730522013106149
-26.564999999999998,-2.4730522013106149
-26.557499999999997,-2.4730522013106149
-26.549999999999997,-2.4730522013106149
-26.542499999999997,-2.4730522013106149
-26.534999999999997,-2.4730522013106149
-26.5275,-2.4730522013106149
-26.52,-2.4730522013106149
-26.512499999999999,-2.4730522013106149
-26.504999999999999,-2.4730522013106149
-26.497499999999999,-2.4730522013106149
-26.489999999999998,-2.4730522013106149
-26.482499999999998,-2.4730522013106149
-26.474999999999998,-2.4730522013106149
-26.467499999999998,-2.4730522013106149
-26.459999999999997,-2.4730522013106149
-26.452499999999997,-2.4730522013106149
-26.444999999999997,-2.4730522013106149
-26.437499999999996,-2.4730522013106149
-26.43,-2.4730522013106149
-26.422499999999999,-2.4730522013106149
-26.414999999999999,-2.4730522013106149
-26.407499999999999,-2.4730522013106149
-26.399999999999999,-2.4730522013106149
-26.392499999999998,-2.4730522013106149
-26.384999999999998,-2.4727189560839387
-26.377499999999998,-2.4730522013106149
-26.369999999999997,-2.4730522013106149
-26.362499999999997,-2.4730522013106149
-26.354999999999997,-2.4730522013106149
-26.347499999999997,-2.4730522013106149
-26.34,-2.4730522013106149
-26.3325,-2.4730522013106149
-26.324999999999999,-2.4730522013106149
-26.317499999999999,-2.4730522013106149
-26.309999999999999,-2.4730522013106149
-26.302499999999998,-2.4730522013106149
-26.294999999999998,-2.4730522013106149
-26.287499999999998,-2.4730522013106149
-26.279999999999998,-2.4730522013106149
-26.272499999999997,-2.4730522013106149
-26.264999999999997,-2.4730522013106149
-26.257499999999997,-2.4730522013106149
-26.249999999999996,-2.4730522013106149
-26.2425,-2.4730522013106149
-26.234999999999999,-2.4730522013106149
-26.227499999999999,-2.4730522013106149
-26.219999999999999,-2.4730522013106149
-26.212499999999999,-2.4733854465372915
