Lab6/10k_4kgain.csv

#Digilent WaveForms Oscilloscope Acquisition
#Device Name: Discovery2
#Serial Number: SN:210321A18731
#Date Time: 2017-10-13 13:37:24.848
#Trigger:Source: Channel 1Type: EdgeCondition: RisingLevel: 0 VHyst.: AutoHoldOff: 0 s
#Channel 1: Range: 1 V/div Offset: 0 V

Time (s),Channel 1 (V)
-29.999999999999996,-2.4769052827266851
-29.992499999999996,-2.4769052827266851
-29.984999999999999,-2.4769052827266851
-29.977499999999999,-2.4769052827266851
-29.969999999999999,-2.4769052827266851
-29.962499999999999,-2.4805660757654167
-29.954999999999998,-2.4805660757654167
-29.947499999999998,-2.4769052827266851
-29.939999999999998,-2.4769052827266851
-29.932499999999997,-2.4805660757654167
-29.924999999999997,-2.4769052827266851
-29.917499999999997,-2.4769052827266851
-29.909999999999997,-2.4769052827266851
-29.902499999999996,-2.4769052827266851
-29.895,-2.4769052827266851
-29.887499999999999,-2.4769052827266851
-29.879999999999999,-2.4769052827266851
-29.872499999999999,-2.4769052827266851
-29.864999999999998,-2.4769052827266851
-29.857499999999998,-2.4769052827266851
-29.849999999999998,-2.4769052827266851
-29.842499999999998,-2.4805660757654167
-29.834999999999997,-2.4769052827266851
-29.827499999999997,-2.4769052827266851
-29.819999999999997,-2.4769052827266851
-29.812499999999996,-2.4769052827266851
-29.804999999999996,-2.4769052827266851
-29.797499999999999,-2.4769052827266851
-29.789999999999999,-2.4769052827266851
-29.782499999999999,-2.4805660757654167
-29.774999999999999,-2.4769052827266851
-29.767499999999998,-2.4769052827266851
-29.759999999999998,-2.4769052827266851
-29.752499999999998,-2.4805660757654167
-29.744999999999997,-2.4805660757654167
-29.737499999999997,-2.4805660757654167
-29.729999999999997,-2.4769052827266851
-29.722499999999997,-2.4769052827266851
-29.714999999999996,-2.4805660757654167
-29.7075,-2.4769052827266851
-29.699999999999999,-2.4769052827266851
-29.692499999999999,-2.4769052827266851
-29.684999999999999,-2.4769052827266851
-29.677499999999998,-2.4769052827266851
-29.669999999999998,-2.4769052827266851
-29.662499999999998,-2.4769052827266851
-29.654999999999998,-2.4769052827266851
-29.647499999999997,-2.4769052827266851
-29.639999999999997,-2.4769052827266851
-29.632499999999997,-2.4769052827266851
-29.624999999999996,-2.4769052827266851
-29.617499999999996,-2.4769052827266851
-29.609999999999999,-2.4769052827266851
-29.602499999999999,-2.4769052827266851
-29.594999999999999,-2.4769052827266851
-29.587499999999999,-2.4769052827266851
-29.579999999999998,-2.4769052827266851
-29.572499999999998,-2.4769052827266851
-29.564999999999998,-2.4769052827266851
-29.557499999999997,-2.4769052827266851
-29.549999999999997,-2.4805660757654167
-29.542499999999997,-2.4805660757654167
-29.534999999999997,-2.4805660757654167
-29.527499999999996,-2.4805660757654167
-29.52,-2.4805660757654167
-29.512499999999999,-2.4769052827266851
-29.504999999999999,-2.4769052827266851
-29.497499999999999,-2.4769052827266851
-29.489999999999998,-2.4769052827266851
-29.482499999999998,-2.4805660757654167
-29.474999999999998,-2.4805660757654167
-29.467499999999998,-2.4805660757654167
-29.459999999999997,-2.4805660757654167
-29.452499999999997,-2.4769052827266851
-29.444999999999997,-2.4769052827266851
-29.437499999999996,-2.4805660757654167
-29.429999999999996,-2.4769052827266869
-29.422499999999999,-2.4805660757654167
-29.414999999999999,-2.4805660757654167
-29.407499999999999,-2.4769052827266851
-29.399999999999999,-2.4805660757654167
-29.392499999999998,-2.4769052827266851
-29.384999999999998,-2.4769052827266851
-29.377499999999998,-2.4769052827266851
-29.369999999999997,-2.4769052827266851
-29.362499999999997,-2.4769052827266851
-29.354999999999997,-2.4805660757654167
-29.347499999999997,-2.4805660757654167
-29.339999999999996,-2.4769052827266851
-29.3325,-2.4805660757654167
-29.324999999999999,-2.4805660757654167
-29.317499999999999,-2.4769052827266851
-29.309999999999999,-2.4805660757654167
-29.302499999999998,-2.4805660757654167
-29.294999999999998,-2.4769052827266851
-29.287499999999998,-2.4805660757654167
-29.279999999999998,-2.4805660757654167
-29.272499999999997,-2.4805660757654167
-29.264999999999997,-2.4805660757654167
-29.257499999999997,-2.4805660757654167
-29.249999999999996,-2.4805660757654167
-29.242499999999996,-2.4805660757654167
-29.234999999999999,-2.4805660757654167
-29.227499999999999,-2.4805660757654167
-29.219999999999999,-2.4805660757654167
-29.212499999999999,-2.4805660757654167
-29.204999999999998,-2.4805660757654167
-29.197499999999998,-2.4805660757654167
-29.189999999999998,-2.4805660757654167
-29.182499999999997,-2.4805660757654167
-29.174999999999997,-2.4805660757654167
-29.167499999999997,-2.4805660757654167
-29.159999999999997,-2.4805660757654167
-29.152499999999996,-2.4805660757654167
-29.145,-2.4805660757654167
-29.137499999999999,-2.4805660757654167
-29.129999999999999,-2.4805660757654167
-29.122499999999999,-2.4805660757654167
-29.114999999999998,-2.4805660757654167
-29.107499999999998,-2.4805660757654167
-29.099999999999998,-2.4805660757654167
-29.092499999999998,-2.4805660757654167
-29.084999999999997,-2.4805660757654167
-29.077499999999997,-2.4805660757654167
-29.069999999999997,-2.4805660757654167
-29.062499999999996,-2.4805660757654167
-29.054999999999996,-2.4805660757654167
-29.047499999999999,-2.4805660757654167
-29.039999999999999,-2.4805660757654167
-29.032499999999999,-2.4805660757654167
-29.024999999999999,-2.4805660757654167
-29.017499999999998,-2.4805660757654167
-29.009999999999998,-2.4805660757654167
-29.002499999999998,-2.4805660757654167
-28.994999999999997,-2.4805660757654167
-28.987499999999997,-2.4805660757654167
-28.979999999999997,-2.4805660757654167
-28.972499999999997,-2.4805660757654167
-28.964999999999996,-2.4805660757654167
-28.9575,-2.4805660757654167
-28.949999999999999,-2.4805660757654167
-28.942499999999999,-2.4805660757654167
-28.934999999999999,-2.4805660757654167
-28.927499999999998,-2.4769052827266851
-28.919999999999998,-2.4769052827266851
-28.912499999999998,-2.4769052827266851
-28.904999999999998,-2.4769052827266851
-28.897499999999997,-2.4805660757654167
-28.889999999999997,-2.4805660757654167
-28.882499999999997,-2.4805660757654167
-28.874999999999996,-2.4769052827266851
-28.8675,-2.4769052827266851
-28.859999999999999,-2.4805660757654167
-28.852499999999999,-2.4805660757654167
-28.844999999999999,-2.4769052827266851
-28.837499999999999,-2.4769052827266851
-28.829999999999998,-2.4805660757654167
-28.822499999999998,-2.4769052827266851
-28.814999999999998,-2.4769052827266851
-28.807499999999997,-2.4805660757654167
-28.799999999999997,-2.4805660757654167
-28.792499999999997,-2.4769052827266851
-28.784999999999997,-2.4769052827266851
-28.777499999999996,-2.4805660757654167
-28.77,-2.4805660757654167
-28.762499999999999,-2.4805660757654167
-28.754999999999999,-2.4805660757654167
-28.747499999999999,-2.4805660757654167
-28.739999999999998,-2.4769052827266851
-28.732499999999998,-2.4805660757654167
-28.724999999999998,-2.4769052827266851
-28.717499999999998,-2.4769052827266851
-28.709999999999997,-2.4769052827266851
-28.702499999999997,-2.4769052827266851
-28.694999999999997,-2.4769052827266851
-28.687499999999996,-2.4769052827266851
-28.68,-2.4769052827266851
-28.672499999999999,-2.4805660757654167
-28.664999999999999,-2.4805660757654167
-28.657499999999999,-2.4769052827266851
-28.649999999999999,-2.4769052827266851
-28.642499999999998,-2.4769052827266851
-28.634999999999998,-2.4769052827266851
-28.627499999999998,-2.4769052827266851
-28.619999999999997,-2.4769052827266851
-28.612499999999997,-2.4769052827266851
-28.604999999999997,-2.4769052827266851
-28.597499999999997,-2.4769052827266851
-28.589999999999996,-2.4769052827266851
-28.5825,-2.4769052827266851
-28.574999999999999,-2.4769052827266851
-28.567499999999999,-2.4769052827266851
-28.559999999999999,-2.4769052827266851
-28.552499999999998,-2.4769052827266851
-28.544999999999998,-2.4769052827266851
-28.537499999999998,-2.4769052827266851
-28.529999999999998,-2.4769052827266851
-28.522499999999997,-2.4769052827266851
-28.514999999999997,-2.4769052827266851
-28.507499999999997,-2.4769052827266851
-28.499999999999996,-2.4769052827266851
-28.4925,-2.4769052827266851
-28.484999999999999,-2.4769052827266851
-28.477499999999999,-2.4769052827266851
-28.469999999999999,-2.4769052827266851
-28.462499999999999,-2.4769052827266851
-28.454999999999998,-2.4769052827266851
-28.447499999999998,-2.4769052827266851
-28.439999999999998,-2.4769052827266851
-28.432499999999997,-2.4769052827266851
-28.424999999999997,-2.4769052827266851
-28.417499999999997,-2.4769052827266851
-28.409999999999997,-2.4769052827266851
-28.402499999999996,-2.4769052827266851
-28.395,-2.4805660757654167
-28.387499999999999,-2.4769052827266851
-28.379999999999999,-2.4769052827266851
-28.372499999999999,-2.4769052827266851
-28.364999999999998,-2.4769052827266851
-28.357499999999998,-2.4769052827266851
-28.349999999999998,-2.4769052827266851
-28.342499999999998,-2.4769052827266851
-28.334999999999997,-2.4769052827266851
-28.327499999999997,-2.4769052827266851
-28.319999999999997,-2.4769052827266851
-28.312499999999996,-2.4769052827266851
-28.305,-2.4769052827266851
-28.297499999999999,-2.4769052827266851
-28.289999999999999,-2.4769052827266851
-28.282499999999999,-2.4769052827266851
-28.274999999999999,-2.4769052827266851
-28.267499999999998,-2.4769052827266851
-28.259999999999998,-2.4769052827266851
-28.252499999999998,-2.4769052827266851
-28.244999999999997,-2.4769052827266851
-28.237499999999997,-2.4769052827266851
-28.229999999999997,-2.4769052827266851
-28.222499999999997,-2.4769052827266851
-28.214999999999996,-2.4769052827266851
-28.2075,-2.4769052827266851
-28.199999999999999,-2.4769052827266851
-28.192499999999999,-2.4769052827266851
-28.184999999999999,-2.4769052827266851
-28.177499999999998,-2.4769052827266851
-28.169999999999998,-2.4805660757654167
-28.162499999999998,-2.4769052827266851
-28.154999999999998,-2.4769052827266851
-28.147499999999997,-2.4769052827266851
-28.139999999999997,-2.4769052827266851
-28.132499999999997,-2.4769052827266851
-28.124999999999996,-2.4769052827266851
-28.1175,-2.4769052827266851
-28.109999999999999,-2.4769052827266851
-28.102499999999999,-2.4769052827266851
-28.094999999999999,-2.4769052827266851
-28.087499999999999,-2.4769052827266851
-28.079999999999998,-2.4769052827266851
-28.072499999999998,-2.4769052827266851
-28.064999999999998,-2.4769052827266851
-28.057499999999997,-2.4769052827266851
-28.049999999999997,-2.4769052827266851
-28.042499999999997,-2.4769052827266851
-28.034999999999997,-2.4769052827266851
-28.027499999999996,-2.4769052827266851
-28.02,-2.4769052827266851
-28.012499999999999,-2.4769052827266851
-28.004999999999999,-2.4769052827266851
-27.997499999999999,-2.4769052827266851
-27.989999999999998,-2.4769052827266851
-27.982499999999998,-2.4769052827266851
-27.974999999999998,-2.4769052827266851
-27.967499999999998,-2.4769052827266851
-27.959999999999997,-2.4769052827266851
-27.952499999999997,-2.4769052827266851
-27.944999999999997,-2.4769052827266851
-27.937499999999996,-2.4769052827266851
-27.93,-2.4769052827266851
-27.922499999999999,-2.4769052827266851
-27.914999999999999,-2.4769052827266851
-27.907499999999999,-2.4769052827266851
-27.899999999999999,-2.4769052827266851
-27.892499999999998,-2.4769052827266851
-27.884999999999998,-2.4769052827266851
-27.877499999999998,-2.4769052827266851
-27.869999999999997,-2.4769052827266851
-27.862499999999997,-2.4769052827266851
-27.854999999999997,-2.4769052827266851
-27.847499999999997,-2.4769052827266851
-27.839999999999996,-2.4769052827266851
-27.8325,-2.4769052827266851
-27.824999999999999,-2.4769052827266851
-27.817499999999999,-2.4769052827266851
-27.809999999999999,-2.4769052827266851
-27.802499999999998,-2.4769052827266851
-27.794999999999998,-2.4769052827266851
-27.787499999999998,-2.4769052827266851
-27.779999999999998,-2.4769052827266851
-27.772499999999997,-2.4769052827266851
-27.764999999999997,-2.4769052827266851
-27.757499999999997,-2.4769052827266851
-27.749999999999996,-2.4769052827266851
-27.7425,-2.4769052827266851
-27.734999999999999,-2.4769052827266851
-27.727499999999999,-2.4769052827266851
-27.719999999999999,-2.4769052827266851
-27.712499999999999,-2.4769052827266851
-27.704999999999998,-2.4769052827266851
-27.697499999999998,-2.4769052827266851
-27.689999999999998,-2.4769052827266851
-27.682499999999997,-2.4769052827266851
-27.674999999999997,-2.4769052827266851
-27.667499999999997,-2.4769052827266851
-27.659999999999997,-2.4769052827266851
-27.652499999999996,-2.4769052827266851
-27.645,-2.4769052827266851
-27.637499999999999,-2.4769052827266851
-27.629999999999999,-2.4769052827266851
-27.622499999999999,-2.4769052827266851
-27.614999999999998,-2.4769052827266851
-27.607499999999998,-2.4769052827266851
-27.599999999999998,-2.4769052827266851
-27.592499999999998,-2.4769052827266851
-27.584999999999997,-2.4805660757654167
-27.577499999999997,-2.4769052827266851
-27.569999999999997,-2.4769052827266851
-27.562499999999996,-2.4769052827266851
-27.555,-2.4769052827266851
-27.547499999999999,-2.4769052827266851
-27.539999999999999,-2.4769052827266851
-27.532499999999999,-2.4769052827266851
-27.524999999999999,-2.4769052827266851
-27.517499999999998,-2.4769052827266851
-27.509999999999998,-2.4769052827266851
-27.502499999999998,-2.4769052827266851
-27.494999999999997,-2.4769052827266851
-27.487499999999997,-2.4769052827266851
-27.479999999999997,-2.4769052827266851
-27.472499999999997,-2.4769052827266851
-27.464999999999996,-2.4769052827266851
-27.4575,-2.4769052827266851
-27.449999999999999,-2.4769052827266851
-27.442499999999999,-2.4805660757654167
-27.434999999999999,-2.4769052827266851
-27.427499999999998,-2.4769052827266851
-27.419999999999998,-2.4769052827266851
-27.412499999999998,-2.4769052827266851
-27.404999999999998,-2.4769052827266851
-27.397499999999997,-2.4769052827266851
-27.389999999999997,-2.4805660757654167
-27.382499999999997,-2.4769052827266851
-27.374999999999996,-2.4769052827266851
-27.3675,-2.4769052827266851
-27.359999999999999,-2.4769052827266851
-27.352499999999999,-2.4769052827266851
-27.344999999999999,-2.4769052827266851
-27.337499999999999,-2.4769052827266851
-27.329999999999998,-2.4769052827266851
-27.322499999999998,-2.4769052827266851
-27.314999999999998,-2.4769052827266851
-27.307499999999997,-2.4769052827266851
-27.299999999999997,-2.4769052827266851
-27.292499999999997,-2.4805660757654167
-27.284999999999997,-2.4805660757654167
-27.277499999999996,-2.4805660757654149
-27.27,-2.4769052827266851
-27.262499999999999,-2.4769052827266851
-27.254999999999999,-2.4769052827266851
-27.247499999999999,-2.4769052827266851
-27.239999999999998,-2.4805660757654167
-27.232499999999998,-2.4805660757654167
-27.224999999999998,-2.4805660757654167
-27.217499999999998,-2.4769052827266851
-27.209999999999997,-2.4805660757654167
-27.202499999999997,-2.4805660757654167
-27.194999999999997,-2.4805660757654167
-27.187499999999996,-2.4805660757654167
-27.18,-2.4805660757654167
-27.172499999999999,-2.4805660757654167
-27.164999999999999,-2.4769052827266851
-27.157499999999999,-2.4769052827266851
-27.149999999999999,-2.4805660757654167
-27.142499999999998,-2.4805660757654167
-27.134999999999998,-2.4805660757654167
-27.127499999999998,-2.4805660757654167
-27.119999999999997,-2.4805660757654167
-27.112499999999997,-2.4805660757654167
-27.104999999999997,-2.4805660757654167
-27.097499999999997,-2.4769052827266851
-27.089999999999996,-2.4769052827266869
-27.0825,-2.4805660757654167
-27.074999999999999,-2.4805660757654167
-27.067499999999999,-2.4805660757654167
-27.059999999999999,-2.4805660757654167
-27.052499999999998,-2.4805660757654167
-27.044999999999998,-2.4805660757654167
-27.037499999999998,-2.4805660757654167
-27.029999999999998,-2.4805660757654167
-27.022499999999997,-2.4805660757654167
-27.014999999999997,-2.4805660757654167
-27.007499999999997,-2.4805660757654167
-26.999999999999996,-2.4805660757654167
-26.9925,-2.4805660757654167
-26.984999999999999,-2.4805660757654167
-26.977499999999999,-2.4805660757654167
-26.969999999999999,-2.4805660757654167
-26.962499999999999,-2.4805660757654167
-26.954999999999998,-2.4805660757654167
-26.947499999999998,-2.4769052827266851
-26.939999999999998,-2.4805660757654167
-26.932499999999997,-2.4769052827266851
-26.924999999999997,-2.4769052827266851
-26.917499999999997,-2.4769052827266851
-26.909999999999997,-2.4769052827266851
-26.9025,-2.4769052827266851
-26.895,-2.4769052827266851
-26.887499999999999,-2.4769052827266851
-26.879999999999999,-2.4769052827266851
-26.872499999999999,-2.4805660757654167
-26.864999999999998,-2.4805660757654167
-26.857499999999998,-2.4769052827266851
-26.849999999999998,-2.4769052827266851
-26.842499999999998,-2.4805660757654167
-26.834999999999997,-2.4769052827266851
-26.827499999999997,-2.4805660757654167
-26.819999999999997,-2.4769052827266851
-26.812499999999996,-2.4769052827266851
-26.805,-2.4769052827266851
-26.797499999999999,-2.4769052827266851
-26.789999999999999,-2.4805660757654167
-26.782499999999999,-2.4805660757654167
-26.774999999999999,-2.4805660757654167
-26.767499999999998,-2.4805660757654167
-26.759999999999998,-2.4805660757654167
-26.752499999999998,-2.4805660757654167
-26.744999999999997,-2.4805660757654167
-26.737499999999997,-2.4805660757654167
-26.729999999999997,-2.4805660757654167
-26.722499999999997,-2.4805660757654167
-26.715,-2.4805660757654167
-26.7075,-2.4805660757654167
-26.699999999999999,-2.4769052827266851
-26.692499999999999,-2.4769052827266851
-26.684999999999999,-2.4769052827266851
-26.677499999999998,-2.4732444896879526
-26.669999999999998,-2.4659229036104886
-26.662499999999998,-2.4695836966492211
-26.654999999999998,-2.462262110571757
-26.647499999999997,-2.440297352339365
-26.639999999999997,-2.4110110080295089
-26.632499999999997,-2.3817246637196527
-26.624999999999996,-2.3817246637196527
-26.6175,-2.3890462497971168
-26.609999999999999,-2.4000286289133133
-26.602499999999999,-2.4110110080295089
-26.594999999999999,-2.3963678358745808
-26.587499999999999,-2.3707422846034572
-26.579999999999998,-2.3707422846034572
-26.572499999999998,-2.3707422846034572
-26.564999999999998,-2.3487775263710651
-26.557499999999997,-2.319491182061209
-26.549999999999997,-2.3304735611774046
-26.542499999999997,-2.326812768138673
-26.534999999999997,-2.3085088029450125
-26.5275,-2.2865440447126302
-26.52,-2.2938656307900844
-26.512499999999999,-2.2938656307900844
-26.504999999999999,-2.3085088029450125
-26.497499999999999,-2.3011872168675485
-26.489999999999998,-2.2828832516738888
-26.482499999999998,-2.2535969073640327
-26.474999999999998,-2.2243105630541766
-26.467499999999998,-2.1986850117830521
-26.459999999999997,-2.2060065978605161
-26.452499999999997,-2.1986850117830521
-26.444999999999997,-2.17672025355066
-26.437499999999996,-2.1584162883570004
-26.43,-2.1730594605119284
-26.422499999999999,-2.1657378744344644
-26.414999999999999,-2.1437731162020723
-26.407499999999999,-2.1291299440471443
-26.399999999999999,-2.1401123231633399
-26.392499999999998,-2.1327907370858759
-26.384999999999998,-2.1108259788534838
-26.377499999999998,-2.0925220136598242
-26.369999999999997,-2.0961828066985557
-26.362499999999997,-2.0815396345436277
-26.354999999999997,-2.055914083272504
-26.347499999999997,-2.0266277389626479
-26.34,-1.9973413946528051
-26.3325,-1.9863590155365958
-26.324999999999999,-1.9936806016140598
-26.317499999999999,-1.9826982224978638
-26.309999999999999,-1.9607334642654719
-26.302499999999998,-1.9534118781880079
-26.294999999999998,-1.9643942573042039
-26.287499999999998,-1.9717158433816677
-26.279999999999998,-1.9790374294591317
-26.272499999999997,-1.9643942573042039
-26.264999999999997,-1.9424294990718118
-26.257499999999997,-1.9387687060330798
-26.249999999999996,-1.9460902921105439
-26.2425,-1.9314471199556158
-26.234999999999999,-1.9058215686844917
-26.227499999999999,-1.9058215686844917
