Lab7/Figure5a1V.csv

#Digilent WaveForms Oscilloscope Acquisition
#Device Name: Discovery2
#Serial Number: SN:210321A18A12
#Date Time: 2017-10-21 14:06:25.246
#Trigger:Source: Channel 1Type: EdgeCondition: RisingLevel: 0 VHyst.: AutoHoldOff: 0 s
#Channel 1: Range: 1 V/div Offset: 0 V
#Channel 2: Range: 1 V/div Offset: 0 V

Time (s),Channel 1 (V),Channel 2 (V)
-5,-1.0127637317971274,-0.48027307498702465
-4.9987500000000002,-1.0127637317971274,-0.46911417291230967
-4.9974999999999996,-1.0127637317971274,-0.45423563681268464
-4.9962499999999999,-1.0127637317971274,-0.44307673473797471
-4.9950000000000001,-1.0127637317971274,-0.43191783266325978
-4.9937500000000004,-1.0127637317971274,-0.42075893058854985
-4.9924999999999997,-1.0127637317971274,-0.40960002851382982
-4.99125,-1.0127637317971274,-0.39844112643911483
-4.9900000000000002,-1.0127637317971274,-0.38728222436439985
-4.9887499999999996,-1.0127637317971274,-0.37612332228967982
-4.9874999999999998,-1.0127637317971274,-0.36496442021496989
-4.9862500000000001,-1.0164237073498805,-0.35380551814025496
-4.9850000000000003,-1.012763731797129,-0.34264661606554503
-4.9837499999999997,-1.0127637317971274,-0.32776807996591495
-4.9824999999999999,-1.0127637317971274,-0.31660917789120502
-4.9812500000000002,-1.0127637317971274,-0.30545027581649004
-4.9800000000000004,-1.0127637317971274,-0.2942913737417801
-4.9787499999999998,-1.0127637317971274,-0.28313247166706007
-4.9775,-1.0127637317971274,-0.27197356959234514
-4.9762500000000003,-1.0127637317971274,-0.25709503349272517
-4.9749999999999996,-1.0127637317971274,-0.24593613141800511
-4.9737499999999999,-1.0127637317971274,-0.2347772293432952
-4.9725000000000001,-1.0127637317971274,-0.22733796129348521
-4.9712500000000004,-1.0127637317971274,-0.21617905921877531
-4.9699999999999998,-1.0127637317971274,-0.20502015714405528
-4.96875,-1.0127637317971274,-0.19386125506934029
-4.9675000000000002,-1.0127637317971274,-0.17898271896972032
-4.9662499999999996,-1.0127637317971274,-0.16782381689500028
-4.9649999999999999,-1.0127637317971274,-0.15666491482029038
-4.9637500000000001,-1.0127637317971274,-0.1455060127455754
-4.9625000000000004,-1.0127637317971274,-0.13434711067086552
-4.9612499999999997,-1.0127637317971274,-0.11946857457124047
-4.96,-1.0127637317971274,-0.11202930652143048
-4.9587500000000002,-1.0127637317971274,-0.10087040444671551
-4.9574999999999996,-1.0127637317971274,-0.085991868347090467
-4.9562499999999998,-1.0127637317971274,-0.074832966272380563
-4.9550000000000001,-1.0127637317971274,-0.063674064197665595
-4.9537500000000003,-1.0127637317971274,-0.052515162122955684
-4.9524999999999997,-1.0127637317971274,-0.041356260048230571
-4.9512499999999999,-1.0127637317971274,-0.030197357973520668
-4.9500000000000002,-1.0127637317971274,-0.015318821873900698
-4.9487500000000004,-1.0127637317971274,-0.0078795538240940995
-4.9474999999999998,-1.0164237073498805,0.0032793482506242588
-4.94625,-1.0164237073498805,0.014438250325339234
-4.9450000000000003,-1.0164237073498805,0.02559715240005421
-4.9437499999999996,-1.0164237073498805,0.036756054474774258
-4.9424999999999999,-1.0164237073498805,0.047914956549484161
-4.9412500000000001,-1.0164237073498805,0.05907385862419913
-4.9400000000000004,-1.0164237073498805,0.07395239472381232
-4.9387499999999998,-1.0164237073498805,0.085111296798534075
-4.9375,-1.0164237073498805,0.096270198873249044
-4.9362500000000002,-1.0164237073498805,0.10742910094796403
-4.9349999999999996,-1.0164237073498821,0.11858800302268407
-4.9337499999999999,-1.0200836829026332,0.12974690509739398
-4.9325000000000001,-1.0200836829026332,0.14090580717210896
-4.9312500000000004,-1.0164237073498821,0.15206470924681884
-4.9299999999999997,-1.0200836829026332,0.1632236113215389
-4.92875,-1.0164237073498805,0.17438251339625388
-4.9275000000000002,-1.0164237073498805,0.18926104949587383
-4.9262499999999996,-1.0164237073498805,0.20041995157059389
-4.9249999999999998,-1.0164237073498805,0.21157885364530379
-4.9237500000000001,-1.0164237073498805,0.22273775572001875
-4.9225000000000003,-1.0164237073498805,0.23389665779472865
-4.9212499999999997,-1.0164237073498821,0.24505555986945379
-4.9199999999999999,-1.0200836829026332,0.2562144619441637
-4.9187500000000002,-1.0164237073498805,0.26737336401887868
-4.9175000000000004,-1.0164237073498805,0.27853226609358861
-4.9162499999999998,-1.0164237073498805,0.28969116816830859
-4.915,-1.0164237073498805,0.30085007024302357
-4.9137500000000003,-1.0164237073498805,0.31200897231773855
-4.9124999999999996,-1.0164237073498805,0.32688750841736358
-4.9112499999999999,-1.0164237073498805,0.33804641049207351
-4.9100000000000001,-1.0164237073498805,0.34920531256678849
-4.9087500000000004,-1.0164237073498805,0.36036421464149843
-4.9074999999999998,-1.0164237073498805,0.3715231167162184
-4.90625,-1.0164237073498805,0.38268201879093339
-4.9050000000000002,-1.0164237073498805,0.39384092086564837
-4.9037499999999996,-1.0164237073498805,0.4049998229403684
-4.9024999999999999,-1.0164237073498805,0.41615872501507833
-4.9012500000000001,-1.0164237073498805,0.43103726111469831
-4.9000000000000004,-1.0164237073498805,0.44219616318940819
-4.8987499999999997,-1.0164237073498805,0.45335506526412822
-4.8975,-1.0164237073498805,0.4645139673388432
-4.8962500000000002,-1.0164237073498805,0.47567286941355819
-4.8949999999999996,-1.0200836829026316,0.48683177148827822
-4.8937499999999998,-1.0164237073498805,0.49799067356298815
-4.8925000000000001,-1.0164237073498805,0.50914957563770313
-4.8912500000000003,-1.0164237073498805,0.52402811173731634
-4.8899999999999997,-1.0164237073498805,0.53518701381204314
-4.8887499999999999,-1.0164237073498805,0.54634591588675308
-4.8875000000000002,-1.0164237073498805,0.557504817961468
-4.8862500000000004,-1.0164237073498805,0.56866372003617782
-4.8849999999999998,-1.0164237073498805,0.57982262211089797
-4.88375,-1.0164237073498805,0.59098152418561289
-4.8825000000000003,-1.0164237073498805,0.60214042626032793
-4.8812499999999996,-1.0164237073498805,0.61329932833504797
-4.8799999999999999,-1.0164237073498805,0.6244582304097579
-4.8787500000000001,-1.0164237073498805,0.63561713248447282
-4.8775000000000004,-1.0164237073498805,0.64677603455918264
-4.8762499999999998,-1.0164237073498805,0.66165457065880773
-4.875,-1.0164237073498805,0.67281347273352277
-4.8737500000000002,-1.0164237073498805,0.68397237480823769
-4.8724999999999996,-1.0164237073498805,0.69513127688295784
-4.8712499999999999,-1.0164237073498805,0.70629017895766766
-4.8700000000000001,-1.0164237073498805,0.7174490810323827
-4.8687500000000004,-1.0164237073498805,0.72860798310709252
-4.8674999999999997,-1.0164237073498805,0.73604725115690761
-4.86625,-1.0164237073498805,0.74720615323162254
-4.8650000000000002,-1.0164237073498805,0.76208468933124252
-4.8637499999999996,-1.0164237073498805,0.77324359140596266
-4.8624999999999998,-1.0164237073498805,0.78440249348067248
-4.8612500000000001,-1.0164237073498805,0.79556139555538752
-4.8600000000000003,-1.0164237073498805,0.80672029763009734
-4.8587499999999997,-1.0164237073498805,0.81787919970482248
-4.8574999999999999,-1.0164237073498805,0.82903810177953241
-4.8562500000000002,-1.0164237073498805,0.84019700385424734
-4.8550000000000004,-1.0164237073498805,0.85135590592895727
-4.8537499999999998,-1.0164237073498805,0.8625148080036773
-4.8525,-1.0164237073498805,0.87367371007839234
-4.8512500000000003,-1.0164237073498805,0.88483261215310727
-4.8499999999999996,-1.0164237073498805,0.8959915142278273
-4.8487499999999999,-1.0164237073498805,0.90715041630253723
-4.8475000000000001,-1.0164237073498805,0.91830931837725216
-4.8462500000000004,-1.0164237073498805,0.92946822045196209
-4.8449999999999998,-1.0164237073498805,0.94062712252668212
-4.84375,-1.0164237073498805,0.95178602460139716
-4.8425000000000002,-1.0164237073498805,0.96294492667611209
-4.8412499999999996,-1.0164237073498805,0.97410382875083379
-4.8399999999999999,-1.0164237073498805,0.98898236485044699
-4.8387500000000001,-1.0164237073498805,1.0001412669251621
-4.8375000000000004,-1.0164237073498805,1.011300168999872
-4.8362499999999997,-1.0164237073498805,1.022459071074592
-4.835,-1.0164237073498805,1.0336179731493069
-4.8337500000000002,-1.0164237073498805,1.0447768752240219
-4.8324999999999996,-1.0164237073498805,1.0559357772987419
-4.8312499999999998,-1.0164237073498805,1.0670946793734517
-4.8300000000000001,-1.0164237073498805,1.0782535814481666
-4.8287500000000003,-1.0164237073498805,1.0894124835228769
-4.8274999999999997,-1.0164237073498805,1.100571385597602
-4.8262499999999999,-1.0164237073498805,1.1117302876723119
-4.8250000000000002,-1.0164237073498805,1.1228891897470268
-4.8237500000000004,-1.0164237073498805,1.1340480918217366
-4.8224999999999998,-1.0164237073498805,1.1452069938964566
-4.82125,-1.0164237073498805,1.1563658959711716
-4.8200000000000003,-1.0164237073498805,1.1675247980458865
-4.8187499999999996,-1.0164237073498805,1.1824033341455118
-4.8174999999999999,-1.0164237073498805,1.1935622362202216
-4.8162500000000001,-1.0164237073498805,1.2047211382949365
-4.8150000000000004,-1.0164237073498805,1.2121604063447433
-4.8137499999999998,-1.0164237073498805,1.2233193084194616
-4.8125,-1.0164237073498805,1.2344782104941765
-4.8112500000000002,-1.0164237073498805,1.2456371125688914
-4.8099999999999996,-1.0164237073498805,1.2567960146436115
-4.8087499999999999,-1.0164237073498805,1.2679549167183213
-4.8075000000000001,-1.0164237073498805,1.2791138187930362
-4.8062500000000004,-1.0164237073498805,1.290272720867746
-4.8049999999999997,-1.0164237073498805,1.3014316229424665
-4.80375,-1.0164237073498805,1.3125905250171814
-4.8025000000000002,-1.0164237073498805,1.3200297930669911
-4.8012499999999996,-1.0164237073498805,1.3311886951417116
-4.7999999999999998,-1.0164237073498805,1.3423475972164214
-4.7987500000000001,-1.0164237073498805,1.3535064992911363
-4.7975000000000003,-1.0164237073498805,1.3683850353907494
-4.7962499999999997,-1.0164237073498805,1.3795439374654761
-4.7949999999999999,-1.0164237073498805,1.3907028395401859
-4.7937500000000002,-1.0164237073498805,1.4018617416149013
-4.7925000000000004,-1.0164237073498805,1.4130206436896111
-4.7912499999999998,-1.0164237073498805,1.4241795457643311
-4.79,-1.0164237073498805,1.4353384478390461
-4.7887500000000003,-1.0164237073498805,1.446497349913761
-4.7874999999999996,-1.0164237073498805,1.457656251988481
-4.7862499999999999,-1.0164237073498805,1.4688151540631909
-4.7850000000000001,-1.0164237073498805,1.4799740561379058
-4.7837500000000004,-1.0164237073498805,1.4911329582126156
-4.7824999999999998,-1.0164237073498805,1.5022918602873361
-4.78125,-1.0164237073498805,1.513450762362051
-4.7800000000000002,-1.0164237073498805,1.5246096644367659
-4.7787499999999996,-1.0164237073498805,1.535768566511486
-4.7774999999999999,-1.0164237073498805,1.5469274685861958
-4.7762500000000001,-1.0164237073498805,1.5543667366360059
-4.7750000000000004,-1.0164237073498805,1.569245272735619
-4.7737499999999997,-1.0164237073498805,1.5804041748103406
-4.7725,-1.0127637317971274,1.5915630768850555
-4.7712500000000002,-1.0164237073498805,1.6027219789597704
-4.7699999999999996,-1.0164237073498805,1.6138808810344909
-4.7687499999999998,-1.0164237073498805,1.6250397831092007
-4.7675000000000001,-1.0164237073498805,1.6361986851839156
-4.7662500000000003,-1.0164237073498805,1.6473575872586255
-4.7649999999999997,-1.0164237073498805,1.6547968553084458
-4.7637499999999999,-1.0164237073498805,1.6659557573831556
-4.7625000000000002,-1.0164237073498805,1.6771146594578705
-4.7612500000000004,-1.0164237073498805,1.6882735615325803
-4.7599999999999998,-1.0164237073498805,1.6994324636073004
-4.75875,-1.0164237073498805,1.7105913656820153
-4.7575000000000003,-1.0164237073498805,1.7217502677567302
-4.7562499999999996,-1.0164237073498805,1.7329091698314503
-4.7549999999999999,-1.0164237073498805,1.7440680719061605
-4.7537500000000001,-1.0164237073498805,1.7552269739808755
-4.7525000000000004,-1.0164237073498805,1.7701055100804886
-4.7512499999999998,-1.0164237073498805,1.7812644121552101
-4.75,-1.0164237073498805,1.7887036802050202
-4.7487500000000002,-1.0164237073498805,1.7998625822797352
-4.7474999999999996,-1.0164237073498805,1.8110214843544552
-4.7462499999999999,-1.0164237073498805,1.822180386429165
-4.7450000000000001,-1.0164237073498805,1.8333392885038799
-4.7437500000000004,-1.0164237073498805,1.8444981905785898
-4.7424999999999997,-1.0164237073498805,1.8556570926533102
-4.74125,-1.0164237073498805,1.8668159947280252
-4.7400000000000002,-1.0164237073498805,1.8779748968027401
-4.7387499999999996,-1.0164237073498805,1.8891337988774601
-4.7374999999999998,-1.0164237073498805,1.90029270095217
-4.7362500000000001,-1.0164237073498805,1.9114516030268849
-4.7350000000000003,-1.0200836829026316,1.9226105051015947
-4.7337499999999997,-1.0164237073498805,1.9337694071763198
-4.7324999999999999,-1.0164237073498805,1.9449283092510297
-4.7312500000000002,-1.0164237073498805,1.956087211325745
-4.7300000000000004,-1.0164237073498805,1.9672461134004549
-4.7287499999999998,-1.0164237073498805,1.9784050154751749
-4.7275,-1.0164237073498805,1.9895639175498898
-4.7262500000000003,-1.0164237073498805,2.0007228196246047
-4.7249999999999996,-1.0164237073498805,2.0118817216993246
-4.7237499999999999,-1.0164237073498805,2.0230406237740346
-4.7225000000000001,-1.0164237073498805,2.03419952584875
-4.7212500000000004,-1.0164237073498805,2.04535842792346
-4.7199999999999998,-1.0164237073498805,2.0565173299981798
-4.71875,-1.0164237073498805,2.0676762320728947
-4.7175000000000002,-1.0164237073498805,2.0788351341476097
-4.7162499999999996,-1.0164237073498805,2.0899940362223295
-4.7149999999999999,-1.0164237073498805,2.1011529382970395
-4.7137500000000001,-1.0164237073498805,2.1123118403717545
-4.7125000000000004,-1.0164237073498805,2.1234707424464645
-4.7112499999999997,-1.0164237073498805,2.1346296445211848
-4.71,-1.0164237073498805,2.1420689125709944
-4.7087500000000002,-1.0164237073498805,2.1532278146457093
-4.7074999999999996,-1.0200836829026316,2.1643867167204278
-4.7062499999999998,-1.0164237073498805,2.1718259847702344
-4.7050000000000001,-1.0164237073498805,2.1829848868449493
-4.7037500000000003,-1.0164237073498805,2.1941437889196593
-4.7024999999999997,-1.0164237073498805,2.2053026909943845
-4.7012499999999999,-1.0164237073498805,2.2164615930690945
-4.7000000000000002,-1.0164237073498805,2.2276204951438094
-4.6987500000000004,-1.0164237073498805,2.2387793972185195
-4.6974999999999998,-1.0164237073498805,2.2499382992932393
-4.69625,-1.0164237073498805,2.2610972013679542
-4.6950000000000003,-1.0164237073498805,2.2722561034426692
-4.6937499999999996,-1.0164237073498805,2.283415005517389
-4.6924999999999999,-1.0164237073498805,2.294573907592099
-4.6912500000000001,-1.0164237073498805,2.3057328096668139
-4.6900000000000004,-1.0164237073498805,2.3168917117415244
-4.6887499999999998,-1.0164237073498805,2.3280506138162442
-4.6875,-1.0164237073498805,2.3392095158909592
-4.6862500000000002,-1.0164237073498805,2.3503684179656741
-4.6849999999999996,-1.0164237073498805,2.3615273200403939
-4.6837499999999999,-1.0164237073498805,2.3726862221151039
-4.6825000000000001,-1.0164237073498805,2.3838451241898189
-4.6812500000000004,-1.0164237073498805,2.3950040262645289
-4.6799999999999997,-1.0200836829026332,2.4061629283392487
-4.67875,-1.0164237073498805,2.4173218304139641
-4.6775000000000002,-1.0164237073498805,2.428480732488679
-4.6762499999999996,-1.0164237073498805,2.4396396345633975
-4.6749999999999998,-1.0164237073498805,2.447078902613204
-4.6737500000000001,-1.0164237073498805,2.458237804687919
-4.6725000000000003,-1.0164237073498805,2.469396706762629
-4.6712499999999997,-1.0164237073498805,2.4805556088373537
-4.6699999999999999,-1.0164237073498805,2.4917145109120638
-4.6687500000000002,-1.0164237073498805,2.5028734129867787
-4.6675000000000004,-1.0164237073498805,2.5140323150614887
-4.6662499999999998,-1.0164237073498805,2.5251912171362085
-4.665,-1.0164237073498805,2.5363501192109235
-4.6637500000000003,-1.0164237073498805,2.5475090212856384
-4.6624999999999996,-1.0164237073498805,2.5586679233603586
-4.6612499999999999,-1.0164237073498805,2.5698268254350687
-4.6600000000000001,-1.0164237073498805,2.5809857275097836
-4.6587500000000004,-1.0164237073498805,2.5921446295844937
-4.6574999999999998,-1.0164237073498805,2.6033035316592135
-4.65625,-1.0164237073498805,2.5995838976343086
-4.6550000000000002,-1.0164237073498805,2.5995838976343086
-4.6537499999999996,-1.0164237073498805,2.5995838976343086
-4.6524999999999999,-1.0164237073498805,2.5995838976343086
-4.6512500000000001,-1.0164237073498805,2.6033035316592135
-4.6500000000000004,-1.0164237073498805,2.5995838976343104
-4.6487499999999997,-1.0164237073498805,2.6033035316592135
-4.6475,-1.0164237073498805,2.6033035316592135
-4.6462500000000002,-1.0164237073498805,2.5995838976343086
-4.6449999999999996,-1.0164237073498805,2.6033035316592135
-4.6437499999999998,-1.0164237073498805,2.6033035316592135
-4.6425000000000001,-1.0164237073498805,2.5995838976343086
-4.6412500000000003,-1.0164237073498805,2.6033035316592117
-4.6399999999999997,-1.0164237073498805,2.5995838976343104
-4.6387499999999999,-1.0164237073498805,2.6033035316592135
-4.6375000000000002,-1.0164237073498805,2.5995838976343086
-4.6362500000000004,-1.0164237073498805,2.6033035316592117
-4.6349999999999998,-1.0164237073498805,2.6033035316592135
-4.63375,-1.0164237073498805,2.6033035316592135
-4.6325000000000003,-1.0164237073498805,2.5995838976343086
-4.6312499999999996,-1.0164237073498805,2.6033035316592135
-4.6299999999999999,-1.0164237073498805,2.6033035316592135
-4.6287500000000001,-1.0164237073498805,2.6033035316592135
-4.6275000000000004,-1.0164237073498805,2.6033035316592135
-4.6262499999999998,-1.0164237073498805,2.6033035316592135
-4.625,-1.0164237073498805,2.6033035316592135
-4.6237500000000002,-1.0164237073498805,2.6033035316592135
-4.6224999999999996,-1.0164237073498805,2.6033035316592135
-4.6212499999999999,-1.0164237073498805,2.6033035316592135
-4.6200000000000001,-1.0127637317971274,2.5995838976343086
-4.6187500000000004,-1.016423707349879,2.6070231656841147
-4.6174999999999997,-1.0164237073498805,2.6033035316592135
-4.61625,-1.0164237073498805,2.6033035316592135
-4.6150000000000002,-1.0164237073498805,2.6033035316592135
-4.6137499999999996,-1.016423707349879,2.6033035316592135
-4.6124999999999998,-1.0127637317971274,2.6033035316592135
-4.6112500000000001,-1.0127637317971274,2.6033035316592135
-4.6100000000000003,-1.016423707349879,2.6070231656841165
-4.6087499999999997,-1.0164237073498805,2.6033035316592135
-4.6074999999999999,-1.0164237073498805,2.6033035316592135
-4.6062500000000002,-1.0164237073498805,2.6033035316592135
-4.6050000000000004,-1.0164237073498805,2.6033035316592135
-4.6037499999999998,-1.0164237073498805,2.6033035316592135
-4.6025,-1.0164237073498805,2.6070231656841183
-4.6012500000000003,-1.0164237073498805,2.6033035316592135
-4.5999999999999996,-1.0164237073498805,2.6033035316592135
-4.5987499999999999,-1.0164237073498805,2.6033035316592135
-4.5975000000000001,-1.0164237073498805,2.6033035316592135
-4.5962500000000004,-1.012763731797129,2.6033035316592135
-4.5949999999999998,-1.0164237073498805,2.6033035316592135
-4.59375,-1.0164237073498805,2.6033035316592135
-4.5925000000000002,-1.0164237073498805,2.6033035316592135
-4.5912499999999996,-1.0164237073498805,2.6033035316592135
-4.5899999999999999,-1.0164237073498805,2.6033035316592135
-4.5887500000000001,-1.0127637317971274,2.6033035316592135
-4.5875000000000004,-1.016423707349879,2.6033035316592135
-4.5862499999999997,-1.0127637317971274,2.6033035316592135
-4.585,-1.0127637317971274,2.6033035316592135
-4.5837500000000002,-1.0127637317971274,2.6033035316592135
-4.5824999999999996,-1.0164237073498805,2.6033035316592135
-4.5812499999999998,-1.0164237073498805,2.6033035316592135
-4.5800000000000001,-1.0164237073498805,2.6033035316592135
-4.5787500000000003,-1.0164237073498805,2.6033035316592135
-4.5774999999999997,-1.0164237073498805,2.6033035316592117
