Lab7/Figure5bLED.csv

#Digilent WaveForms Oscilloscope Acquisition
#Device Name: Discovery2
#Serial Number: SN:210321A18A12
#Date Time: 2017-10-20 15:12:20.871
#Trigger:Source: Channel 1Type: EdgeCondition: RisingLevel: 0 VHyst.: AutoHoldOff: 0 s
#Channel 1: Range: 1 V/div Offset: 0 V
#Channel 2: Range: 1 V/div Offset: 0 V

Time (s),Channel 1 (V),Channel 2 (V)
-0.25593749999999998,0.76598438684074732,2.4731163407875387
-0.25587499999999996,0.75866443573523656,2.4731163407875387
-0.2558125,0.74768450907698814,2.4731163407875387
-0.25574999999999998,0.74036455797147749,2.4731163407875387
-0.25568749999999996,0.73670458241872128,2.4731163407875387
-0.25562499999999999,0.72938463131321896,2.4731163407875387
-0.25556249999999997,0.71840470465496054,2.4731163407875387
-0.2555,0.71108475354945822,2.4731163407875387
-0.25543749999999998,0.70376480244394923,2.4731163407875387
-0.25537499999999996,0.69644485133844181,2.4731163407875387
-0.2553125,0.69278487578569237,2.4731163407875387
-0.25524999999999998,0.68180494912743217,2.4731163407875387
-0.25518749999999996,0.67448499802192319,2.4731163407875387
-0.25512499999999999,0.66716504691642087,2.4731163407875387
-0.25506249999999997,0.65984509581091522,2.4731163407875387
-0.255,0.6525251447054129,2.4731163407875387
-0.25493749999999998,0.64520519359990391,2.4768359748124436
-0.25487499999999996,0.63788524249439493,2.4731163407875387
-0.2548125,0.63056529138889594,2.4731163407875387
-0.25474999999999998,0.62324534028338696,2.4731163407875387
-0.25468749999999996,0.61592538917787798,2.4731163407875387
-0.25462499999999999,0.60860543807237566,2.4731163407875387
-0.25456249999999997,0.60128548696687001,2.4731163407875387
-0.2545,0.59396553586136769,2.4731163407875387
-0.25443749999999998,0.58664558475585871,2.4731163407875387
-0.25437499999999996,0.57566565809759684,2.4731163407875387
-0.2543125,0.56834570699209785,2.4731163407875387
-0.25424999999999998,0.56102575588658887,2.4731163407875387
-0.25418749999999996,0.55736578033383266,2.4731163407875387
-0.25412499999999999,0.55004582922833034,2.4731163407875387
-0.25406249999999997,0.54272587812282469,2.4731163407875387
-0.254,0.53540592701732237,2.4731163407875387
-0.25393749999999998,0.52442600035906051,2.4768359748124436
-0.25387499999999996,0.51710604925355153,2.4731163407875387
-0.2538125,0.50978609814805254,2.4731163407875387
-0.25374999999999998,0.50246614704254355,2.4731163407875387
-0.25368749999999995,0.49514619593703457,2.4731163407875387
-0.25362499999999999,0.48782624483153225,2.4731163407875387
-0.25356249999999997,0.4805062937260266,2.4731163407875387
-0.2535,0.47318634262052428,2.4731163407875387
-0.25343749999999998,0.4658663915150153,2.4731163407875387
-0.25337499999999996,0.45854644040950465,2.4731163407875387
-0.2533125,0.44756651375125617,2.4731163407875387
-0.25324999999999998,0.44024656264574552,2.4731163407875387
-0.25318749999999995,0.43292661154023648,2.4731163407875387
-0.25312499999999999,0.42560666043473416,2.4731163407875387
-0.25306249999999997,0.41828670932922851,2.4731163407875387
-0.253,0.41096675822372619,2.4731163407875387
-0.25293749999999998,0.40364680711821721,2.4731163407875387
-0.25287499999999996,0.39632685601270656,2.4731163407875387
-0.2528125,0.38534692935445808,2.4731163407875387
-0.25274999999999997,0.38168695380170026,2.4693967067626339
-0.25268749999999995,0.37070702714343839,2.4693967067626339
-0.25262499999999999,0.36338707603793607,2.4693967067626339
-0.25256249999999997,0.35606712493243042,2.4731163407875387
-0.2525,0.3487471738269281,2.4731163407875387
-0.25243749999999998,0.34142722272141912,2.4731163407875387
-0.25237499999999996,0.33410727161591014,2.4731163407875387
-0.2523125,0.32678732051041115,2.4731163407875387
-0.25224999999999997,0.31946736940490217,2.4731163407875387
-0.25218749999999995,0.31214741829939147,2.4731163407875387
-0.25212499999999999,0.30116749164113799,2.4731163407875387
-0.25206249999999997,0.29384754053563233,2.4731163407875387
-0.252,0.28652758943013001,2.4731163407875387
-0.25193749999999998,0.27920763832462103,2.4731163407875387
-0.25187499999999996,0.27188768721911039,2.4731163407875387
-0.25181249999999999,0.26090776056086185,2.4731163407875387
-0.25174999999999997,0.2535878094553512,2.4731163407875387
-0.25168749999999995,0.24626785834984222,2.4731163407875387
-0.25162499999999999,0.2389479072443399,2.4731163407875387
-0.25156249999999997,0.23162795613883425,2.4731163407875387
-0.2515,0.22430800503333193,2.4731163407875387
-0.25143749999999998,0.21698805392782294,2.4731163407875387
-0.25137499999999996,0.20600812726956111,2.4731163407875387
-0.25131249999999999,0.19868817616406212,2.4731163407875387
-0.25124999999999997,0.19136822505855314,2.4731163407875387
-0.25118749999999995,0.18404827395304413,2.4731163407875387
-0.25112499999999999,0.17672832284754181,2.4731163407875387
-0.25106249999999997,0.16940837174203616,2.4731163407875387
-0.251,0.16208842063653384,2.4731163407875387
-0.25093749999999998,0.151108493978272,2.4731163407875387
-0.25087499999999996,0.14378854287276302,2.4731163407875387
-0.25081249999999999,0.13646859176726403,2.4731163407875387
-0.25074999999999997,0.12914864066175502,2.4731163407875387
-0.25068749999999995,0.12182868955624604,2.4731163407875387
-0.25062499999999999,0.11450873845074372,2.4731163407875387
-0.25056249999999997,0.10352881179248523,2.4693967067626339
-0.2505,0.096208860686982908,2.4731163407875369
-0.25043749999999998,0.092548885134226738,2.4731163407875387
-0.25037499999999996,0.081568958475964931,2.4731163407875387
-0.25031249999999999,0.074249007370462597,2.4731163407875387
-0.25024999999999997,0.066929056264956946,2.4693967067626339
-0.25018749999999995,0.055949129606695125,2.4693967067626339
-0.25012499999999999,0.048629178501192798,2.4693967067626339
-0.25006249999999997,0.044969202948439965,2.4693967067626339
-0.25,0.037649251842937645,2.4693967067626339
-0.24993750000000001,0.026669325184675824,2.4693967067626339
-0.24987500000000001,0.019349374079170166,2.4693967067626339
-0.24981250000000002,0.012029422973664508,2.4731163407875387
-0.24975,0.0010494963154060212,2.4693967067626339
-0.24968750000000001,-0.0026104792373468078,2.4731163407875387
-0.24962500000000001,-0.013590405895605295,2.4656770727377286
-0.24956250000000002,-0.020910357001110953,2.4656770727377286
-0.2495,-0.031890283659369439,2.4656770727377286
-0.24943750000000001,-0.039210234764875097,2.4619574387128238
-0.24937500000000001,-0.046530185870380755,0.2822519001184986
-0.24931250000000002,-0.050190161423133581,-1.6222007206328573
-0.24925,-0.057510112528639246,-1.6147614525830472
-0.24918750000000001,-0.068490039186897722,-1.6259203546577621
-0.24912500000000001,-0.075809990292403387,-1.637079256732477
-0.24906250000000002,-0.083129941397909052,-1.6482381588071919
-0.249,-0.094109868056167528,-1.655677426857002
-0.24893750000000001,-0.097769843608920354,-1.6593970608819069
-0.24887500000000001,-0.10508979471442602,-1.666836328931717
-0.24881250000000002,-0.11606972137268451,-1.6742755969815271
-0.24875,-0.12338967247819016,-1.6779952310064319
-0.24868750000000001,-0.13070962358369581,-1.685434499056242
-0.24862500000000001,-0.13802957468920149,-1.6891541330811468
-0.24856250000000002,-0.14534952579470714,-1.6891541330811468
-0.2485,-0.15266947690021279,-1.6965934011309569
-0.24843750000000001,-0.15998942800571844,-1.7003130351558617
-0.24837500000000001,-0.16730937911122412,-1.7003130351558617
-0.24831250000000002,-0.1782893057694826,-1.7077523032056718
-0.24825,-0.18560925687498825,-1.7114719372305767
-0.24818750000000001,-0.1929292079804939,-1.7151915712554819
-0.24812500000000001,-0.20024915908599958,-1.7151915712554819
-0.24806250000000002,-0.20756911019150523,-1.7189112052803868
-0.248,-0.21854903684976371,-1.722630839305292
-0.24793750000000001,-0.22586898795526938,-1.7263504733301969
-0.24787500000000001,-0.23318893906077504,-1.7300701073551017
-0.24781250000000002,-0.23684891461352786,-1.7300701073551017
-0.24775,-0.24782884127178634,-1.7300701073551017
-0.2476875,-0.25514879237729199,-1.733789741380007
-0.24762500000000001,-0.26246874348279764,-1.7375093754049118
-0.24756250000000002,-0.27344867014105617,-1.7412290094298166
-0.2475,-0.28076862124656182,-1.7449486434547219
-0.2474375,-0.28442859679931465,-1.7449486434547219
-0.24737500000000001,-0.2917485479048203,-1.7486682774796267
-0.24731250000000002,-0.30272847456307878,-1.7486682774796267
-0.24725,-0.31004842566858443,-1.7523879115045315
-0.2471875,-0.31736837677409008,-1.7523879115045315
-0.24712500000000001,-0.32834830343234861,-1.7561075455294368
-0.24706250000000002,-0.33200827898510143,-1.7598271795543416
-0.247,-0.33932823009060709,-1.7598271795543416
-0.2469375,-0.34664818119611274,-1.7598271795543416
-0.24687500000000001,-0.35396813230161839,-1.7635468135792469
-0.24681250000000002,-0.36494805895987686,-1.7672664476041517
-0.24675,-0.37226801006538252,-1.7672664476041517
-0.2466875,-0.37958796117088817,-1.7709860816290566
-0.24662500000000001,-0.38690791227639387,-1.7709860816290566
-0.24656250000000002,-0.39422786338189952,-1.7747057156539618
-0.2465,-0.40154781448740517,-1.7747057156539618
-0.2464375,-0.41252774114566365,-1.7784253496788667
-0.24637500000000001,-0.4198476922511693,-1.7784253496788667
-0.24631250000000002,-0.42716764335667495,-1.7821449837037715
-0.24625,-0.43082761890942778,-1.7821449837037715
-0.2461875,-0.44180754556768631,-1.7858646177286768
-0.24612500000000001,-0.44912749667319196,-1.7858646177286768
-0.24606250000000002,-0.45644744777869761,-1.7895842517535816
-0.246,-0.46376739888420326,-1.7895842517535816
-0.2459375,-0.47108734998970891,-1.7933038857784869
-0.24587500000000001,-0.47840730109521457,-1.7933038857784869
-0.24581250000000002,-0.48938722775347304,-1.7970235198033917
-0.24575,-0.49670717885897869,-1.7970235198033917
-0.2456875,-0.5040271299644844,-1.8007431538282965
-0.24562500000000001,-0.51134708106999005,-1.8007431538282965
-0.24556250000000002,-0.5186670321754957,-1.8044627878532018
-0.2455,-0.52232700772824847,-1.8044627878532018
-0.2454375,-0.533306934386507,-1.8081824218781066
-0.24537500000000001,-0.54062688549201265,-1.8119020559030115
-0.24531250000000002,-0.54794683659751831,-1.8119020559030115
-0.24525,-0.55526678770302396,-1.8119020559030115
-0.2451875,-0.56258673880852961,-1.8156216899279167
-0.24512500000000001,-0.56990668991403526,-1.8156216899279167
-0.24506250000000002,-0.57722664101954091,-1.8156216899279167
-0.245,-0.58454659212504656,-1.8193413239528216
-0.2449375,-0.59186654323055232,-1.8193413239528216
-0.24487500000000001,-0.59918649433605797,-1.8230609579777264
-0.24481250000000002,-0.60650644544156362,-1.8230609579777264
-0.24475,-0.61382639654706928,-1.8230609579777264
-0.2446875,-0.62114634765257493,-1.8267805920026317
-0.24462500000000001,-0.62846629875808058,-1.8267805920026317
-0.24456250000000002,-0.639446225416339,-1.8305002260275365
-0.2445,-0.64676617652184476,-1.8305002260275365
-0.2444375,-0.65042615207459753,-1.8305002260275365
-0.24437500000000001,-0.65774610318010318,-1.8342198600524418
-0.24431250000000002,-0.66872602983836171,-1.8342198600524418
-0.24424999999999999,-0.67604598094386736,-1.8379394940773466
-0.2441875,-0.68336593204937301,-1.8379394940773466
-0.24412500000000001,-0.69068588315487867,-1.8379394940773466
-0.24406250000000002,-0.69434585870763144,-1.8416591281022514
-0.24399999999999999,-0.70166580981313709,-1.8416591281022514
-0.2439375,-0.71264573647139562,-1.8453787621271567
-0.24387500000000001,-0.7163057120241485,-1.8453787621271567
-0.24381250000000002,-0.72728563868240692,-1.8490983961520615
-0.24374999999999999,-0.73460558978791257,-1.8490983961520615
-0.2436875,-0.74192554089341822,-1.8490983961520615
-0.24362500000000001,-0.74924549199892387,-1.8528180301769663
-0.24356250000000002,-0.75656544310442952,-1.8528180301769663
-0.24349999999999999,-0.76388539420993518,-1.8528180301769663
-0.2434375,-0.77120534531544094,-1.8565376642018716
-0.24337500000000001,-0.77852529642094659,-1.8565376642018716
-0.24331250000000001,-0.78584524752645224,-1.8565376642018716
-0.24324999999999999,-0.78950522307920501,-1.8602572982267764
-0.2431875,-0.79682517418471066,-1.8602572982267764
-0.24312500000000001,-0.80414512529021631,-1.8639769322516817
-0.24306250000000001,-0.81512505194847484,-1.8639769322516817
-0.24299999999999999,-0.81878502750122761,-1.8639769322516817
-0.2429375,-0.82610497860673338,-1.8639769322516817
-0.24287500000000001,-0.83342492971223903,-1.8676965662765865
-0.24281250000000001,-0.84074488081774468,-1.8714162003014914
-0.24274999999999999,-0.84806483192325033,-1.8714162003014914
-0.2426875,-0.85538478302875598,-1.8714162003014914
-0.24262500000000001,-0.86270473413426163,-1.8714162003014914
-0.24256250000000001,-0.87002468523976728,-1.8751358343263966
-0.24249999999999999,-0.87368466079252005,-1.8751358343263966
-0.2424375,-0.88466458745077858,-1.8788554683513015
-0.24237500000000001,-0.88832456300353146,-1.8788554683513015
-0.24231250000000001,-0.89564451410903712,-1.8788554683513015
-0.24224999999999999,-0.90662444076729554,-1.8788554683513015
-0.2421875,-0.91028441632004842,-1.8825751023762063
-0.24212500000000001,-0.91760436742555407,-1.8862947364011116
-0.24206250000000001,-0.92492431853105972,-1.8862947364011116
-0.24200000000000002,-0.93224426963656537,-1.8862947364011116
-0.2419375,-0.93956422074207102,-1.8862947364011116
-0.24187500000000001,-0.94688417184757667,-1.8900143704260164
-0.24181250000000001,-0.95420412295308232,-1.8900143704260164
-0.24175000000000002,-0.96152407405858797,-1.8937340044509217
-0.2416875,-0.96884402516409363,-1.8937340044509217
-0.24162500000000001,-0.97616397626959928,-1.8937340044509217
-0.24156250000000001,-0.98348392737510493,-1.8974536384758265
-0.24150000000000002,-0.98714390292785781,-1.8974536384758265
-0.2414375,-0.99446385403336346,-1.8974536384758265
-0.24137500000000001,-1.001783805138869,-1.8974536384758265
-0.24131250000000001,-1.0054437806916221,-1.8974536384758265
-0.24125000000000002,-1.0164237073498805,-1.8937340044509217
-0.2411875,-1.0237436584553863,-1.8900143704260164
-0.24112500000000001,-1.0310636095608916,-1.8862947364011116
-0.24106250000000001,-1.0383835606663974,-1.8862947364011116
-0.24100000000000002,-1.04204353621915,-1.8825751023762063
-0.2409375,-1.0493634873246558,-1.8788554683513015
-0.24087500000000001,-1.0566834384301615,-1.8751358343263966
-0.24081250000000001,-1.0640033895356673,-1.8714162003014914
-0.24075000000000002,-1.06766336508842,-1.8714162003014914
-0.2406875,-1.0749833161939257,-1.8676965662765865
-0.24062500000000001,-1.0823032672994315,-1.8639769322516817
-0.24056250000000001,-1.0859632428521842,-1.8602572982267764
-0.24050000000000002,-1.0932831939576899,-1.8602572982267764
-0.2404375,-1.1006031450631957,-1.8565376642018716
-0.24037500000000001,-1.1115830717214541,-1.8528180301769663
-0.24031250000000001,-1.1152430472742068,-1.8528180301769663
-0.24025000000000002,-1.1189030228269599,-1.8490983961520615
-0.2401875,-1.1262229739324652,-1.8453787621271567
-0.24012500000000001,-1.1335429250379709,-1.8416591281022514
-0.24006250000000001,-1.1408628761434767,-1.8416591281022514
-0.24000000000000002,-1.1481828272489825,-1.8379394940773466
-0.2399375,-1.1555027783544878,-1.8342198600524418
-0.239875,-1.1591627539072409,-1.8305002260275365
-0.23981250000000001,-1.1664827050127462,-1.8305002260275365
-0.23975000000000002,-1.173802656118252,-1.8267805920026317
-0.2396875,-1.1811226072237577,-1.8230609579777264
-0.239625,-1.1884425583292635,-1.8193413239528216
-0.23956250000000001,-1.1921025338820161,-1.8193413239528216
-0.23950000000000002,-1.1957625094347692,-1.8156216899279167
-0.2394375,-1.2030824605402746,-1.8119020559030115
-0.239375,-1.2104024116457803,-1.8081824218781066
-0.23931250000000001,-1.2177223627512861,-1.8044627878532018
-0.23925000000000002,-1.2250423138567919,-1.8044627878532018
-0.2391875,-1.2323622649622972,-1.8007431538282965
-0.239125,-1.2360222405150503,-1.8007431538282965
-0.23906250000000001,-1.2396822160678029,-1.7970235198033917
-0.23900000000000002,-1.2470021671733087,-1.7933038857784869
-0.2389375,-1.2543221182788145,-1.7895842517535816
-0.238875,-1.2616420693843198,-1.7858646177286768
-0.23881250000000001,-1.2653020449370729,-1.7858646177286768
-0.23875000000000002,-1.2726219960425786,-1.7821449837037715
-0.2386875,-1.2762819715953313,-1.7784253496788667
-0.238625,-1.2836019227008371,-1.7784253496788667
-0.23856250000000001,-1.2909218738063428,-1.7747057156539618
-0.23850000000000002,-1.2982418249118481,-1.7709860816290566
-0.2384375,-1.3055617760173539,-1.7709860816290566
-0.238375,-1.3092217515701066,-1.7672664476041517
-0.23831250000000001,-1.3128817271228597,-1.7635468135792469
-0.23825000000000002,-1.3202016782283654,-1.7598271795543416
-0.2381875,-1.3238616537811181,-1.7598271795543416
-0.238125,-1.3311816048866238,-1.7561075455294368
-0.23806250000000001,-1.3348415804393765,-1.7523879115045315
-0.23800000000000002,-1.3421615315448823,-1.7523879115045315
-0.2379375,-1.3458215070976349,-1.7486682774796267
-0.237875,-1.3531414582031407,-1.7449486434547219
-0.23781250000000001,-1.3568014337558933,-1.7449486434547219
-0.23775000000000002,-1.3641213848613991,-1.7412290094298166
-0.2376875,-1.3714413359669049,-1.7375093754049118
-0.237625,-1.3751013115196575,-1.7375093754049118
-0.23756250000000001,-1.3787612870724106,-1.733789741380007
-0.23750000000000002,-1.386081238177916,-1.7300701073551017
-0.2374375,-1.3934011892834217,-1.7263504733301969
-0.237375,-1.4007211403889275,-1.7263504733301969
-0.23731250000000001,-1.4043811159416801,-1.722630839305292
-0.23725000000000002,-1.4080410914944332,-1.722630839305292
-0.2371875,-1.415361042599939,-1.7189112052803868
-0.237125,-1.4190210181526917,-1.7151915712554819
-0.23706250000000001,-1.4263409692581974,-1.7114719372305767
-0.23700000000000002,-1.4300009448109501,-1.7114719372305767
-0.2369375,-1.4373208959164558,-1.7077523032056718
-0.236875,-1.4409808714692085,-1.7077523032056718
-0.23681250000000001,-1.4446408470219616,-1.704032669180767
-0.23675000000000002,-1.4519607981274669,-1.7003130351558617
-0.2366875,-1.45562077368022,-1.7003130351558617
-0.236625,-1.4629407247857253,-1.6965934011309569
-0.23656250000000001,-1.4702606758912311,-1.6928737671060521
-0.23650000000000002,-1.4739206514439842,-1.6928737671060521
-0.23643749999999999,-1.4775806269967369,-1.6891541330811468
-0.236375,-1.4849005781022426,-1.6891541330811468
-0.23631250000000001,-1.4885605536549953,-1.685434499056242
-0.23625000000000002,-1.4922205292077484,-1.685434499056242
-0.23618749999999999,-1.4995404803132537,-1.6779952310064319
-0.236125,-1.5032004558660068,-1.6817148650313367
-0.23606250000000001,-1.5068604314187595,-1.6779952310064319
-0.23600000000000002,-1.5105204069715121,-1.6742755969815271
-0.23593749999999999,-1.5178403580770179,-1.6705559629566218
-0.235875,-1.521500333629771,-1.6705559629566218
-0.23581250000000001,-1.5251603091825237,-1.6705559629566218
-0.23575000000000002,-1.5324802602880294,-1.666836328931717
-0.23568749999999999,-1.5361402358407821,-1.666836328931717
-0.235625,-1.5398002113935352,-1.6631166949068121
-0.23556250000000001,-1.5434601869462878,-1.6593970608819069
-0.23550000000000001,-1.5471201624990405,-1.6593970608819069
-0.23543749999999999,-1.5507801380517936,-1.655677426857002
-0.235375,-1.5544401136045463,-1.655677426857002
-0.23531250000000001,-1.5581000891572989,-1.6519577928320972
-0.23525000000000001,-1.561760064710052,-1.6519577928320972
-0.23518749999999999,-1.5654200402628047,-1.6519577928320972
-0.235125,-1.5690800158155578,-1.6482381588071919
-0.23506250000000001,-1.5727399913683104,-1.6482381588071919
-0.23500000000000001,-1.5763999669210631,-1.6482381588071919
-0.23493749999999999,-1.5800599424738162,-1.6482381588071919
-0.234875,-1.5837199180265689,-1.6407988907573818
-0.23481250000000001,-1.5837199180265689,-1.6445185247822871
-0.23475000000000001,-1.587379893579322,-1.6407988907573818
-0.23468749999999999,-1.5910398691320746,-1.6407988907573818
-0.234625,-1.5946998446848273,-1.637079256732477
