Lab7/Figure3b.csv

#Digilent WaveForms Oscilloscope Acquisition
#Device Name: Discovery2
#Serial Number: SN:210321A18A12
#Date Time: 2017-10-20 14:06:45.066
#Trigger:Source: Channel 1Type: EdgeCondition: RisingLevel: 0 VHyst.: AutoHoldOff: 0 s
#Channel 1: Range: 1 V/div Offset: 0 V
#Channel 2: Range: 1 V/div Offset: 0 V

Time (s),Channel 1 (V),Channel 2 (V)
-1,-0.02823030810661661,-0.041356260048235644
-0.99975000000000003,-0.02823030810661661,-0.041356260048235644
-0.99950000000000006,-0.02823030810661661,-0.041356260048235644
-0.99924999999999997,-0.024570332553863782,-0.041356260048235644
-0.999,-0.024570332553863782,-0.041356260048235644
-0.99875000000000003,-0.024570332553863782,-0.041356260048235644
-0.99850000000000005,-0.024570332553863782,-0.041356260048235644
-0.99824999999999997,-0.02823030810661661,-0.041356260048235644
-0.998,-0.02823030810661661,-0.045075894073140631
-0.99775000000000003,-0.024570332553863782,-0.041356260048235644
-0.99750000000000005,-0.02823030810661661,-0.045075894073140631
-0.99724999999999997,-0.02823030810661661,-0.045075894073140631
-0.997,-0.02823030810661661,-0.045075894073140631
-0.99675000000000002,-0.02823030810661661,-0.045075894073140631
-0.99650000000000005,-0.02823030810661661,-0.045075894073140631
-0.99624999999999997,-0.02823030810661661,-0.045075894073140631
-0.996,-0.02823030810661661,-0.045075894073140631
-0.99575000000000002,-0.02823030810661661,-0.045075894073140631
-0.99550000000000005,-0.02823030810661661,-0.045075894073140631
-0.99524999999999997,-0.02823030810661661,-0.045075894073140631
-0.995,-0.02823030810661661,-0.045075894073140631
-0.99475000000000002,-0.02823030810661661,-0.048795528098045625
-0.99450000000000005,-0.02823030810661661,-0.048795528098045625
-0.99424999999999997,-0.024570332553863782,-0.045075894073140631
-0.99399999999999999,-0.024570332553863782,-0.045075894073140631
-0.99375000000000002,-0.02823030810661661,-0.048795528098045625
-0.99350000000000005,-0.02823030810661661,-0.048795528098045625
-0.99324999999999997,-0.02823030810661661,-0.048795528098045625
-0.99299999999999999,-0.02823030810661661,-0.048795528098045625
-0.99275000000000002,-0.02823030810661661,-0.048795528098045625
-0.99250000000000005,-0.02823030810661661,-0.048795528098045625
-0.99224999999999997,-0.02823030810661661,-0.048795528098045625
-0.99199999999999999,-0.02823030810661661,-0.048795528098045625
-0.99175000000000002,-0.02823030810661661,-0.048795528098045625
-0.99150000000000005,-0.02823030810661661,-0.052515162122950612
-0.99124999999999996,-0.02823030810661661,-0.048795528098045625
-0.99099999999999999,-0.02823030810661661,-0.048795528098045625
-0.99075000000000002,-0.02823030810661661,-0.048795528098045625
-0.99050000000000005,-0.02823030810661661,-0.048795528098045625
-0.99024999999999996,-0.02823030810661661,-0.052515162122950612
-0.98999999999999999,-0.02823030810661661,-0.052515162122950612
-0.98975000000000002,-0.02823030810661661,-0.052515162122950612
-0.98950000000000005,-0.02823030810661661,-0.052515162122950612
-0.98924999999999996,-0.02823030810661661,-0.052515162122950612
-0.98899999999999999,-0.02823030810661661,-0.052515162122950612
-0.98875000000000002,-0.02823030810661661,-0.052515162122950612
-0.98850000000000005,-0.02823030810661661,-0.056234796147855606
-0.98824999999999996,-0.02823030810661661,-0.056234796147855606
-0.98799999999999999,-0.02823030810661661,-0.052515162122950612
-0.98775000000000002,-0.02823030810661661,-0.052515162122950612
-0.98750000000000004,-0.02823030810661661,-0.056234796147855606
-0.98724999999999996,-0.02823030810661661,-0.056234796147855606
-0.98699999999999999,-0.02823030810661661,-0.052515162122950612
-0.98675000000000002,-0.02823030810661661,-0.052515162122950612
-0.98650000000000004,-0.02823030810661661,-0.056234796147855606
-0.98624999999999996,-0.02823030810661661,-0.056234796147855606
-0.98599999999999999,-0.02823030810661661,-0.056234796147855606
-0.98575000000000002,-0.02823030810661661,-0.056234796147855606
-0.98550000000000004,-0.02823030810661661,-0.056234796147855606
-0.98524999999999996,-0.02823030810661661,-0.056234796147855606
-0.98499999999999999,-0.02823030810661661,-0.056234796147855606
-0.98475000000000001,-0.02823030810661661,-0.056234796147855606
-0.98450000000000004,-0.02823030810661661,-0.056234796147855606
-0.98424999999999996,-0.02823030810661661,-0.056234796147855606
-0.98399999999999999,-0.02823030810661661,-0.056234796147855606
-0.98375000000000001,-0.02823030810661661,-0.0599544301727606
-0.98350000000000004,-0.02823030810661661,-0.0599544301727606
-0.98324999999999996,-0.02823030810661661,-0.0599544301727606
-0.98299999999999998,-0.02823030810661661,-0.0599544301727606
-0.98275000000000001,-0.02823030810661661,-0.0599544301727606
-0.98250000000000004,-0.02823030810661661,-0.0599544301727606
-0.98224999999999996,-0.02823030810661661,-0.0599544301727606
-0.98199999999999998,-0.02823030810661661,-0.0599544301727606
-0.98175000000000001,-0.02823030810661661,-0.0599544301727606
-0.98150000000000004,-0.02823030810661661,-0.0599544301727606
-0.98124999999999996,-0.02823030810661661,-0.0599544301727606
-0.98099999999999998,-0.02823030810661661,-0.0599544301727606
-0.98075000000000001,-0.02823030810661661,-0.0599544301727606
-0.98050000000000004,-0.02823030810661661,-0.063674064197665595
-0.98024999999999995,-0.02823030810661661,-0.0599544301727606
-0.97999999999999998,-0.02823030810661661,-0.0599544301727606
-0.97975000000000001,-0.02823030810661661,-0.063674064197665595
-0.97950000000000004,-0.02823030810661661,-0.063674064197665595
-0.97924999999999995,-0.02823030810661661,-0.063674064197665595
-0.97899999999999998,-0.02823030810661661,-0.063674064197665595
-0.97875000000000001,-0.02823030810661661,-0.063674064197665595
-0.97850000000000004,-0.02823030810661661,-0.0599544301727606
-0.97824999999999995,-0.02823030810661661,-0.063674064197665595
-0.97799999999999998,-0.02823030810661661,-0.063674064197665595
-0.97775000000000001,-0.02823030810661661,-0.063674064197665595
-0.97750000000000004,-0.02823030810661661,-0.063674064197665595
-0.97724999999999995,-0.02823030810661661,-0.063674064197665595
-0.97699999999999998,-0.02823030810661661,-0.063674064197665595
-0.97675000000000001,-0.02823030810661661,-0.067393698222570575
-0.97650000000000003,-0.02823030810661661,-0.063674064197665595
-0.97624999999999995,-0.02823030810661661,-0.067393698222570575
-0.97599999999999998,-0.02823030810661661,-0.063674064197665595
-0.97575000000000001,-0.02823030810661661,-0.063674064197665595
-0.97550000000000003,-0.02823030810661661,-0.067393698222570575
-0.97524999999999995,-0.02823030810661661,-0.067393698222570575
-0.97499999999999998,-0.02823030810661661,-0.067393698222570575
-0.97475000000000001,-0.02823030810661661,-0.067393698222570575
-0.97450000000000003,-0.02823030810661661,-0.067393698222570575
-0.97424999999999995,-0.02823030810661661,-0.067393698222570575
-0.97399999999999998,-0.02823030810661661,-0.067393698222570575
-0.97375,-0.02823030810661661,-0.067393698222570575
-0.97350000000000003,-0.02823030810661661,-0.071113332247475569
-0.97324999999999995,-0.02823030810661661,-0.071113332247475569
-0.97299999999999998,-0.02823030810661661,-0.067393698222570575
-0.97275,-0.02823030810661661,-0.067393698222570575
-0.97250000000000003,-0.02823030810661661,-0.067393698222570575
-0.97224999999999995,-0.02823030810661661,-0.067393698222570575
-0.97199999999999998,-0.02823030810661661,-0.071113332247475569
-0.97175,-0.02823030810661661,-0.071113332247475569
-0.97150000000000003,-0.02823030810661661,-0.071113332247475569
-0.97124999999999995,-0.02823030810661661,-0.071113332247475569
-0.97099999999999997,-0.02823030810661661,-0.071113332247475569
-0.97075,-0.02823030810661661,-0.071113332247475569
-0.97050000000000003,-0.02823030810661661,-0.071113332247475569
-0.97024999999999995,-0.02823030810661661,-0.071113332247475569
-0.96999999999999997,-0.02823030810661661,-0.071113332247475569
-0.96975,-0.02823030810661661,-0.071113332247475569
-0.96950000000000003,-0.02823030810661661,-0.071113332247475569
-0.96924999999999994,-0.02823030810661661,-0.071113332247475569
-0.96899999999999997,-0.02823030810661661,-0.071113332247475569
-0.96875,-0.02823030810661661,-0.071113332247475569
-0.96850000000000003,-0.02823030810661661,-0.074832966272380563
-0.96825000000000006,-0.02823030810661661,-0.071113332247475569
-0.96799999999999997,-0.02823030810661661,-0.074832966272380563
-0.96775,-0.02823030810661661,-0.074832966272380563
-0.96750000000000003,-0.02823030810661661,-0.074832966272380563
-0.96725000000000005,-0.02823030810661661,-0.074832966272380563
-0.96699999999999997,-0.02823030810661661,-0.074832966272380563
-0.96675,-0.02823030810661661,-0.074832966272380563
-0.96650000000000003,-0.02823030810661661,-0.074832966272380563
-0.96625000000000005,-0.02823030810661661,-0.074832966272380563
-0.96599999999999997,-0.02823030810661661,-0.074832966272380563
-0.96575,-0.02823030810661661,-0.074832966272380563
-0.96550000000000002,-0.02823030810661661,-0.074832966272380563
-0.96525000000000005,-0.02823030810661661,-0.078552600297285557
-0.96499999999999997,-0.02823030810661661,-0.074832966272380563
-0.96475,-0.02823030810661661,-0.074832966272380563
-0.96450000000000002,-0.02823030810661661,-0.074832966272380563
-0.96425000000000005,-0.02823030810661661,-0.074832966272380563
-0.96399999999999997,-0.02823030810661661,-0.074832966272380563
-0.96375,-0.02823030810661661,-0.074832966272380563
-0.96350000000000002,-0.02823030810661661,-0.074832966272380563
-0.96325000000000005,-0.02823030810661661,-0.078552600297285557
-0.96299999999999997,-0.02823030810661661,-0.078552600297285557
-0.96274999999999999,-0.02823030810661661,-0.078552600297285557
-0.96250000000000002,-0.02823030810661661,-0.078552600297285557
-0.96225000000000005,-0.02823030810661661,-0.078552600297285557
-0.96199999999999997,-0.02823030810661661,-0.078552600297285557
-0.96174999999999999,-0.02823030810661661,-0.078552600297285557
-0.96150000000000002,-0.02823030810661661,-0.078552600297285557
-0.96125000000000005,-0.02823030810661661,-0.078552600297285557
-0.96099999999999997,-0.02823030810661661,-0.078552600297285557
-0.96074999999999999,-0.02823030810661661,-0.078552600297285557
-0.96050000000000002,-0.02823030810661661,-0.082272234322190552
-0.96025000000000005,-0.02823030810661661,-0.082272234322190552
-0.95999999999999996,-0.02823030810661661,-0.082272234322190552
-0.95974999999999999,-0.02823030810661661,-0.078552600297285557
-0.95950000000000002,-0.02823030810661661,-0.078552600297285557
-0.95925000000000005,-0.02823030810661661,-0.078552600297285557
-0.95899999999999996,-0.02823030810661661,-0.078552600297285557
-0.95874999999999999,-0.02823030810661661,-0.078552600297285557
-0.95850000000000002,-0.02823030810661661,-0.078552600297285557
-0.95825000000000005,-0.02823030810661661,-0.078552600297285557
-0.95799999999999996,-0.02823030810661661,-0.078552600297285557
-0.95774999999999999,-0.02823030810661661,-0.078552600297285557
-0.95750000000000002,-0.02823030810661661,-0.082272234322190552
-0.95725000000000005,-0.02823030810661661,-0.082272234322190552
-0.95699999999999996,-0.02823030810661661,-0.082272234322190552
-0.95674999999999999,-0.02823030810661661,-0.082272234322190552
-0.95650000000000002,-0.02823030810661661,-0.082272234322190552
-0.95625000000000004,-0.02823030810661661,-0.082272234322190552
-0.95599999999999996,-0.02823030810661661,-0.082272234322190552
-0.95574999999999999,-0.02823030810661661,-0.082272234322190552
-0.95550000000000002,-0.02823030810661661,-0.082272234322190552
-0.95525000000000004,-0.02823030810661661,-0.082272234322190552
-0.95499999999999996,-0.02823030810661661,-0.082272234322190552
-0.95474999999999999,-0.02823030810661661,-0.082272234322190552
-0.95450000000000002,-0.02823030810661661,-0.082272234322190552
-0.95425000000000004,-0.02823030810661661,-0.082272234322190552
-0.95399999999999996,-0.02823030810661661,-0.082272234322190552
-0.95374999999999999,-0.02823030810661661,-0.082272234322190552
-0.95350000000000001,-0.02823030810661661,-0.082272234322190552
-0.95325000000000004,-0.02823030810661661,-0.082272234322190552
-0.95299999999999996,-0.02823030810661661,-0.082272234322190552
-0.95274999999999999,-0.02823030810661661,-0.082272234322190552
-0.95250000000000001,-0.02823030810661661,-0.085991868347095546
-0.95225000000000004,-0.02823030810661661,-0.085991868347095546
-0.95199999999999996,-0.02823030810661661,-0.085991868347095546
-0.95174999999999998,-0.02823030810661661,-0.085991868347095546
-0.95150000000000001,-0.02823030810661661,-0.082272234322190552
-0.95125000000000004,-0.02823030810661661,-0.082272234322190552
-0.95099999999999996,-0.02823030810661661,-0.085991868347095546
-0.95074999999999998,-0.02823030810661661,-0.085991868347095546
-0.95050000000000001,-0.02823030810661661,-0.085991868347095546
-0.95025000000000004,-0.02823030810661661,-0.085991868347095546
-0.94999999999999996,-0.02823030810661661,-0.085991868347095546
-0.94974999999999998,-0.02823030810661661,-0.085991868347095546
-0.94950000000000001,-0.031890283659369439,-0.085991868347095546
-0.94925000000000004,-0.02823030810661661,-0.085991868347095546
-0.94899999999999995,-0.02823030810661661,-0.085991868347095546
-0.94874999999999998,-0.02823030810661661,-0.085991868347095546
-0.94850000000000001,-0.02823030810661661,-0.089711502372000526
-0.94825000000000004,-0.02823030810661661,-0.085991868347095546
-0.94799999999999995,-0.031890283659369439,-0.089711502372000526
-0.94774999999999998,-0.031890283659369439,-0.089711502372000526
-0.94750000000000001,-0.02823030810661661,-0.085991868347095546
-0.94725000000000004,-0.031890283659369439,-0.089711502372000526
-0.94699999999999995,-0.031890283659369439,-0.085991868347095546
-0.94674999999999998,-0.02823030810661661,-0.085991868347095546
-0.94650000000000001,-0.02823030810661661,-0.085991868347095546
-0.94625000000000004,-0.031890283659369439,-0.089711502372000526
-0.94599999999999995,-0.031890283659369439,-0.089711502372000526
-0.94574999999999998,-0.02823030810661661,-0.085991868347095546
-0.94550000000000001,-0.02823030810661661,-0.089711502372000526
-0.94525000000000003,-0.02823030810661661,-0.089711502372000526
-0.94499999999999995,-0.02823030810661661,-0.089711502372000526
-0.94474999999999998,-0.02823030810661661,-0.089711502372000526
-0.94450000000000001,-0.02823030810661661,-0.089711502372000526
-0.94425000000000003,-0.02823030810661661,-0.085991868347095546
-0.94399999999999995,-0.031890283659369439,-0.089711502372000526
-0.94374999999999998,-0.02823030810661661,-0.089711502372000526
-0.94350000000000001,-0.02823030810661661,-0.089711502372000526
-0.94325000000000003,-0.02823030810661661,-0.089711502372000526
-0.94299999999999995,-0.02823030810661661,-0.089711502372000526
-0.94274999999999998,-0.02823030810661661,-0.089711502372000526
-0.9425,-0.02823030810661661,-0.089711502372000526
-0.94225000000000003,-0.02823030810661661,-0.089711502372000526
-0.94199999999999995,-0.02823030810661661,-0.089711502372000526
-0.94174999999999998,-0.02823030810661661,-0.089711502372000526
-0.9415,-0.02823030810661661,-0.085991868347095546
-0.94125000000000003,-0.02823030810661661,-0.089711502372000526
-0.94099999999999995,-0.02823030810661661,-0.089711502372000526
-0.94074999999999998,-0.02823030810661661,-0.089711502372000526
-0.9405,-0.02823030810661661,-0.089711502372000526
-0.94025000000000003,-0.031890283659369439,-0.089711502372000526
-0.93999999999999995,-0.031890283659369439,-0.089711502372000526
-0.93974999999999997,-0.031890283659369439,-0.089711502372000526
-0.9395,-0.031890283659369439,-0.089711502372000526
-0.93925000000000003,-0.031890283659369439,-0.089711502372000526
-0.93899999999999995,-0.031890283659369439,-0.09343113639690552
-0.93874999999999997,-0.02823030810661661,-0.09343113639690552
-0.9385,-0.031890283659369439,-0.089711502372000526
-0.93825000000000003,-0.02823030810661661,-0.089711502372000526
-0.93799999999999994,-0.031890283659369439,-0.089711502372000526
-0.93774999999999997,-0.031890283659369439,-0.089711502372000526
-0.9375,-0.031890283659369439,-0.089711502372000526
-0.93725000000000003,-0.031890283659369439,-0.09343113639690552
-0.93700000000000006,-0.02823030810661661,-0.09343113639690552
-0.93674999999999997,-0.02823030810661661,-0.089711502372000526
-0.9365,-0.031890283659369439,-0.089711502372000526
-0.93625000000000003,-0.031890283659369439,-0.09343113639690552
-0.93600000000000005,-0.031890283659369439,-0.09343113639690552
-0.93574999999999997,-0.031890283659369439,-0.089711502372000526
-0.9355,-0.031890283659369439,-0.09343113639690552
-0.93525000000000003,-0.02823030810661661,-0.09343113639690552
-0.93500000000000005,-0.02823030810661661,-0.089711502372000526
-0.93474999999999997,-0.02823030810661661,-0.089711502372000526
-0.9345,-0.02823030810661661,-0.089711502372000526
-0.93425000000000002,-0.031890283659369439,-0.09343113639690552
-0.93400000000000005,-0.02823030810661661,-0.089711502372000526
-0.93374999999999997,-0.02823030810661661,-0.089711502372000526
-0.9335,-0.02823030810661661,-0.09343113639690552
-0.93325000000000002,-0.02823030810661661,-0.09343113639690552
-0.93300000000000005,-0.02823030810661661,-0.09343113639690552
-0.93274999999999997,-0.031890283659369439,-0.09343113639690552
-0.9325,-0.031890283659369439,-0.09343113639690552
-0.93225000000000002,-0.031890283659369439,-0.09343113639690552
-0.93200000000000005,-0.031890283659369439,-0.09343113639690552
-0.93174999999999997,-0.031890283659369439,-0.09343113639690552
-0.93149999999999999,-0.031890283659369439,-0.09343113639690552
-0.93125000000000002,-0.02823030810661661,-0.09343113639690552
-0.93100000000000005,-0.031890283659369439,-0.09343113639690552
-0.93074999999999997,-0.031890283659369439,-0.09343113639690552
-0.93049999999999999,-0.031890283659369439,-0.09343113639690552
-0.93025000000000002,-0.031890283659369439,-0.09343113639690552
-0.93000000000000005,-0.031890283659369439,-0.09343113639690552
-0.92974999999999997,-0.031890283659369439,-0.09343113639690552
-0.92949999999999999,-0.031890283659369439,-0.09343113639690552
-0.92925000000000002,-0.02823030810661661,-0.09343113639690552
-0.92900000000000005,-0.02823030810661661,-0.09343113639690552
-0.92874999999999996,-0.031890283659369439,-0.09343113639690552
-0.92849999999999999,-0.031890283659369439,-0.09343113639690552
-0.92825000000000002,-0.031890283659369439,-0.09343113639690552
-0.92800000000000005,-0.02823030810661661,-0.09343113639690552
-0.92774999999999996,-0.02823030810661661,-0.09343113639690552
-0.92749999999999999,-0.031890283659369439,-0.09343113639690552
-0.92725000000000002,-0.02823030810661661,-0.09343113639690552
-0.92700000000000005,-0.031890283659369439,-0.097150770421810514
-0.92674999999999996,-0.031890283659369439,-0.097150770421810514
-0.92649999999999999,-0.031890283659369439,-0.097150770421810514
-0.92625000000000002,-0.031890283659369439,-0.097150770421810514
-0.92600000000000005,-0.031890283659369439,-0.097150770421810514
-0.92574999999999996,-0.031890283659369439,-0.097150770421810514
-0.92549999999999999,-0.031890283659369439,-0.097150770421810514
-0.92525000000000002,-0.031890283659369439,-0.09343113639690552
-0.92500000000000004,-0.02823030810661661,-0.09343113639690552
-0.92474999999999996,-0.031890283659369439,-0.09343113639690552
-0.92449999999999999,-0.031890283659369439,-0.09343113639690552
-0.92425000000000002,-0.031890283659369439,-0.09343113639690552
-0.92400000000000004,-0.031890283659369439,-0.09343113639690552
-0.92374999999999996,-0.031890283659369439,-0.09343113639690552
-0.92349999999999999,-0.031890283659369439,-0.09343113639690552
-0.92325000000000002,-0.031890283659369439,-0.097150770421810514
-0.92300000000000004,-0.02823030810661661,-0.097150770421810514
-0.92274999999999996,-0.031890283659369439,-0.097150770421810514
-0.92249999999999999,-0.031890283659369439,-0.097150770421810514
-0.92225000000000001,-0.02823030810661661,-0.09343113639690552
-0.92200000000000004,-0.02823030810661661,-0.097150770421810514
